{
  "resourceType": "CodeSystem",
  "id": "e-referral-category",
  "text": {
    "status": "generated",
    "div": "<div xmlns=\"http://www.w3.org/1999/xhtml\"><h2>Categories for e-referral</h2><p>This code system http://fhir.mn/CodeSystem/e-referral-category defines the following codes:</p><table class=\"codes\"><tr><td style=\"white-space:nowrap\"><b>Code</b></td><td><b>Display</b></td><td><b>Definition</b></td></tr><tr><td style=\"white-space:nowrap\">DIAG<a name=\"e-referral-category-DIAG\"> </a></td><td>Diagnosis</td><td/></tr><tr><td style=\"white-space:nowrap\">PREV<a name=\"e-referral-category-PREV\"> </a></td><td>Preventive Examination</td><td/></tr><tr><td style=\"white-space:nowrap\">TREAT<a name=\"e-referral-category-TREAT\"> </a></td><td>Treatment</td><td/></tr><tr><td style=\"white-space:nowrap\">PTMON<a name=\"e-referral-category-PTMON\"> </a></td><td>Post-Treatment Monitoring</td><td/></tr><tr><td style=\"white-space:nowrap\">PREG<a name=\"e-referral-category-PREG\"> </a></td><td>Pregnancy and Childbirth Care</td><td/></tr><tr><td style=\"white-space:nowrap\">PALL<a name=\"e-referral-category-PALL\"> </a></td><td>Palliative Care</td><td/></tr><tr><td style=\"white-space:nowrap\">REHAB<a name=\"e-referral-category-REHAB\"> </a></td><td>Rehabilitation Care</td><td/></tr><tr><td style=\"white-space:nowrap\">NURSE<a name=\"e-referral-category-NURSE\"> </a></td><td>Nursing Care</td><td/></tr><tr><td style=\"white-space:nowrap\">REMON<a name=\"e-referral-category-REMON\"> </a></td><td>Re-Monitoring</td><td/></tr><tr><td style=\"white-space:nowrap\">OTHER<a name=\"e-referral-category-OTHER\"> </a></td><td>Other</td><td/></tr></table></div>"
  },
  "url": "http://fhir.mn/CodeSystem/e-referral-category",
  "version": "1.0.0",
  "name": "EreferralCategory",
  "title": "Categories for e-referral",
  "status": "active",
  "date": "2021-10-12T23:24:32+02:00",
  "publisher": "http://fhir.mn",
  "contact": [
    {
      "name": "Pétur Þór Valdimarsson",
      "telecom": [
        {
          "system": "url",
          "value": "http://fhir.mn"
        },
        {
          "system": "email",
          "value": "petur.valdimarsson@chorus.se"
        }
      ]
    }
  ],
  "content": "complete",
  "concept": [
    {
      "code": "DIAG",
      "display": "Diagnosis"
    },
    {
      "code": "PREV",
      "display": "Preventive Examination"
    },
    {
      "code": "TREAT",
      "display": "Treatment"
    },
    {
      "code": "PTMON",
      "display": "Post-Treatment Monitoring"
    },
    {
      "code": "PREG",
      "display": "Pregnancy and Childbirth Care"
    },
    {
      "code": "PALL",
      "display": "Palliative Care"
    },
    {
      "code": "REHAB",
      "display": "Rehabilitation Care"
    },
    {
      "code": "NURSE",
      "display": "Nursing Care"
    },
    {
      "code": "REMON",
      "display": "Re-Monitoring"
    },
    {
      "code": "OTHER",
      "display": "Other"
    }
  ]
}