<?xml version="1.0" encoding="UTF-8" standalone="no"?><svg xmlns="http://www.w3.org/2000/svg" xmlns:xlink="http://www.w3.org/1999/xlink" contentScriptType="application/ecmascript" contentStyleType="text/css" height="359px" preserveAspectRatio="none" style="width:288px;height:359px;background:#FFFFFF;" version="1.1" viewBox="0 0 288 359" width="288px" zoomAndPan="magnify"><defs><filter height="300%" id="fjoa97upi7sd6" width="300%" x="-1" y="-1"><feGaussianBlur result="blurOut" stdDeviation="2.0"/><feColorMatrix in="blurOut" result="blurOut2" type="matrix" values="0 0 0 0 0 0 0 0 0 0 0 0 0 0 0 0 0 0 .4 0"/><feOffset dx="4.0" dy="4.0" in="blurOut2" result="blurOut3"/><feBlend in="SourceGraphic" in2="blurOut3" mode="normal"/></filter></defs><g><!--MD5=[72ce1314beffbcf60a64ee91fbbc10dc]
class Contact--><rect codeLine="5" fill="#A5E8E7" filter="url(#fjoa97upi7sd6)" height="78.998" id="Contact" style="stroke:#000000;stroke-width:1.5;" width="211" x="35" y="267"/><text fill="#000000" font-family="OpenSansCondensedLight" font-size="12" lengthAdjust="spacing" textLength="43" x="119" y="283.6016">Contact</text><line style="stroke:#000000;stroke-width:1.5;" x1="36" x2="245" y1="291.1328" y2="291.1328"/><text fill="#000000" font-family="sans-serif" font-size="11" lengthAdjust="spacing" textLength="67" x="41" y="305.7676">relationship:</text><a href="https://www.hl7.org/fhir/datatypes.html#CodeableConcept" target="_top" title="https://www.hl7.org/fhir/datatypes.html#CodeableConcept" xlink:actuate="onRequest" xlink:href="https://www.hl7.org/fhir/datatypes.html#CodeableConcept" xlink:show="new" xlink:title="https://www.hl7.org/fhir/datatypes.html#CodeableConcept" xlink:type="simple"><text fill="#0000FF" font-family="sans-serif" font-size="11" lengthAdjust="spacing" text-decoration="underline" textLength="98" x="111" y="305.7676">CodeableConcept!</text></a><text fill="#000000" font-family="sans-serif" font-size="11" lengthAdjust="spacing" textLength="28" x="212" y="305.7676">[0..1]</text><text fill="#000000" font-family="sans-serif" font-size="11" lengthAdjust="spacing" textLength="32" x="41" y="318.7227">name:</text><a href="StructureDefinition-mng-dt-human-name.html" target="_top" title="StructureDefinition-mng-dt-human-name.html" xlink:actuate="onRequest" xlink:href="StructureDefinition-mng-dt-human-name.html" xlink:show="new" xlink:title="StructureDefinition-mng-dt-human-name.html" xlink:type="simple"><text fill="#0000FF" font-family="sans-serif" font-size="11" lengthAdjust="spacing" text-decoration="underline" textLength="84" x="76" y="318.7227">HumanNameMn</text></a><text fill="#000000" font-family="sans-serif" font-size="11" lengthAdjust="spacing" textLength="26" x="163" y="318.7227">[1..*]</text><text fill="#000000" font-family="sans-serif" font-size="11" lengthAdjust="spacing" textLength="45" x="41" y="331.6777">telecom:</text><a href="StructureDefinition-mng-dt-contact-point.html" target="_top" title="StructureDefinition-mng-dt-contact-point.html" xlink:actuate="onRequest" xlink:href="StructureDefinition-mng-dt-contact-point.html" xlink:show="new" xlink:title="StructureDefinition-mng-dt-contact-point.html" xlink:type="simple"><text fill="#0000FF" font-family="sans-serif" font-size="11" lengthAdjust="spacing" text-decoration="underline" textLength="69" x="89" y="331.6777">ContactPoint</text></a><text fill="#000000" font-family="sans-serif" font-size="11" lengthAdjust="spacing" textLength="26" x="161" y="331.6777">[0..*]</text><line style="stroke:#000000;stroke-width:1.5;" x1="36" x2="245" y1="337.998" y2="337.998"/><!--MD5=[1c7db6c124839f06023374d9ba6e26f8]
class PatientMn--><rect codeLine="5" fill="#A5E8E7" filter="url(#fjoa97upi7sd6)" height="182.6387" id="PatientMn" style="stroke:#000000;stroke-width:1.5;" width="267" x="7" y="7"/><text fill="#000000" font-family="OpenSansCondensedLight" font-size="12" lengthAdjust="spacing" textLength="56" x="112.5" y="23.6016">PatientMn</text><line style="stroke:#000000;stroke-width:1.5;" x1="8" x2="273" y1="31.1328" y2="31.1328"/><text fill="#000000" font-family="sans-serif" font-size="11" lengthAdjust="spacing" textLength="159" x="13" y="45.7676">nationalIdentificationNumber:</text><a href="StructureDefinition-mng-dt-identifier.html" target="_top" title="StructureDefinition-mng-dt-identifier.html" xlink:actuate="onRequest" xlink:href="StructureDefinition-mng-dt-identifier.html" xlink:show="new" xlink:title="StructureDefinition-mng-dt-identifier.html" xlink:type="simple"><text fill="#0000FF" font-family="sans-serif" font-size="11" lengthAdjust="spacing" text-decoration="underline" textLength="64" x="175" y="45.7676">IdentifierMn</text></a><text fill="#000000" font-family="sans-serif" font-size="11" lengthAdjust="spacing" textLength="26" x="242" y="45.7676">[0..*]</text><text fill="#000000" font-family="sans-serif" font-size="11" lengthAdjust="spacing" textLength="127" x="13" y="58.7227">birthCertificateNumber:</text><a href="StructureDefinition-mng-dt-identifier.html" target="_top" title="StructureDefinition-mng-dt-identifier.html" xlink:actuate="onRequest" xlink:href="StructureDefinition-mng-dt-identifier.html" xlink:show="new" xlink:title="StructureDefinition-mng-dt-identifier.html" xlink:type="simple"><text fill="#0000FF" font-family="sans-serif" font-size="11" lengthAdjust="spacing" text-decoration="underline" textLength="64" x="143" y="58.7227">IdentifierMn</text></a><text fill="#000000" font-family="sans-serif" font-size="11" lengthAdjust="spacing" textLength="26" x="210" y="58.7227">[0..*]</text><text fill="#000000" font-family="sans-serif" font-size="11" lengthAdjust="spacing" textLength="76" x="13" y="71.6777">registrationId:</text><a href="StructureDefinition-mng-dt-identifier.html" target="_top" title="StructureDefinition-mng-dt-identifier.html" xlink:actuate="onRequest" xlink:href="StructureDefinition-mng-dt-identifier.html" xlink:show="new" xlink:title="StructureDefinition-mng-dt-identifier.html" xlink:type="simple"><text fill="#0000FF" font-family="sans-serif" font-size="11" lengthAdjust="spacing" text-decoration="underline" textLength="64" x="92" y="71.6777">IdentifierMn</text></a><text fill="#000000" font-family="sans-serif" font-size="11" lengthAdjust="spacing" textLength="26" x="159" y="71.6777">[0..*]</text><text fill="#000000" font-family="sans-serif" font-size="11" lengthAdjust="spacing" textLength="142" x="13" y="84.6328">identificationCardNumber:</text><a href="StructureDefinition-mng-dt-identifier.html" target="_top" title="StructureDefinition-mng-dt-identifier.html" xlink:actuate="onRequest" xlink:href="StructureDefinition-mng-dt-identifier.html" xlink:show="new" xlink:title="StructureDefinition-mng-dt-identifier.html" xlink:type="simple"><text fill="#0000FF" font-family="sans-serif" font-size="11" lengthAdjust="spacing" text-decoration="underline" textLength="64" x="158" y="84.6328">IdentifierMn</text></a><text fill="#000000" font-family="sans-serif" font-size="11" lengthAdjust="spacing" textLength="26" x="225" y="84.6328">[0..*]</text><text fill="#000000" font-family="sans-serif" font-size="11" lengthAdjust="spacing" textLength="34" x="13" y="97.5879">active:</text><a href="https://www.hl7.org/fhir/datatypes.html#boolean" target="_top" title="https://www.hl7.org/fhir/datatypes.html#boolean" xlink:actuate="onRequest" xlink:href="https://www.hl7.org/fhir/datatypes.html#boolean" xlink:show="new" xlink:title="https://www.hl7.org/fhir/datatypes.html#boolean" xlink:type="simple"><text fill="#0000FF" font-family="sans-serif" font-size="11" lengthAdjust="spacing" text-decoration="underline" textLength="43" x="50" y="97.5879">boolean</text></a><text fill="#000000" font-family="sans-serif" font-size="11" lengthAdjust="spacing" textLength="28" x="96" y="97.5879">[0..1]</text><text fill="#000000" font-family="sans-serif" font-size="11" lengthAdjust="spacing" textLength="32" x="13" y="110.543">name:</text><a href="StructureDefinition-mng-dt-human-name.html" target="_top" title="StructureDefinition-mng-dt-human-name.html" xlink:actuate="onRequest" xlink:href="StructureDefinition-mng-dt-human-name.html" xlink:show="new" xlink:title="StructureDefinition-mng-dt-human-name.html" xlink:type="simple"><text fill="#0000FF" font-family="sans-serif" font-size="11" lengthAdjust="spacing" text-decoration="underline" textLength="84" x="48" y="110.543">HumanNameMn</text></a><text fill="#000000" font-family="sans-serif" font-size="11" lengthAdjust="spacing" textLength="26" x="135" y="110.543">[1..*]</text><text fill="#000000" font-family="sans-serif" font-size="11" lengthAdjust="spacing" textLength="41" x="13" y="123.498">gender:</text><a href="https://www.hl7.org/fhir/datatypes.html#code" target="_top" title="https://www.hl7.org/fhir/datatypes.html#code" xlink:actuate="onRequest" xlink:href="https://www.hl7.org/fhir/datatypes.html#code" xlink:show="new" xlink:title="https://www.hl7.org/fhir/datatypes.html#code" xlink:type="simple"><text fill="#0000FF" font-family="sans-serif" font-size="11" lengthAdjust="spacing" text-decoration="underline" textLength="26" x="57" y="123.498">code</text></a><text fill="#000000" font-family="sans-serif" font-size="11" lengthAdjust="spacing" textLength="37" x="86" y="123.498">[1..1] «</text><a href="https://www.hl7.org/fhir/valueset-administrative-gender.html" target="_top" title="https://www.hl7.org/fhir/valueset-administrative-gender.html" xlink:actuate="onRequest" xlink:href="https://www.hl7.org/fhir/valueset-administrative-gender.html" xlink:show="new" xlink:title="https://www.hl7.org/fhir/valueset-administrative-gender.html" xlink:type="simple"><text fill="#0000FF" font-family="sans-serif" font-size="11" lengthAdjust="spacing" text-decoration="underline" textLength="120" x="123" y="123.498">AdministrativeGender!</text></a><text fill="#000000" font-family="sans-serif" font-size="11" lengthAdjust="spacing" textLength="6" x="243" y="123.498">»</text><text fill="#000000" font-family="sans-serif" font-size="11" lengthAdjust="spacing" textLength="53" x="13" y="136.4531">birthDate:</text><a href="https://www.hl7.org/fhir/datatypes.html#date" target="_top" title="https://www.hl7.org/fhir/datatypes.html#date" xlink:actuate="onRequest" xlink:href="https://www.hl7.org/fhir/datatypes.html#date" xlink:show="new" xlink:title="https://www.hl7.org/fhir/datatypes.html#date" xlink:type="simple"><text fill="#0000FF" font-family="sans-serif" font-size="11" lengthAdjust="spacing" text-decoration="underline" textLength="23" x="69" y="136.4531">date</text></a><text fill="#000000" font-family="sans-serif" font-size="11" lengthAdjust="spacing" textLength="28" x="95" y="136.4531">[1..1]</text><text fill="#000000" font-family="sans-serif" font-size="11" lengthAdjust="spacing" textLength="137" x="13" y="149.4082">deceased[x]: Type [0..1] «</text><a href="https://www.hl7.org/fhir/datatypes.html#boolean" target="_top" title="https://www.hl7.org/fhir/datatypes.html#boolean" xlink:actuate="onRequest" xlink:href="https://www.hl7.org/fhir/datatypes.html#boolean" xlink:show="new" xlink:title="https://www.hl7.org/fhir/datatypes.html#boolean" xlink:type="simple"><text fill="#0000FF" font-family="sans-serif" font-size="11" lengthAdjust="spacing" text-decoration="underline" textLength="43" x="150" y="149.4082">boolean</text></a><text fill="#000000" font-family="sans-serif" font-size="11" lengthAdjust="spacing" textLength="4" x="193" y="149.4082">|</text><a href="https://www.hl7.org/fhir/datatypes.html#dateTime" target="_top" title="https://www.hl7.org/fhir/datatypes.html#dateTime" xlink:actuate="onRequest" xlink:href="https://www.hl7.org/fhir/datatypes.html#dateTime" xlink:show="new" xlink:title="https://www.hl7.org/fhir/datatypes.html#dateTime" xlink:type="simple"><text fill="#0000FF" font-family="sans-serif" font-size="11" lengthAdjust="spacing" text-decoration="underline" textLength="49" x="197" y="149.4082">dateTime</text></a><text fill="#000000" font-family="sans-serif" font-size="11" lengthAdjust="spacing" textLength="6" x="246" y="149.4082">»</text><text fill="#000000" font-family="sans-serif" font-size="11" lengthAdjust="spacing" textLength="46" x="13" y="162.3633">address:</text><a href="StructureDefinition-mng-dt-address.html" target="_top" title="StructureDefinition-mng-dt-address.html" xlink:actuate="onRequest" xlink:href="StructureDefinition-mng-dt-address.html" xlink:show="new" xlink:title="StructureDefinition-mng-dt-address.html" xlink:type="simple"><text fill="#0000FF" font-family="sans-serif" font-size="11" lengthAdjust="spacing" text-decoration="underline" textLength="61" x="62" y="162.3633">AddressMn</text></a><text fill="#000000" font-family="sans-serif" font-size="11" lengthAdjust="spacing" textLength="26" x="126" y="162.3633">[0..*]</text><text fill="#000000" font-family="sans-serif" font-size="11" lengthAdjust="spacing" textLength="117" x="13" y="175.3184">contact: Contact [1..*]</text><line style="stroke:#000000;stroke-width:1.5;" x1="8" x2="273" y1="181.6387" y2="181.6387"/><!--MD5=[5d316d3c37d077f5aa9017dad898dec7]
reverse link PatientMn to Contact--><path codeLine="8" d="M140.5,203.18 C140.5,225.99 140.5,248.75 140.5,267 " fill="none" id="PatientMn-backto-Contact" style="stroke:#000000;stroke-width:1.0;"/><polygon fill="#000000" points="140.5,190.15,136.5,196.15,140.5,202.15,144.5,196.15,140.5,190.15" style="stroke:#000000;stroke-width:1.0;"/><text fill="#000000" font-family="sans-serif" font-size="13" lengthAdjust="spacing" textLength="77" x="141.5" y="233.5684">contact[1..*]</text><!--MD5=[284cd4f094d81e6e67cf7c5827da9df2]
@startuml
hide circle

!include link/all.pinc
!include mng/patient-contact.pml

!include mng/patient.pml

PatientMn *- - Contact : contact[1..*]
@enduml

@startuml
hide circle































skinparam classBackgroundColor #A5E8E7
skinparam classBorderColor #000000
skinparam ArrowColor #000000
skinparam classFontName OpenSansCondensedLight
skinparam classFontSize 1em
hide circle


class Contact {
    relationship: [[https://www.hl7.org/fhir/datatypes.html#CodeableConcept CodeableConcept!]] [0..1]
    name: [[StructureDefinition-mng-dt-human-name.html HumanNameMn]] [1..*]
    telecom: [[StructureDefinition-mng-dt-contact-point.html ContactPoint]] [0..*]
}


hide circle


class PatientMn {
    nationalIdentificationNumber: [[StructureDefinition-mng-dt-identifier.html IdentifierMn]] [0..*]
    birthCertificateNumber: [[StructureDefinition-mng-dt-identifier.html IdentifierMn]] [0..*]
    registrationId: [[StructureDefinition-mng-dt-identifier.html IdentifierMn]] [0..*]
    identificationCardNumber: [[StructureDefinition-mng-dt-identifier.html IdentifierMn]] [0..*]
    active: [[https://www.hl7.org/fhir/datatypes.html#boolean boolean]] [0..1]
    name: [[StructureDefinition-mng-dt-human-name.html HumanNameMn]] [1..*]
    gender: [[https://www.hl7.org/fhir/datatypes.html#code code]] [1..1] «[[https://www.hl7.org/fhir/valueset-administrative-gender.html AdministrativeGender!]]»
    birthDate: [[https://www.hl7.org/fhir/datatypes.html#date date]] [1..1]
    deceased[x]: Type [0..1] «[[https://www.hl7.org/fhir/datatypes.html#boolean boolean]]|[[https://www.hl7.org/fhir/datatypes.html#dateTime dateTime]]»
    address: [[StructureDefinition-mng-dt-address.html AddressMn]] [0..*]
    contact: Contact [1..*]
}


PatientMn *- - Contact : contact[1..*]
@enduml

PlantUML version 1.2021.10(Mon Aug 30 15:43:48 CEST 2021)
(GPL source distribution)
Java Runtime: OpenJDK Runtime Environment
JVM: OpenJDK 64-Bit Server VM
Default Encoding: UTF-8
Language: en
Country: GB
--></g></svg>