<?xml version="1.0" encoding="UTF-8"?>
<sch:schema xmlns:sch="http://purl.oclc.org/dsdl/schematron" queryBinding="xslt2">
  <sch:ns prefix="f" uri="http://hl7.org/fhir"/>
  <sch:ns prefix="h" uri="http://www.w3.org/1999/xhtml"/>
  <!-- 
    This file contains just the constraints for the profile ObservationMn
    It includes the base constraints for the resource as well.
    Because of the way that schematrons and containment work, 
    you may need to use this schematron fragment to build a, 
    single schematron that validates contained resources (if you have any) 
  -->
  <sch:pattern>
    <sch:title>f:Observation</sch:title>
    <sch:rule context="f:Observation">
      <sch:assert test="count(f:basedOn) &lt;= 0">basedOn: maximum cardinality of 'basedOn' is 0</sch:assert>
      <sch:assert test="count(f:partOf) &lt;= 0">partOf: maximum cardinality of 'partOf' is 0</sch:assert>
      <sch:assert test="count(f:focus) &lt;= 0">focus: maximum cardinality of 'focus' is 0</sch:assert>
      <sch:assert test="count(f:bodySite) &lt;= 0">bodySite: maximum cardinality of 'bodySite' is 0</sch:assert>
      <sch:assert test="count(f:method) &lt;= 0">method: maximum cardinality of 'method' is 0</sch:assert>
      <sch:assert test="count(f:referenceRange) &lt;= 0">referenceRange: maximum cardinality of 'referenceRange' is 0</sch:assert>
      <sch:assert test="count(f:hasMember) &lt;= 0">hasMember: maximum cardinality of 'hasMember' is 0</sch:assert>
      <sch:assert test="count(f:derivedFrom) &lt;= 0">derivedFrom: maximum cardinality of 'derivedFrom' is 0</sch:assert>
      <sch:assert test="count(f:component) &lt;= 0">component: maximum cardinality of 'component' is 0</sch:assert>
    </sch:rule>
  </sch:pattern>
  <sch:pattern>
    <sch:title>Observation</sch:title>
    <sch:rule context="f:Observation">
      <sch:assert test="not(parent::f:contained and f:contained)">If the resource is contained in another resource, it SHALL NOT contain nested Resources (inherited)</sch:assert>
      <sch:assert test="not(exists(for $id in f:contained/*/f:id/@value return $contained[not(parent::*/descendant::f:reference/@value=concat('#', $contained/*/id/@value) or descendant::f:reference[@value='#'])]))">If the resource is contained in another resource, it SHALL be referred to from elsewhere in the resource or SHALL refer to the containing resource (inherited)</sch:assert>
      <sch:assert test="not(exists(f:contained/*/f:meta/f:versionId)) and not(exists(f:contained/*/f:meta/f:lastUpdated))">If a resource is contained in another resource, it SHALL NOT have a meta.versionId or a meta.lastUpdated (inherited)</sch:assert>
      <sch:assert test="not(exists(f:contained/*/f:meta/f:security))">If a resource is contained in another resource, it SHALL NOT have a security label (inherited)</sch:assert>
      <sch:assert test="exists(f:text/h:div)">A resource should have narrative for robust management (inherited)</sch:assert>
      <sch:assert test="not(exists(f:dataAbsentReason)) or (not(exists(*[starts-with(local-name(.), 'value')])))">dataAbsentReason SHALL only be present if Observation.value[x] is not present (inherited)</sch:assert>
      <sch:assert test="not(f:*[starts-with(local-name(.), 'value')] and (for $coding in f:code/f:coding return f:component/f:code/f:coding[f:code/@value=$coding/f:code/@value] [f:system/@value=$coding/f:system/@value]))">If Observation.code is the same as an Observation.component.code then the value element associated with the code SHALL NOT be present (inherited)</sch:assert>
    </sch:rule>
  </sch:pattern>
  <sch:pattern>
    <sch:title>Observation.meta</sch:title>
    <sch:rule context="f:Observation/f:meta">
      <sch:assert test="@value|f:*|h:div">All FHIR elements must have a @value or children (inherited)</sch:assert>
    </sch:rule>
  </sch:pattern>
  <sch:pattern>
    <sch:title>Observation.implicitRules</sch:title>
    <sch:rule context="f:Observation/f:implicitRules">
      <sch:assert test="@value|f:*|h:div">All FHIR elements must have a @value or children (inherited)</sch:assert>
    </sch:rule>
  </sch:pattern>
  <sch:pattern>
    <sch:title>Observation.language</sch:title>
    <sch:rule context="f:Observation/f:language">
      <sch:assert test="@value|f:*|h:div">All FHIR elements must have a @value or children (inherited)</sch:assert>
    </sch:rule>
  </sch:pattern>
  <sch:pattern>
    <sch:title>Observation.text</sch:title>
    <sch:rule context="f:Observation/f:text">
      <sch:assert test="@value|f:*|h:div">All FHIR elements must have a @value or children (inherited)</sch:assert>
    </sch:rule>
  </sch:pattern>
  <sch:pattern>
    <sch:title>Observation.extension</sch:title>
    <sch:rule context="f:Observation/f:extension">
      <sch:assert test="@value|f:*|h:div">All FHIR elements must have a @value or children (inherited)</sch:assert>
      <sch:assert test="exists(f:extension)!=exists(f:*[starts-with(local-name(.), &quot;value&quot;)])">Must have either extensions or value[x], not both (inherited)</sch:assert>
    </sch:rule>
  </sch:pattern>
  <sch:pattern>
    <sch:title>Observation.modifierExtension</sch:title>
    <sch:rule context="f:Observation/f:modifierExtension">
      <sch:assert test="@value|f:*|h:div">All FHIR elements must have a @value or children (inherited)</sch:assert>
      <sch:assert test="exists(f:extension)!=exists(f:*[starts-with(local-name(.), &quot;value&quot;)])">Must have either extensions or value[x], not both (inherited)</sch:assert>
    </sch:rule>
  </sch:pattern>
  <sch:pattern>
    <sch:title>Observation.identifier</sch:title>
    <sch:rule context="f:Observation/f:identifier">
      <sch:assert test="@value|f:*|h:div">All FHIR elements must have a @value or children (inherited)</sch:assert>
    </sch:rule>
  </sch:pattern>
  <sch:pattern>
    <sch:title>Observation.basedOn</sch:title>
    <sch:rule context="f:Observation/f:basedOn">
      <sch:assert test="@value|f:*|h:div">All FHIR elements must have a @value or children (inherited)</sch:assert>
    </sch:rule>
  </sch:pattern>
  <sch:pattern>
    <sch:title>Observation.partOf</sch:title>
    <sch:rule context="f:Observation/f:partOf">
      <sch:assert test="@value|f:*|h:div">All FHIR elements must have a @value or children (inherited)</sch:assert>
    </sch:rule>
  </sch:pattern>
  <sch:pattern>
    <sch:title>Observation.status</sch:title>
    <sch:rule context="f:Observation/f:status">
      <sch:assert test="@value|f:*|h:div">All FHIR elements must have a @value or children (inherited)</sch:assert>
    </sch:rule>
  </sch:pattern>
  <sch:pattern>
    <sch:title>Observation.category</sch:title>
    <sch:rule context="f:Observation/f:category">
      <sch:assert test="@value|f:*|h:div">All FHIR elements must have a @value or children (inherited)</sch:assert>
    </sch:rule>
  </sch:pattern>
  <sch:pattern>
    <sch:title>Observation.code</sch:title>
    <sch:rule context="f:Observation/f:code">
      <sch:assert test="@value|f:*|h:div">All FHIR elements must have a @value or children (inherited)</sch:assert>
    </sch:rule>
  </sch:pattern>
  <sch:pattern>
    <sch:title>Observation.subject</sch:title>
    <sch:rule context="f:Observation/f:subject">
      <sch:assert test="@value|f:*|h:div">All FHIR elements must have a @value or children (inherited)</sch:assert>
    </sch:rule>
  </sch:pattern>
  <sch:pattern>
    <sch:title>Observation.focus</sch:title>
    <sch:rule context="f:Observation/f:focus">
      <sch:assert test="@value|f:*|h:div">All FHIR elements must have a @value or children (inherited)</sch:assert>
    </sch:rule>
  </sch:pattern>
  <sch:pattern>
    <sch:title>Observation.encounter</sch:title>
    <sch:rule context="f:Observation/f:encounter">
      <sch:assert test="@value|f:*|h:div">All FHIR elements must have a @value or children (inherited)</sch:assert>
    </sch:rule>
  </sch:pattern>
  <sch:pattern>
    <sch:title>Observation.effective[x] 1</sch:title>
    <sch:rule context="f:Observation/f:effective[x]">
      <sch:assert test="@value|f:*|h:div">All FHIR elements must have a @value or children (inherited)</sch:assert>
    </sch:rule>
  </sch:pattern>
  <sch:pattern>
    <sch:title>Observation.issued</sch:title>
    <sch:rule context="f:Observation/f:issued">
      <sch:assert test="@value|f:*|h:div">All FHIR elements must have a @value or children (inherited)</sch:assert>
    </sch:rule>
  </sch:pattern>
  <sch:pattern>
    <sch:title>Observation.performer</sch:title>
    <sch:rule context="f:Observation/f:performer">
      <sch:assert test="@value|f:*|h:div">All FHIR elements must have a @value or children (inherited)</sch:assert>
    </sch:rule>
  </sch:pattern>
  <sch:pattern>
    <sch:title>Observation.value[x] 1</sch:title>
    <sch:rule context="f:Observation/f:value[x]">
      <sch:assert test="@value|f:*|h:div">All FHIR elements must have a @value or children (inherited)</sch:assert>
      <sch:assert test="@value|f:*|h:div">All FHIR elements must have a @value or children (inherited)</sch:assert>
      <sch:assert test="@value|f:*|h:div">All FHIR elements must have a @value or children (inherited)</sch:assert>
    </sch:rule>
  </sch:pattern>
  <sch:pattern>
    <sch:title>Observation.dataAbsentReason</sch:title>
    <sch:rule context="f:Observation/f:dataAbsentReason">
      <sch:assert test="@value|f:*|h:div">All FHIR elements must have a @value or children (inherited)</sch:assert>
    </sch:rule>
  </sch:pattern>
  <sch:pattern>
    <sch:title>Observation.interpretation</sch:title>
    <sch:rule context="f:Observation/f:interpretation">
      <sch:assert test="@value|f:*|h:div">All FHIR elements must have a @value or children (inherited)</sch:assert>
    </sch:rule>
  </sch:pattern>
  <sch:pattern>
    <sch:title>Observation.note</sch:title>
    <sch:rule context="f:Observation/f:note">
      <sch:assert test="@value|f:*|h:div">All FHIR elements must have a @value or children (inherited)</sch:assert>
    </sch:rule>
  </sch:pattern>
  <sch:pattern>
    <sch:title>Observation.bodySite</sch:title>
    <sch:rule context="f:Observation/f:bodySite">
      <sch:assert test="@value|f:*|h:div">All FHIR elements must have a @value or children (inherited)</sch:assert>
    </sch:rule>
  </sch:pattern>
  <sch:pattern>
    <sch:title>Observation.method</sch:title>
    <sch:rule context="f:Observation/f:method">
      <sch:assert test="@value|f:*|h:div">All FHIR elements must have a @value or children (inherited)</sch:assert>
    </sch:rule>
  </sch:pattern>
  <sch:pattern>
    <sch:title>Observation.specimen</sch:title>
    <sch:rule context="f:Observation/f:specimen">
      <sch:assert test="@value|f:*|h:div">All FHIR elements must have a @value or children (inherited)</sch:assert>
    </sch:rule>
  </sch:pattern>
  <sch:pattern>
    <sch:title>Observation.device</sch:title>
    <sch:rule context="f:Observation/f:device">
      <sch:assert test="@value|f:*|h:div">All FHIR elements must have a @value or children (inherited)</sch:assert>
    </sch:rule>
  </sch:pattern>
  <sch:pattern>
    <sch:title>Observation.referenceRange</sch:title>
    <sch:rule context="f:Observation/f:referenceRange">
      <sch:assert test="@value|f:*|h:div">All FHIR elements must have a @value or children (inherited)</sch:assert>
      <sch:assert test="(exists(f:low) or exists(f:high)or exists(f:text))">Must have at least a low or a high or text (inherited)</sch:assert>
    </sch:rule>
  </sch:pattern>
  <sch:pattern>
    <sch:title>Observation.referenceRange.extension</sch:title>
    <sch:rule context="f:Observation/f:referenceRange/f:extension">
      <sch:assert test="@value|f:*|h:div">All FHIR elements must have a @value or children (inherited)</sch:assert>
      <sch:assert test="exists(f:extension)!=exists(f:*[starts-with(local-name(.), &quot;value&quot;)])">Must have either extensions or value[x], not both (inherited)</sch:assert>
    </sch:rule>
  </sch:pattern>
  <sch:pattern>
    <sch:title>Observation.referenceRange.modifierExtension</sch:title>
    <sch:rule context="f:Observation/f:referenceRange/f:modifierExtension">
      <sch:assert test="@value|f:*|h:div">All FHIR elements must have a @value or children (inherited)</sch:assert>
      <sch:assert test="exists(f:extension)!=exists(f:*[starts-with(local-name(.), &quot;value&quot;)])">Must have either extensions or value[x], not both (inherited)</sch:assert>
    </sch:rule>
  </sch:pattern>
  <sch:pattern>
    <sch:title>Observation.referenceRange.low</sch:title>
    <sch:rule context="f:Observation/f:referenceRange/f:low">
      <sch:assert test="@value|f:*|h:div">All FHIR elements must have a @value or children (inherited)</sch:assert>
    </sch:rule>
  </sch:pattern>
  <sch:pattern>
    <sch:title>Observation.referenceRange.high</sch:title>
    <sch:rule context="f:Observation/f:referenceRange/f:high">
      <sch:assert test="@value|f:*|h:div">All FHIR elements must have a @value or children (inherited)</sch:assert>
    </sch:rule>
  </sch:pattern>
  <sch:pattern>
    <sch:title>Observation.referenceRange.type</sch:title>
    <sch:rule context="f:Observation/f:referenceRange/f:type">
      <sch:assert test="@value|f:*|h:div">All FHIR elements must have a @value or children (inherited)</sch:assert>
    </sch:rule>
  </sch:pattern>
  <sch:pattern>
    <sch:title>Observation.referenceRange.appliesTo</sch:title>
    <sch:rule context="f:Observation/f:referenceRange/f:appliesTo">
      <sch:assert test="@value|f:*|h:div">All FHIR elements must have a @value or children (inherited)</sch:assert>
    </sch:rule>
  </sch:pattern>
  <sch:pattern>
    <sch:title>Observation.referenceRange.age</sch:title>
    <sch:rule context="f:Observation/f:referenceRange/f:age">
      <sch:assert test="@value|f:*|h:div">All FHIR elements must have a @value or children (inherited)</sch:assert>
    </sch:rule>
  </sch:pattern>
  <sch:pattern>
    <sch:title>Observation.referenceRange.text</sch:title>
    <sch:rule context="f:Observation/f:referenceRange/f:text">
      <sch:assert test="@value|f:*|h:div">All FHIR elements must have a @value or children (inherited)</sch:assert>
    </sch:rule>
  </sch:pattern>
  <sch:pattern>
    <sch:title>Observation.hasMember</sch:title>
    <sch:rule context="f:Observation/f:hasMember">
      <sch:assert test="@value|f:*|h:div">All FHIR elements must have a @value or children (inherited)</sch:assert>
    </sch:rule>
  </sch:pattern>
  <sch:pattern>
    <sch:title>Observation.derivedFrom</sch:title>
    <sch:rule context="f:Observation/f:derivedFrom">
      <sch:assert test="@value|f:*|h:div">All FHIR elements must have a @value or children (inherited)</sch:assert>
    </sch:rule>
  </sch:pattern>
  <sch:pattern>
    <sch:title>Observation.component</sch:title>
    <sch:rule context="f:Observation/f:component">
      <sch:assert test="@value|f:*|h:div">All FHIR elements must have a @value or children (inherited)</sch:assert>
    </sch:rule>
  </sch:pattern>
  <sch:pattern>
    <sch:title>Observation.component.extension</sch:title>
    <sch:rule context="f:Observation/f:component/f:extension">
      <sch:assert test="@value|f:*|h:div">All FHIR elements must have a @value or children (inherited)</sch:assert>
      <sch:assert test="exists(f:extension)!=exists(f:*[starts-with(local-name(.), &quot;value&quot;)])">Must have either extensions or value[x], not both (inherited)</sch:assert>
    </sch:rule>
  </sch:pattern>
  <sch:pattern>
    <sch:title>Observation.component.modifierExtension</sch:title>
    <sch:rule context="f:Observation/f:component/f:modifierExtension">
      <sch:assert test="@value|f:*|h:div">All FHIR elements must have a @value or children (inherited)</sch:assert>
      <sch:assert test="exists(f:extension)!=exists(f:*[starts-with(local-name(.), &quot;value&quot;)])">Must have either extensions or value[x], not both (inherited)</sch:assert>
    </sch:rule>
  </sch:pattern>
  <sch:pattern>
    <sch:title>Observation.component.code</sch:title>
    <sch:rule context="f:Observation/f:component/f:code">
      <sch:assert test="@value|f:*|h:div">All FHIR elements must have a @value or children (inherited)</sch:assert>
    </sch:rule>
  </sch:pattern>
  <sch:pattern>
    <sch:title>Observation.component.value[x] 1</sch:title>
    <sch:rule context="f:Observation/f:component/f:value[x]">
      <sch:assert test="@value|f:*|h:div">All FHIR elements must have a @value or children (inherited)</sch:assert>
    </sch:rule>
  </sch:pattern>
  <sch:pattern>
    <sch:title>Observation.component.dataAbsentReason</sch:title>
    <sch:rule context="f:Observation/f:component/f:dataAbsentReason">
      <sch:assert test="@value|f:*|h:div">All FHIR elements must have a @value or children (inherited)</sch:assert>
    </sch:rule>
  </sch:pattern>
  <sch:pattern>
    <sch:title>Observation.component.interpretation</sch:title>
    <sch:rule context="f:Observation/f:component/f:interpretation">
      <sch:assert test="@value|f:*|h:div">All FHIR elements must have a @value or children (inherited)</sch:assert>
    </sch:rule>
  </sch:pattern>
  <sch:pattern>
    <sch:title>Observation.component.referenceRange</sch:title>
    <sch:rule context="f:Observation/f:component/f:referenceRange">
      <sch:assert test="@value|f:*|h:div">All FHIR elements must have a @value or children (inherited)</sch:assert>
    </sch:rule>
  </sch:pattern>
</sch:schema>
