<?xml version="1.0" encoding="UTF-8"?>
<sch:schema xmlns:sch="http://purl.oclc.org/dsdl/schematron" queryBinding="xslt2">
  <sch:ns prefix="f" uri="http://hl7.org/fhir"/>
  <sch:ns prefix="h" uri="http://www.w3.org/1999/xhtml"/>
  <!-- 
    This file contains just the constraints for the profile MedicationDispense
    It includes the base constraints for the resource as well.
    Because of the way that schematrons and containment work, 
    you may need to use this schematron fragment to build a, 
    single schematron that validates contained resources (if you have any) 
  -->
  <sch:pattern>
    <sch:title>f:MedicationDispense</sch:title>
    <sch:rule context="f:MedicationDispense">
      <sch:assert test="count(f:identifier) &gt;= 1">identifier: minimum cardinality of 'identifier' is 1</sch:assert>
      <sch:assert test="count(f:subject) &gt;= 1">subject: minimum cardinality of 'subject' is 1</sch:assert>
      <sch:assert test="count(f:performer) &gt;= 1">performer: minimum cardinality of 'performer' is 1</sch:assert>
      <sch:assert test="count(f:performer) &lt;= 1">performer: maximum cardinality of 'performer' is 1</sch:assert>
      <sch:assert test="count(f:authorizingPrescription) &gt;= 1">authorizingPrescription: minimum cardinality of 'authorizingPrescription' is 1</sch:assert>
      <sch:assert test="count(f:authorizingPrescription) &lt;= 1">authorizingPrescription: maximum cardinality of 'authorizingPrescription' is 1</sch:assert>
      <sch:assert test="count(f:quantity) &gt;= 1">quantity: minimum cardinality of 'quantity' is 1</sch:assert>
      <sch:assert test="count(f:daysSupply) &gt;= 1">daysSupply: minimum cardinality of 'daysSupply' is 1</sch:assert>
      <sch:assert test="count(f:dosageInstruction) &gt;= 1">dosageInstruction: minimum cardinality of 'dosageInstruction' is 1</sch:assert>
    </sch:rule>
  </sch:pattern>
  <sch:pattern>
    <sch:title>MedicationDispense</sch:title>
    <sch:rule context="f:MedicationDispense">
      <sch:assert test="not(parent::f:contained and f:contained)">If the resource is contained in another resource, it SHALL NOT contain nested Resources (inherited)</sch:assert>
      <sch:assert test="not(exists(for $id in f:contained/*/f:id/@value return $contained[not(parent::*/descendant::f:reference/@value=concat('#', $contained/*/id/@value) or descendant::f:reference[@value='#'])]))">If the resource is contained in another resource, it SHALL be referred to from elsewhere in the resource or SHALL refer to the containing resource (inherited)</sch:assert>
      <sch:assert test="not(exists(f:contained/*/f:meta/f:versionId)) and not(exists(f:contained/*/f:meta/f:lastUpdated))">If a resource is contained in another resource, it SHALL NOT have a meta.versionId or a meta.lastUpdated (inherited)</sch:assert>
      <sch:assert test="not(exists(f:contained/*/f:meta/f:security))">If a resource is contained in another resource, it SHALL NOT have a security label (inherited)</sch:assert>
      <sch:assert test="exists(f:text/h:div)">A resource should have narrative for robust management (inherited)</sch:assert>
      <sch:assert test="not(exists(f:whenHandedOver/@value)) or not(exists(f:whenPrepared/@value)) or ( f:whenHandedOver/@value &gt;= f:whenPrepared/@value)">whenHandedOver cannot be before whenPrepared (inherited)</sch:assert>
    </sch:rule>
  </sch:pattern>
  <sch:pattern>
    <sch:title>MedicationDispense.meta</sch:title>
    <sch:rule context="f:MedicationDispense/f:meta">
      <sch:assert test="@value|f:*|h:div">All FHIR elements must have a @value or children (inherited)</sch:assert>
    </sch:rule>
  </sch:pattern>
  <sch:pattern>
    <sch:title>MedicationDispense.implicitRules</sch:title>
    <sch:rule context="f:MedicationDispense/f:implicitRules">
      <sch:assert test="@value|f:*|h:div">All FHIR elements must have a @value or children (inherited)</sch:assert>
    </sch:rule>
  </sch:pattern>
  <sch:pattern>
    <sch:title>MedicationDispense.language</sch:title>
    <sch:rule context="f:MedicationDispense/f:language">
      <sch:assert test="@value|f:*|h:div">All FHIR elements must have a @value or children (inherited)</sch:assert>
    </sch:rule>
  </sch:pattern>
  <sch:pattern>
    <sch:title>MedicationDispense.text</sch:title>
    <sch:rule context="f:MedicationDispense/f:text">
      <sch:assert test="@value|f:*|h:div">All FHIR elements must have a @value or children (inherited)</sch:assert>
    </sch:rule>
  </sch:pattern>
  <sch:pattern>
    <sch:title>MedicationDispense.extension</sch:title>
    <sch:rule context="f:MedicationDispense/f:extension">
      <sch:assert test="@value|f:*|h:div">All FHIR elements must have a @value or children (inherited)</sch:assert>
      <sch:assert test="exists(f:extension)!=exists(f:*[starts-with(local-name(.), &quot;value&quot;)])">Must have either extensions or value[x], not both (inherited)</sch:assert>
    </sch:rule>
  </sch:pattern>
  <sch:pattern>
    <sch:title>MedicationDispense.modifierExtension</sch:title>
    <sch:rule context="f:MedicationDispense/f:modifierExtension">
      <sch:assert test="@value|f:*|h:div">All FHIR elements must have a @value or children (inherited)</sch:assert>
      <sch:assert test="exists(f:extension)!=exists(f:*[starts-with(local-name(.), &quot;value&quot;)])">Must have either extensions or value[x], not both (inherited)</sch:assert>
    </sch:rule>
  </sch:pattern>
  <sch:pattern>
    <sch:title>MedicationDispense.identifier</sch:title>
    <sch:rule context="f:MedicationDispense/f:identifier">
      <sch:assert test="@value|f:*|h:div">All FHIR elements must have a @value or children (inherited)</sch:assert>
    </sch:rule>
  </sch:pattern>
  <sch:pattern>
    <sch:title>MedicationDispense.partOf</sch:title>
    <sch:rule context="f:MedicationDispense/f:partOf">
      <sch:assert test="@value|f:*|h:div">All FHIR elements must have a @value or children (inherited)</sch:assert>
    </sch:rule>
  </sch:pattern>
  <sch:pattern>
    <sch:title>MedicationDispense.status</sch:title>
    <sch:rule context="f:MedicationDispense/f:status">
      <sch:assert test="@value|f:*|h:div">All FHIR elements must have a @value or children (inherited)</sch:assert>
    </sch:rule>
  </sch:pattern>
  <sch:pattern>
    <sch:title>MedicationDispense.statusReason[x] 1</sch:title>
    <sch:rule context="f:MedicationDispense/f:statusReason[x]">
      <sch:assert test="@value|f:*|h:div">All FHIR elements must have a @value or children (inherited)</sch:assert>
    </sch:rule>
  </sch:pattern>
  <sch:pattern>
    <sch:title>MedicationDispense.category</sch:title>
    <sch:rule context="f:MedicationDispense/f:category">
      <sch:assert test="@value|f:*|h:div">All FHIR elements must have a @value or children (inherited)</sch:assert>
    </sch:rule>
  </sch:pattern>
  <sch:pattern>
    <sch:title>MedicationDispense.medication[x] 1</sch:title>
    <sch:rule context="f:MedicationDispense/f:medication[x]">
      <sch:assert test="@value|f:*|h:div">All FHIR elements must have a @value or children (inherited)</sch:assert>
      <sch:assert test="@value|f:*|h:div">All FHIR elements must have a @value or children (inherited)</sch:assert>
    </sch:rule>
  </sch:pattern>
  <sch:pattern>
    <sch:title>MedicationDispense.subject</sch:title>
    <sch:rule context="f:MedicationDispense/f:subject">
      <sch:assert test="@value|f:*|h:div">All FHIR elements must have a @value or children (inherited)</sch:assert>
    </sch:rule>
  </sch:pattern>
  <sch:pattern>
    <sch:title>MedicationDispense.context</sch:title>
    <sch:rule context="f:MedicationDispense/f:context">
      <sch:assert test="@value|f:*|h:div">All FHIR elements must have a @value or children (inherited)</sch:assert>
    </sch:rule>
  </sch:pattern>
  <sch:pattern>
    <sch:title>MedicationDispense.supportingInformation</sch:title>
    <sch:rule context="f:MedicationDispense/f:supportingInformation">
      <sch:assert test="@value|f:*|h:div">All FHIR elements must have a @value or children (inherited)</sch:assert>
    </sch:rule>
  </sch:pattern>
  <sch:pattern>
    <sch:title>MedicationDispense.performer</sch:title>
    <sch:rule context="f:MedicationDispense/f:performer">
      <sch:assert test="@value|f:*|h:div">All FHIR elements must have a @value or children (inherited)</sch:assert>
    </sch:rule>
  </sch:pattern>
  <sch:pattern>
    <sch:title>MedicationDispense.performer.extension</sch:title>
    <sch:rule context="f:MedicationDispense/f:performer/f:extension">
      <sch:assert test="@value|f:*|h:div">All FHIR elements must have a @value or children (inherited)</sch:assert>
      <sch:assert test="exists(f:extension)!=exists(f:*[starts-with(local-name(.), &quot;value&quot;)])">Must have either extensions or value[x], not both (inherited)</sch:assert>
    </sch:rule>
  </sch:pattern>
  <sch:pattern>
    <sch:title>MedicationDispense.performer.modifierExtension</sch:title>
    <sch:rule context="f:MedicationDispense/f:performer/f:modifierExtension">
      <sch:assert test="@value|f:*|h:div">All FHIR elements must have a @value or children (inherited)</sch:assert>
      <sch:assert test="exists(f:extension)!=exists(f:*[starts-with(local-name(.), &quot;value&quot;)])">Must have either extensions or value[x], not both (inherited)</sch:assert>
    </sch:rule>
  </sch:pattern>
  <sch:pattern>
    <sch:title>MedicationDispense.performer.function</sch:title>
    <sch:rule context="f:MedicationDispense/f:performer/f:function">
      <sch:assert test="@value|f:*|h:div">All FHIR elements must have a @value or children (inherited)</sch:assert>
    </sch:rule>
  </sch:pattern>
  <sch:pattern>
    <sch:title>MedicationDispense.performer.actor</sch:title>
    <sch:rule context="f:MedicationDispense/f:performer/f:actor">
      <sch:assert test="@value|f:*|h:div">All FHIR elements must have a @value or children (inherited)</sch:assert>
    </sch:rule>
  </sch:pattern>
  <sch:pattern>
    <sch:title>MedicationDispense.location</sch:title>
    <sch:rule context="f:MedicationDispense/f:location">
      <sch:assert test="@value|f:*|h:div">All FHIR elements must have a @value or children (inherited)</sch:assert>
    </sch:rule>
  </sch:pattern>
  <sch:pattern>
    <sch:title>MedicationDispense.authorizingPrescription</sch:title>
    <sch:rule context="f:MedicationDispense/f:authorizingPrescription">
      <sch:assert test="@value|f:*|h:div">All FHIR elements must have a @value or children (inherited)</sch:assert>
    </sch:rule>
  </sch:pattern>
  <sch:pattern>
    <sch:title>MedicationDispense.type</sch:title>
    <sch:rule context="f:MedicationDispense/f:type">
      <sch:assert test="@value|f:*|h:div">All FHIR elements must have a @value or children (inherited)</sch:assert>
    </sch:rule>
  </sch:pattern>
  <sch:pattern>
    <sch:title>MedicationDispense.quantity</sch:title>
    <sch:rule context="f:MedicationDispense/f:quantity">
      <sch:assert test="@value|f:*|h:div">All FHIR elements must have a @value or children (inherited)</sch:assert>
    </sch:rule>
  </sch:pattern>
  <sch:pattern>
    <sch:title>MedicationDispense.daysSupply</sch:title>
    <sch:rule context="f:MedicationDispense/f:daysSupply">
      <sch:assert test="@value|f:*|h:div">All FHIR elements must have a @value or children (inherited)</sch:assert>
    </sch:rule>
  </sch:pattern>
  <sch:pattern>
    <sch:title>MedicationDispense.whenPrepared</sch:title>
    <sch:rule context="f:MedicationDispense/f:whenPrepared">
      <sch:assert test="@value|f:*|h:div">All FHIR elements must have a @value or children (inherited)</sch:assert>
    </sch:rule>
  </sch:pattern>
  <sch:pattern>
    <sch:title>MedicationDispense.whenHandedOver</sch:title>
    <sch:rule context="f:MedicationDispense/f:whenHandedOver">
      <sch:assert test="@value|f:*|h:div">All FHIR elements must have a @value or children (inherited)</sch:assert>
    </sch:rule>
  </sch:pattern>
  <sch:pattern>
    <sch:title>MedicationDispense.destination</sch:title>
    <sch:rule context="f:MedicationDispense/f:destination">
      <sch:assert test="@value|f:*|h:div">All FHIR elements must have a @value or children (inherited)</sch:assert>
    </sch:rule>
  </sch:pattern>
  <sch:pattern>
    <sch:title>MedicationDispense.receiver</sch:title>
    <sch:rule context="f:MedicationDispense/f:receiver">
      <sch:assert test="@value|f:*|h:div">All FHIR elements must have a @value or children (inherited)</sch:assert>
    </sch:rule>
  </sch:pattern>
  <sch:pattern>
    <sch:title>MedicationDispense.note</sch:title>
    <sch:rule context="f:MedicationDispense/f:note">
      <sch:assert test="@value|f:*|h:div">All FHIR elements must have a @value or children (inherited)</sch:assert>
    </sch:rule>
  </sch:pattern>
  <sch:pattern>
    <sch:title>f:MedicationDispense/f:dosageInstruction</sch:title>
    <sch:rule context="f:MedicationDispense/f:dosageInstruction">
      <sch:assert test="count(f:id) &lt;= 1">id: maximum cardinality of 'id' is 1</sch:assert>
      <sch:assert test="count(f:sequence) &lt;= 1">sequence: maximum cardinality of 'sequence' is 1</sch:assert>
      <sch:assert test="count(f:text) &lt;= 1">text: maximum cardinality of 'text' is 1</sch:assert>
      <sch:assert test="count(f:patientInstruction) &lt;= 1">patientInstruction: maximum cardinality of 'patientInstruction' is 1</sch:assert>
      <sch:assert test="count(f:timing) &gt;= 1">timing: minimum cardinality of 'timing' is 1</sch:assert>
      <sch:assert test="count(f:timing) &lt;= 1">timing: maximum cardinality of 'timing' is 1</sch:assert>
      <sch:assert test="count(f:asNeeded[x]) &lt;= 1">asNeeded[x]: maximum cardinality of 'asNeeded[x]' is 1</sch:assert>
      <sch:assert test="count(f:site) &lt;= 1">site: maximum cardinality of 'site' is 1</sch:assert>
      <sch:assert test="count(f:route) &gt;= 1">route: minimum cardinality of 'route' is 1</sch:assert>
      <sch:assert test="count(f:route) &lt;= 1">route: maximum cardinality of 'route' is 1</sch:assert>
      <sch:assert test="count(f:method) &lt;= 1">method: maximum cardinality of 'method' is 1</sch:assert>
      <sch:assert test="count(f:doseAndRate) &gt;= 1">doseAndRate: minimum cardinality of 'doseAndRate' is 1</sch:assert>
      <sch:assert test="count(f:maxDosePerPeriod) &lt;= 1">maxDosePerPeriod: maximum cardinality of 'maxDosePerPeriod' is 1</sch:assert>
      <sch:assert test="count(f:maxDosePerAdministration) &lt;= 1">maxDosePerAdministration: maximum cardinality of 'maxDosePerAdministration' is 1</sch:assert>
      <sch:assert test="count(f:maxDosePerLifetime) &lt;= 1">maxDosePerLifetime: maximum cardinality of 'maxDosePerLifetime' is 1</sch:assert>
    </sch:rule>
  </sch:pattern>
  <sch:pattern>
    <sch:title>MedicationDispense.dosageInstruction</sch:title>
    <sch:rule context="f:MedicationDispense/f:dosageInstruction">
      <sch:assert test="@value|f:*|h:div">All FHIR elements must have a @value or children (inherited)</sch:assert>
    </sch:rule>
  </sch:pattern>
  <sch:pattern>
    <sch:title>MedicationDispense.dosageInstruction.extension</sch:title>
    <sch:rule context="f:MedicationDispense/f:dosageInstruction/f:extension">
      <sch:assert test="@value|f:*|h:div">All FHIR elements must have a @value or children</sch:assert>
      <sch:assert test="exists(f:extension)!=exists(f:*[starts-with(local-name(.), &quot;value&quot;)])">Must have either extensions or value[x], not both</sch:assert>
    </sch:rule>
  </sch:pattern>
  <sch:pattern>
    <sch:title>MedicationDispense.dosageInstruction.modifierExtension</sch:title>
    <sch:rule context="f:MedicationDispense/f:dosageInstruction/f:modifierExtension">
      <sch:assert test="@value|f:*|h:div">All FHIR elements must have a @value or children (inherited)</sch:assert>
      <sch:assert test="exists(f:extension)!=exists(f:*[starts-with(local-name(.), &quot;value&quot;)])">Must have either extensions or value[x], not both (inherited)</sch:assert>
    </sch:rule>
  </sch:pattern>
  <sch:pattern>
    <sch:title>MedicationDispense.dosageInstruction.sequence</sch:title>
    <sch:rule context="f:MedicationDispense/f:dosageInstruction/f:sequence">
      <sch:assert test="@value|f:*|h:div">All FHIR elements must have a @value or children (inherited)</sch:assert>
    </sch:rule>
  </sch:pattern>
  <sch:pattern>
    <sch:title>MedicationDispense.dosageInstruction.text</sch:title>
    <sch:rule context="f:MedicationDispense/f:dosageInstruction/f:text">
      <sch:assert test="@value|f:*|h:div">All FHIR elements must have a @value or children (inherited)</sch:assert>
    </sch:rule>
  </sch:pattern>
  <sch:pattern>
    <sch:title>MedicationDispense.dosageInstruction.additionalInstruction</sch:title>
    <sch:rule context="f:MedicationDispense/f:dosageInstruction/f:additionalInstruction">
      <sch:assert test="@value|f:*|h:div">All FHIR elements must have a @value or children (inherited)</sch:assert>
    </sch:rule>
  </sch:pattern>
  <sch:pattern>
    <sch:title>MedicationDispense.dosageInstruction.patientInstruction</sch:title>
    <sch:rule context="f:MedicationDispense/f:dosageInstruction/f:patientInstruction">
      <sch:assert test="@value|f:*|h:div">All FHIR elements must have a @value or children (inherited)</sch:assert>
    </sch:rule>
  </sch:pattern>
  <sch:pattern>
    <sch:title>f:MedicationDispense/f:dosageInstruction/f:timing</sch:title>
    <sch:rule context="f:MedicationDispense/f:dosageInstruction/f:timing">
      <sch:assert test="count(f:id) &lt;= 1">id: maximum cardinality of 'id' is 1</sch:assert>
      <sch:assert test="count(f:repeat) &gt;= 1">repeat: minimum cardinality of 'repeat' is 1</sch:assert>
      <sch:assert test="count(f:repeat) &lt;= 1">repeat: maximum cardinality of 'repeat' is 1</sch:assert>
      <sch:assert test="count(f:code) &lt;= 1">code: maximum cardinality of 'code' is 1</sch:assert>
    </sch:rule>
  </sch:pattern>
  <sch:pattern>
    <sch:title>MedicationDispense.dosageInstruction.timing</sch:title>
    <sch:rule context="f:MedicationDispense/f:dosageInstruction/f:timing">
      <sch:assert test="@value|f:*|h:div">All FHIR elements must have a @value or children (inherited)</sch:assert>
    </sch:rule>
  </sch:pattern>
  <sch:pattern>
    <sch:title>MedicationDispense.dosageInstruction.timing.extension</sch:title>
    <sch:rule context="f:MedicationDispense/f:dosageInstruction/f:timing/f:extension">
      <sch:assert test="@value|f:*|h:div">All FHIR elements must have a @value or children</sch:assert>
      <sch:assert test="exists(f:extension)!=exists(f:*[starts-with(local-name(.), &quot;value&quot;)])">Must have either extensions or value[x], not both</sch:assert>
    </sch:rule>
  </sch:pattern>
  <sch:pattern>
    <sch:title>MedicationDispense.dosageInstruction.timing.modifierExtension</sch:title>
    <sch:rule context="f:MedicationDispense/f:dosageInstruction/f:timing/f:modifierExtension">
      <sch:assert test="@value|f:*|h:div">All FHIR elements must have a @value or children (inherited)</sch:assert>
      <sch:assert test="exists(f:extension)!=exists(f:*[starts-with(local-name(.), &quot;value&quot;)])">Must have either extensions or value[x], not both (inherited)</sch:assert>
    </sch:rule>
  </sch:pattern>
  <sch:pattern>
    <sch:title>MedicationDispense.dosageInstruction.timing.event</sch:title>
    <sch:rule context="f:MedicationDispense/f:dosageInstruction/f:timing/f:event">
      <sch:assert test="@value|f:*|h:div">All FHIR elements must have a @value or children (inherited)</sch:assert>
    </sch:rule>
  </sch:pattern>
  <sch:pattern>
    <sch:title>f:MedicationDispense/f:dosageInstruction/f:timing/f:repeat</sch:title>
    <sch:rule context="f:MedicationDispense/f:dosageInstruction/f:timing/f:repeat">
      <sch:assert test="count(f:id) &lt;= 1">id: maximum cardinality of 'id' is 1</sch:assert>
      <sch:assert test="count(f:count) &lt;= 1">count: maximum cardinality of 'count' is 1</sch:assert>
      <sch:assert test="count(f:countMax) &lt;= 1">countMax: maximum cardinality of 'countMax' is 1</sch:assert>
      <sch:assert test="count(f:duration) &lt;= 1">duration: maximum cardinality of 'duration' is 1</sch:assert>
      <sch:assert test="count(f:durationMax) &lt;= 1">durationMax: maximum cardinality of 'durationMax' is 1</sch:assert>
      <sch:assert test="count(f:durationUnit) &lt;= 1">durationUnit: maximum cardinality of 'durationUnit' is 1</sch:assert>
      <sch:assert test="count(f:frequency) &lt;= 1">frequency: maximum cardinality of 'frequency' is 1</sch:assert>
      <sch:assert test="count(f:frequencyMax) &lt;= 1">frequencyMax: maximum cardinality of 'frequencyMax' is 1</sch:assert>
      <sch:assert test="count(f:period) &lt;= 1">period: maximum cardinality of 'period' is 1</sch:assert>
      <sch:assert test="count(f:periodMax) &lt;= 1">periodMax: maximum cardinality of 'periodMax' is 1</sch:assert>
      <sch:assert test="count(f:periodUnit) &lt;= 1">periodUnit: maximum cardinality of 'periodUnit' is 1</sch:assert>
      <sch:assert test="count(f:offset) &lt;= 1">offset: maximum cardinality of 'offset' is 1</sch:assert>
    </sch:rule>
  </sch:pattern>
  <sch:pattern>
    <sch:title>MedicationDispense.dosageInstruction.timing.repeat</sch:title>
    <sch:rule context="f:MedicationDispense/f:dosageInstruction/f:timing/f:repeat">
      <sch:assert test="@value|f:*|h:div">All FHIR elements must have a @value or children (inherited)</sch:assert>
      <sch:assert test="not(exists(f:duration)) or exists(f:durationUnit)">if there's a duration, there needs to be duration units (inherited)</sch:assert>
      <sch:assert test="not(exists(f:period)) or exists(f:periodUnit)">if there's a period, there needs to be period units (inherited)</sch:assert>
      <sch:assert test="f:duration/@value &gt;= 0 or not(f:duration/@value)">duration SHALL be a non-negative value (inherited)</sch:assert>
      <sch:assert test="f:period/@value &gt;= 0 or not(f:period/@value)">period SHALL be a non-negative value (inherited)</sch:assert>
      <sch:assert test="not(exists(f:periodMax)) or exists(f:period)">If there's a periodMax, there must be a period (inherited)</sch:assert>
      <sch:assert test="not(exists(f:durationMax)) or exists(f:duration)">If there's a durationMax, there must be a duration (inherited)</sch:assert>
      <sch:assert test="not(exists(f:countMax)) or exists(f:count)">If there's a countMax, there must be a count (inherited)</sch:assert>
      <sch:assert test="not(exists(f:offset)) or exists(f:when)">If there's an offset, there must be a when (and not C, CM, CD, CV) (inherited)</sch:assert>
      <sch:assert test="not(exists(f:timeOfDay)) or not(exists(f:when))">If there's a timeOfDay, there cannot be a when, or vice versa (inherited)</sch:assert>
    </sch:rule>
  </sch:pattern>
  <sch:pattern>
    <sch:title>MedicationDispense.dosageInstruction.timing.repeat.extension</sch:title>
    <sch:rule context="f:MedicationDispense/f:dosageInstruction/f:timing/f:repeat/f:extension">
      <sch:assert test="@value|f:*|h:div">All FHIR elements must have a @value or children</sch:assert>
      <sch:assert test="exists(f:extension)!=exists(f:*[starts-with(local-name(.), &quot;value&quot;)])">Must have either extensions or value[x], not both</sch:assert>
    </sch:rule>
  </sch:pattern>
  <sch:pattern>
    <sch:title>MedicationDispense.dosageInstruction.timing.repeat.bounds[x] 1</sch:title>
    <sch:rule context="f:MedicationDispense/f:dosageInstruction/f:timing/f:repeat/f:bounds[x]">
      <sch:assert test="@value|f:*|h:div">All FHIR elements must have a @value or children (inherited)</sch:assert>
      <sch:assert test="@value|f:*|h:div">All FHIR elements must have a @value or children (inherited)</sch:assert>
    </sch:rule>
  </sch:pattern>
  <sch:pattern>
    <sch:title>f:MedicationDispense/f:dosageInstruction/f:timing/f:repeat/f:bounds[x] 1</sch:title>
    <sch:rule context="f:MedicationDispense/f:dosageInstruction/f:timing/f:repeat/f:bounds[x]">
      <sch:assert test="count(f:id) &lt;= 1">id: maximum cardinality of 'id' is 1</sch:assert>
      <sch:assert test="count(f:start) &gt;= 1">start: minimum cardinality of 'start' is 1</sch:assert>
      <sch:assert test="count(f:start) &lt;= 1">start: maximum cardinality of 'start' is 1</sch:assert>
      <sch:assert test="count(f:end) &lt;= 1">end: maximum cardinality of 'end' is 1</sch:assert>
    </sch:rule>
  </sch:pattern>
  <sch:pattern>
    <sch:title>MedicationDispense.dosageInstruction.timing.repeat.bounds[x].extension 1</sch:title>
    <sch:rule context="f:MedicationDispense/f:dosageInstruction/f:timing/f:repeat/f:bounds[x]/f:extension">
      <sch:assert test="@value|f:*|h:div">All FHIR elements must have a @value or children</sch:assert>
      <sch:assert test="exists(f:extension)!=exists(f:*[starts-with(local-name(.), &quot;value&quot;)])">Must have either extensions or value[x], not both</sch:assert>
    </sch:rule>
  </sch:pattern>
  <sch:pattern>
    <sch:title>MedicationDispense.dosageInstruction.timing.repeat.bounds[x].start 1</sch:title>
    <sch:rule context="f:MedicationDispense/f:dosageInstruction/f:timing/f:repeat/f:bounds[x]/f:start">
      <sch:assert test="@value|f:*|h:div">All FHIR elements must have a @value or children (inherited)</sch:assert>
    </sch:rule>
  </sch:pattern>
  <sch:pattern>
    <sch:title>MedicationDispense.dosageInstruction.timing.repeat.bounds[x].end 1</sch:title>
    <sch:rule context="f:MedicationDispense/f:dosageInstruction/f:timing/f:repeat/f:bounds[x]/f:end">
      <sch:assert test="@value|f:*|h:div">All FHIR elements must have a @value or children (inherited)</sch:assert>
    </sch:rule>
  </sch:pattern>
  <sch:pattern>
    <sch:title>MedicationDispense.dosageInstruction.timing.repeat.count</sch:title>
    <sch:rule context="f:MedicationDispense/f:dosageInstruction/f:timing/f:repeat/f:count">
      <sch:assert test="@value|f:*|h:div">All FHIR elements must have a @value or children (inherited)</sch:assert>
    </sch:rule>
  </sch:pattern>
  <sch:pattern>
    <sch:title>MedicationDispense.dosageInstruction.timing.repeat.countMax</sch:title>
    <sch:rule context="f:MedicationDispense/f:dosageInstruction/f:timing/f:repeat/f:countMax">
      <sch:assert test="@value|f:*|h:div">All FHIR elements must have a @value or children (inherited)</sch:assert>
    </sch:rule>
  </sch:pattern>
  <sch:pattern>
    <sch:title>MedicationDispense.dosageInstruction.timing.repeat.duration</sch:title>
    <sch:rule context="f:MedicationDispense/f:dosageInstruction/f:timing/f:repeat/f:duration">
      <sch:assert test="@value|f:*|h:div">All FHIR elements must have a @value or children (inherited)</sch:assert>
    </sch:rule>
  </sch:pattern>
  <sch:pattern>
    <sch:title>MedicationDispense.dosageInstruction.timing.repeat.durationMax</sch:title>
    <sch:rule context="f:MedicationDispense/f:dosageInstruction/f:timing/f:repeat/f:durationMax">
      <sch:assert test="@value|f:*|h:div">All FHIR elements must have a @value or children (inherited)</sch:assert>
    </sch:rule>
  </sch:pattern>
  <sch:pattern>
    <sch:title>MedicationDispense.dosageInstruction.timing.repeat.durationUnit</sch:title>
    <sch:rule context="f:MedicationDispense/f:dosageInstruction/f:timing/f:repeat/f:durationUnit">
      <sch:assert test="@value|f:*|h:div">All FHIR elements must have a @value or children (inherited)</sch:assert>
    </sch:rule>
  </sch:pattern>
  <sch:pattern>
    <sch:title>MedicationDispense.dosageInstruction.timing.repeat.frequency</sch:title>
    <sch:rule context="f:MedicationDispense/f:dosageInstruction/f:timing/f:repeat/f:frequency">
      <sch:assert test="@value|f:*|h:div">All FHIR elements must have a @value or children (inherited)</sch:assert>
    </sch:rule>
  </sch:pattern>
  <sch:pattern>
    <sch:title>MedicationDispense.dosageInstruction.timing.repeat.frequencyMax</sch:title>
    <sch:rule context="f:MedicationDispense/f:dosageInstruction/f:timing/f:repeat/f:frequencyMax">
      <sch:assert test="@value|f:*|h:div">All FHIR elements must have a @value or children (inherited)</sch:assert>
    </sch:rule>
  </sch:pattern>
  <sch:pattern>
    <sch:title>MedicationDispense.dosageInstruction.timing.repeat.period</sch:title>
    <sch:rule context="f:MedicationDispense/f:dosageInstruction/f:timing/f:repeat/f:period">
      <sch:assert test="@value|f:*|h:div">All FHIR elements must have a @value or children (inherited)</sch:assert>
    </sch:rule>
  </sch:pattern>
  <sch:pattern>
    <sch:title>MedicationDispense.dosageInstruction.timing.repeat.periodMax</sch:title>
    <sch:rule context="f:MedicationDispense/f:dosageInstruction/f:timing/f:repeat/f:periodMax">
      <sch:assert test="@value|f:*|h:div">All FHIR elements must have a @value or children (inherited)</sch:assert>
    </sch:rule>
  </sch:pattern>
  <sch:pattern>
    <sch:title>MedicationDispense.dosageInstruction.timing.repeat.periodUnit</sch:title>
    <sch:rule context="f:MedicationDispense/f:dosageInstruction/f:timing/f:repeat/f:periodUnit">
      <sch:assert test="@value|f:*|h:div">All FHIR elements must have a @value or children (inherited)</sch:assert>
    </sch:rule>
  </sch:pattern>
  <sch:pattern>
    <sch:title>MedicationDispense.dosageInstruction.timing.repeat.dayOfWeek</sch:title>
    <sch:rule context="f:MedicationDispense/f:dosageInstruction/f:timing/f:repeat/f:dayOfWeek">
      <sch:assert test="@value|f:*|h:div">All FHIR elements must have a @value or children (inherited)</sch:assert>
    </sch:rule>
  </sch:pattern>
  <sch:pattern>
    <sch:title>MedicationDispense.dosageInstruction.timing.repeat.timeOfDay</sch:title>
    <sch:rule context="f:MedicationDispense/f:dosageInstruction/f:timing/f:repeat/f:timeOfDay">
      <sch:assert test="@value|f:*|h:div">All FHIR elements must have a @value or children (inherited)</sch:assert>
    </sch:rule>
  </sch:pattern>
  <sch:pattern>
    <sch:title>MedicationDispense.dosageInstruction.timing.repeat.when</sch:title>
    <sch:rule context="f:MedicationDispense/f:dosageInstruction/f:timing/f:repeat/f:when">
      <sch:assert test="@value|f:*|h:div">All FHIR elements must have a @value or children (inherited)</sch:assert>
    </sch:rule>
  </sch:pattern>
  <sch:pattern>
    <sch:title>MedicationDispense.dosageInstruction.timing.repeat.offset</sch:title>
    <sch:rule context="f:MedicationDispense/f:dosageInstruction/f:timing/f:repeat/f:offset">
      <sch:assert test="@value|f:*|h:div">All FHIR elements must have a @value or children (inherited)</sch:assert>
    </sch:rule>
  </sch:pattern>
  <sch:pattern>
    <sch:title>MedicationDispense.dosageInstruction.timing.code</sch:title>
    <sch:rule context="f:MedicationDispense/f:dosageInstruction/f:timing/f:code">
      <sch:assert test="@value|f:*|h:div">All FHIR elements must have a @value or children (inherited)</sch:assert>
    </sch:rule>
  </sch:pattern>
  <sch:pattern>
    <sch:title>MedicationDispense.dosageInstruction.asNeeded[x] 1</sch:title>
    <sch:rule context="f:MedicationDispense/f:dosageInstruction/f:asNeeded[x]">
      <sch:assert test="@value|f:*|h:div">All FHIR elements must have a @value or children (inherited)</sch:assert>
    </sch:rule>
  </sch:pattern>
  <sch:pattern>
    <sch:title>MedicationDispense.dosageInstruction.site</sch:title>
    <sch:rule context="f:MedicationDispense/f:dosageInstruction/f:site">
      <sch:assert test="@value|f:*|h:div">All FHIR elements must have a @value or children (inherited)</sch:assert>
    </sch:rule>
  </sch:pattern>
  <sch:pattern>
    <sch:title>MedicationDispense.dosageInstruction.route</sch:title>
    <sch:rule context="f:MedicationDispense/f:dosageInstruction/f:route">
      <sch:assert test="@value|f:*|h:div">All FHIR elements must have a @value or children (inherited)</sch:assert>
    </sch:rule>
  </sch:pattern>
  <sch:pattern>
    <sch:title>MedicationDispense.dosageInstruction.method</sch:title>
    <sch:rule context="f:MedicationDispense/f:dosageInstruction/f:method">
      <sch:assert test="@value|f:*|h:div">All FHIR elements must have a @value or children (inherited)</sch:assert>
    </sch:rule>
  </sch:pattern>
  <sch:pattern>
    <sch:title>f:MedicationDispense/f:dosageInstruction/f:doseAndRate</sch:title>
    <sch:rule context="f:MedicationDispense/f:dosageInstruction/f:doseAndRate">
      <sch:assert test="count(f:id) &lt;= 1">id: maximum cardinality of 'id' is 1</sch:assert>
      <sch:assert test="count(f:type) &lt;= 1">type: maximum cardinality of 'type' is 1</sch:assert>
      <sch:assert test="count(f:dose[x]) &lt;= 1">dose[x]: maximum cardinality of 'dose[x]' is 1</sch:assert>
      <sch:assert test="count(f:rate[x]) &lt;= 1">rate[x]: maximum cardinality of 'rate[x]' is 1</sch:assert>
    </sch:rule>
  </sch:pattern>
  <sch:pattern>
    <sch:title>MedicationDispense.dosageInstruction.doseAndRate</sch:title>
    <sch:rule context="f:MedicationDispense/f:dosageInstruction/f:doseAndRate">
      <sch:assert test="@value|f:*|h:div">All FHIR elements must have a @value or children (inherited)</sch:assert>
    </sch:rule>
  </sch:pattern>
  <sch:pattern>
    <sch:title>MedicationDispense.dosageInstruction.doseAndRate.extension</sch:title>
    <sch:rule context="f:MedicationDispense/f:dosageInstruction/f:doseAndRate/f:extension">
      <sch:assert test="@value|f:*|h:div">All FHIR elements must have a @value or children</sch:assert>
      <sch:assert test="exists(f:extension)!=exists(f:*[starts-with(local-name(.), &quot;value&quot;)])">Must have either extensions or value[x], not both</sch:assert>
    </sch:rule>
  </sch:pattern>
  <sch:pattern>
    <sch:title>MedicationDispense.dosageInstruction.doseAndRate.type</sch:title>
    <sch:rule context="f:MedicationDispense/f:dosageInstruction/f:doseAndRate/f:type">
      <sch:assert test="@value|f:*|h:div">All FHIR elements must have a @value or children (inherited)</sch:assert>
    </sch:rule>
  </sch:pattern>
  <sch:pattern>
    <sch:title>MedicationDispense.dosageInstruction.doseAndRate.dose[x] 1</sch:title>
    <sch:rule context="f:MedicationDispense/f:dosageInstruction/f:doseAndRate/f:dose[x]">
      <sch:assert test="@value|f:*|h:div">All FHIR elements must have a @value or children (inherited)</sch:assert>
    </sch:rule>
  </sch:pattern>
  <sch:pattern>
    <sch:title>MedicationDispense.dosageInstruction.doseAndRate.rate[x] 1</sch:title>
    <sch:rule context="f:MedicationDispense/f:dosageInstruction/f:doseAndRate/f:rate[x]">
      <sch:assert test="@value|f:*|h:div">All FHIR elements must have a @value or children (inherited)</sch:assert>
    </sch:rule>
  </sch:pattern>
  <sch:pattern>
    <sch:title>MedicationDispense.dosageInstruction.maxDosePerPeriod</sch:title>
    <sch:rule context="f:MedicationDispense/f:dosageInstruction/f:maxDosePerPeriod">
      <sch:assert test="@value|f:*|h:div">All FHIR elements must have a @value or children (inherited)</sch:assert>
    </sch:rule>
  </sch:pattern>
  <sch:pattern>
    <sch:title>MedicationDispense.dosageInstruction.maxDosePerAdministration</sch:title>
    <sch:rule context="f:MedicationDispense/f:dosageInstruction/f:maxDosePerAdministration">
      <sch:assert test="@value|f:*|h:div">All FHIR elements must have a @value or children (inherited)</sch:assert>
    </sch:rule>
  </sch:pattern>
  <sch:pattern>
    <sch:title>MedicationDispense.dosageInstruction.maxDosePerLifetime</sch:title>
    <sch:rule context="f:MedicationDispense/f:dosageInstruction/f:maxDosePerLifetime">
      <sch:assert test="@value|f:*|h:div">All FHIR elements must have a @value or children (inherited)</sch:assert>
    </sch:rule>
  </sch:pattern>
  <sch:pattern>
    <sch:title>MedicationDispense.substitution</sch:title>
    <sch:rule context="f:MedicationDispense/f:substitution">
      <sch:assert test="@value|f:*|h:div">All FHIR elements must have a @value or children (inherited)</sch:assert>
    </sch:rule>
  </sch:pattern>
  <sch:pattern>
    <sch:title>MedicationDispense.substitution.extension</sch:title>
    <sch:rule context="f:MedicationDispense/f:substitution/f:extension">
      <sch:assert test="@value|f:*|h:div">All FHIR elements must have a @value or children (inherited)</sch:assert>
      <sch:assert test="exists(f:extension)!=exists(f:*[starts-with(local-name(.), &quot;value&quot;)])">Must have either extensions or value[x], not both (inherited)</sch:assert>
    </sch:rule>
  </sch:pattern>
  <sch:pattern>
    <sch:title>MedicationDispense.substitution.modifierExtension</sch:title>
    <sch:rule context="f:MedicationDispense/f:substitution/f:modifierExtension">
      <sch:assert test="@value|f:*|h:div">All FHIR elements must have a @value or children (inherited)</sch:assert>
      <sch:assert test="exists(f:extension)!=exists(f:*[starts-with(local-name(.), &quot;value&quot;)])">Must have either extensions or value[x], not both (inherited)</sch:assert>
    </sch:rule>
  </sch:pattern>
  <sch:pattern>
    <sch:title>MedicationDispense.substitution.wasSubstituted</sch:title>
    <sch:rule context="f:MedicationDispense/f:substitution/f:wasSubstituted">
      <sch:assert test="@value|f:*|h:div">All FHIR elements must have a @value or children (inherited)</sch:assert>
    </sch:rule>
  </sch:pattern>
  <sch:pattern>
    <sch:title>MedicationDispense.substitution.type</sch:title>
    <sch:rule context="f:MedicationDispense/f:substitution/f:type">
      <sch:assert test="@value|f:*|h:div">All FHIR elements must have a @value or children (inherited)</sch:assert>
    </sch:rule>
  </sch:pattern>
  <sch:pattern>
    <sch:title>MedicationDispense.substitution.reason</sch:title>
    <sch:rule context="f:MedicationDispense/f:substitution/f:reason">
      <sch:assert test="@value|f:*|h:div">All FHIR elements must have a @value or children (inherited)</sch:assert>
    </sch:rule>
  </sch:pattern>
  <sch:pattern>
    <sch:title>MedicationDispense.substitution.responsibleParty</sch:title>
    <sch:rule context="f:MedicationDispense/f:substitution/f:responsibleParty">
      <sch:assert test="@value|f:*|h:div">All FHIR elements must have a @value or children (inherited)</sch:assert>
    </sch:rule>
  </sch:pattern>
  <sch:pattern>
    <sch:title>MedicationDispense.detectedIssue</sch:title>
    <sch:rule context="f:MedicationDispense/f:detectedIssue">
      <sch:assert test="@value|f:*|h:div">All FHIR elements must have a @value or children (inherited)</sch:assert>
    </sch:rule>
  </sch:pattern>
  <sch:pattern>
    <sch:title>MedicationDispense.eventHistory</sch:title>
    <sch:rule context="f:MedicationDispense/f:eventHistory">
      <sch:assert test="@value|f:*|h:div">All FHIR elements must have a @value or children (inherited)</sch:assert>
    </sch:rule>
  </sch:pattern>
</sch:schema>
