<?xml version="1.0" encoding="UTF-8"?>
<sch:schema xmlns:sch="http://purl.oclc.org/dsdl/schematron" queryBinding="xslt2">
  <sch:ns prefix="f" uri="http://hl7.org/fhir"/>
  <sch:ns prefix="h" uri="http://www.w3.org/1999/xhtml"/>
  <!-- 
    This file contains just the constraints for the profile RelatedPerson
    It includes the base constraints for the resource as well.
    Because of the way that schematrons and containment work, 
    you may need to use this schematron fragment to build a, 
    single schematron that validates contained resources (if you have any) 
  -->
  <sch:pattern>
    <sch:title>f:RelatedPerson</sch:title>
    <sch:rule context="f:RelatedPerson">
      <sch:assert test="count(f:active) &gt;= 1">active: minimum cardinality of 'active' is 1</sch:assert>
      <sch:assert test="count(f:name) &gt;= 1">name: minimum cardinality of 'name' is 1</sch:assert>
      <sch:assert test="count(f:telecom) &gt;= 1">telecom: minimum cardinality of 'telecom' is 1</sch:assert>
      <sch:assert test="count(f:gender) &lt;= 0">gender: maximum cardinality of 'gender' is 0</sch:assert>
      <sch:assert test="count(f:birthDate) &lt;= 0">birthDate: maximum cardinality of 'birthDate' is 0</sch:assert>
      <sch:assert test="count(f:address) &gt;= 1">address: minimum cardinality of 'address' is 1</sch:assert>
      <sch:assert test="count(f:photo) &lt;= 0">photo: maximum cardinality of 'photo' is 0</sch:assert>
      <sch:assert test="count(f:period) &lt;= 0">period: maximum cardinality of 'period' is 0</sch:assert>
    </sch:rule>
  </sch:pattern>
  <sch:pattern>
    <sch:title>RelatedPerson</sch:title>
    <sch:rule context="f:RelatedPerson">
      <sch:assert test="not(parent::f:contained and f:contained)">If the resource is contained in another resource, it SHALL NOT contain nested Resources (inherited)</sch:assert>
      <sch:assert test="not(exists(for $id in f:contained/*/f:id/@value return $contained[not(parent::*/descendant::f:reference/@value=concat('#', $contained/*/id/@value) or descendant::f:reference[@value='#'])]))">If the resource is contained in another resource, it SHALL be referred to from elsewhere in the resource or SHALL refer to the containing resource (inherited)</sch:assert>
      <sch:assert test="not(exists(f:contained/*/f:meta/f:versionId)) and not(exists(f:contained/*/f:meta/f:lastUpdated))">If a resource is contained in another resource, it SHALL NOT have a meta.versionId or a meta.lastUpdated (inherited)</sch:assert>
      <sch:assert test="not(exists(f:contained/*/f:meta/f:security))">If a resource is contained in another resource, it SHALL NOT have a security label (inherited)</sch:assert>
      <sch:assert test="exists(f:text/h:div)">A resource should have narrative for robust management (inherited)</sch:assert>
    </sch:rule>
  </sch:pattern>
  <sch:pattern>
    <sch:title>RelatedPerson.meta</sch:title>
    <sch:rule context="f:RelatedPerson/f:meta">
      <sch:assert test="@value|f:*|h:div">All FHIR elements must have a @value or children (inherited)</sch:assert>
    </sch:rule>
  </sch:pattern>
  <sch:pattern>
    <sch:title>RelatedPerson.implicitRules</sch:title>
    <sch:rule context="f:RelatedPerson/f:implicitRules">
      <sch:assert test="@value|f:*|h:div">All FHIR elements must have a @value or children (inherited)</sch:assert>
    </sch:rule>
  </sch:pattern>
  <sch:pattern>
    <sch:title>RelatedPerson.language</sch:title>
    <sch:rule context="f:RelatedPerson/f:language">
      <sch:assert test="@value|f:*|h:div">All FHIR elements must have a @value or children (inherited)</sch:assert>
    </sch:rule>
  </sch:pattern>
  <sch:pattern>
    <sch:title>RelatedPerson.text</sch:title>
    <sch:rule context="f:RelatedPerson/f:text">
      <sch:assert test="@value|f:*|h:div">All FHIR elements must have a @value or children (inherited)</sch:assert>
    </sch:rule>
  </sch:pattern>
  <sch:pattern>
    <sch:title>RelatedPerson.extension</sch:title>
    <sch:rule context="f:RelatedPerson/f:extension">
      <sch:assert test="@value|f:*|h:div">All FHIR elements must have a @value or children (inherited)</sch:assert>
      <sch:assert test="exists(f:extension)!=exists(f:*[starts-with(local-name(.), &quot;value&quot;)])">Must have either extensions or value[x], not both (inherited)</sch:assert>
    </sch:rule>
  </sch:pattern>
  <sch:pattern>
    <sch:title>RelatedPerson.modifierExtension</sch:title>
    <sch:rule context="f:RelatedPerson/f:modifierExtension">
      <sch:assert test="@value|f:*|h:div">All FHIR elements must have a @value or children (inherited)</sch:assert>
      <sch:assert test="exists(f:extension)!=exists(f:*[starts-with(local-name(.), &quot;value&quot;)])">Must have either extensions or value[x], not both (inherited)</sch:assert>
    </sch:rule>
  </sch:pattern>
  <sch:pattern>
    <sch:title>RelatedPerson.identifier</sch:title>
    <sch:rule context="f:RelatedPerson/f:identifier">
      <sch:assert test="@value|f:*|h:div">All FHIR elements must have a @value or children (inherited)</sch:assert>
      <sch:assert test="@value|f:*|h:div">All FHIR elements must have a @value or children (inherited)</sch:assert>
      <sch:assert test="@value|f:*|h:div">All FHIR elements must have a @value or children (inherited)</sch:assert>
      <sch:assert test="@value|f:*|h:div">All FHIR elements must have a @value or children (inherited)</sch:assert>
    </sch:rule>
  </sch:pattern>
  <sch:pattern>
    <sch:title>f:RelatedPerson/f:identifier</sch:title>
    <sch:rule context="f:RelatedPerson/f:identifier">
      <sch:assert test="count(f:id) &lt;= 0">id: maximum cardinality of 'id' is 0</sch:assert>
      <sch:assert test="count(f:use) &lt;= 0">use: maximum cardinality of 'use' is 0</sch:assert>
      <sch:assert test="count(f:type) &lt;= 1">type: maximum cardinality of 'type' is 1</sch:assert>
      <sch:assert test="count(f:system) &gt;= 1">system: minimum cardinality of 'system' is 1</sch:assert>
      <sch:assert test="count(f:system) &lt;= 1">system: maximum cardinality of 'system' is 1</sch:assert>
      <sch:assert test="count(f:value) &gt;= 1">value: minimum cardinality of 'value' is 1</sch:assert>
      <sch:assert test="count(f:value) &lt;= 1">value: maximum cardinality of 'value' is 1</sch:assert>
      <sch:assert test="count(f:period) &lt;= 1">period: maximum cardinality of 'period' is 1</sch:assert>
      <sch:assert test="count(f:assigner) &lt;= 1">assigner: maximum cardinality of 'assigner' is 1</sch:assert>
      <sch:assert test="count(f:id) &lt;= 0">id: maximum cardinality of 'id' is 0</sch:assert>
      <sch:assert test="count(f:use) &lt;= 0">use: maximum cardinality of 'use' is 0</sch:assert>
      <sch:assert test="count(f:type) &lt;= 1">type: maximum cardinality of 'type' is 1</sch:assert>
      <sch:assert test="count(f:system) &gt;= 1">system: minimum cardinality of 'system' is 1</sch:assert>
      <sch:assert test="count(f:system) &lt;= 1">system: maximum cardinality of 'system' is 1</sch:assert>
      <sch:assert test="count(f:value) &gt;= 1">value: minimum cardinality of 'value' is 1</sch:assert>
      <sch:assert test="count(f:value) &lt;= 1">value: maximum cardinality of 'value' is 1</sch:assert>
      <sch:assert test="count(f:period) &lt;= 1">period: maximum cardinality of 'period' is 1</sch:assert>
      <sch:assert test="count(f:assigner) &lt;= 1">assigner: maximum cardinality of 'assigner' is 1</sch:assert>
      <sch:assert test="count(f:id) &lt;= 0">id: maximum cardinality of 'id' is 0</sch:assert>
      <sch:assert test="count(f:use) &lt;= 0">use: maximum cardinality of 'use' is 0</sch:assert>
      <sch:assert test="count(f:type) &lt;= 1">type: maximum cardinality of 'type' is 1</sch:assert>
      <sch:assert test="count(f:system) &gt;= 1">system: minimum cardinality of 'system' is 1</sch:assert>
      <sch:assert test="count(f:system) &lt;= 1">system: maximum cardinality of 'system' is 1</sch:assert>
      <sch:assert test="count(f:value) &gt;= 1">value: minimum cardinality of 'value' is 1</sch:assert>
      <sch:assert test="count(f:value) &lt;= 1">value: maximum cardinality of 'value' is 1</sch:assert>
      <sch:assert test="count(f:period) &lt;= 1">period: maximum cardinality of 'period' is 1</sch:assert>
      <sch:assert test="count(f:assigner) &lt;= 1">assigner: maximum cardinality of 'assigner' is 1</sch:assert>
    </sch:rule>
  </sch:pattern>
  <sch:pattern>
    <sch:title>RelatedPerson.identifier.extension</sch:title>
    <sch:rule context="f:RelatedPerson/f:identifier/f:extension">
      <sch:assert test="@value|f:*|h:div">All FHIR elements must have a @value or children</sch:assert>
      <sch:assert test="exists(f:extension)!=exists(f:*[starts-with(local-name(.), &quot;value&quot;)])">Must have either extensions or value[x], not both</sch:assert>
      <sch:assert test="@value|f:*|h:div">All FHIR elements must have a @value or children</sch:assert>
      <sch:assert test="exists(f:extension)!=exists(f:*[starts-with(local-name(.), &quot;value&quot;)])">Must have either extensions or value[x], not both</sch:assert>
      <sch:assert test="@value|f:*|h:div">All FHIR elements must have a @value or children</sch:assert>
      <sch:assert test="exists(f:extension)!=exists(f:*[starts-with(local-name(.), &quot;value&quot;)])">Must have either extensions or value[x], not both</sch:assert>
    </sch:rule>
  </sch:pattern>
  <sch:pattern>
    <sch:title>RelatedPerson.identifier.use</sch:title>
    <sch:rule context="f:RelatedPerson/f:identifier/f:use">
      <sch:assert test="@value|f:*|h:div">All FHIR elements must have a @value or children (inherited)</sch:assert>
      <sch:assert test="@value|f:*|h:div">All FHIR elements must have a @value or children (inherited)</sch:assert>
      <sch:assert test="@value|f:*|h:div">All FHIR elements must have a @value or children (inherited)</sch:assert>
    </sch:rule>
  </sch:pattern>
  <sch:pattern>
    <sch:title>RelatedPerson.identifier.type</sch:title>
    <sch:rule context="f:RelatedPerson/f:identifier/f:type">
      <sch:assert test="@value|f:*|h:div">All FHIR elements must have a @value or children (inherited)</sch:assert>
      <sch:assert test="@value|f:*|h:div">All FHIR elements must have a @value or children (inherited)</sch:assert>
      <sch:assert test="@value|f:*|h:div">All FHIR elements must have a @value or children (inherited)</sch:assert>
    </sch:rule>
  </sch:pattern>
  <sch:pattern>
    <sch:title>RelatedPerson.identifier.system</sch:title>
    <sch:rule context="f:RelatedPerson/f:identifier/f:system">
      <sch:assert test="@value|f:*|h:div">All FHIR elements must have a @value or children (inherited)</sch:assert>
      <sch:assert test="@value|f:*|h:div">All FHIR elements must have a @value or children (inherited)</sch:assert>
      <sch:assert test="@value|f:*|h:div">All FHIR elements must have a @value or children (inherited)</sch:assert>
    </sch:rule>
  </sch:pattern>
  <sch:pattern>
    <sch:title>RelatedPerson.identifier.value</sch:title>
    <sch:rule context="f:RelatedPerson/f:identifier/f:value">
      <sch:assert test="@value|f:*|h:div">All FHIR elements must have a @value or children (inherited)</sch:assert>
      <sch:assert test="@value|f:*|h:div">All FHIR elements must have a @value or children (inherited)</sch:assert>
      <sch:assert test="@value|f:*|h:div">All FHIR elements must have a @value or children (inherited)</sch:assert>
    </sch:rule>
  </sch:pattern>
  <sch:pattern>
    <sch:title>RelatedPerson.identifier.period</sch:title>
    <sch:rule context="f:RelatedPerson/f:identifier/f:period">
      <sch:assert test="@value|f:*|h:div">All FHIR elements must have a @value or children (inherited)</sch:assert>
      <sch:assert test="@value|f:*|h:div">All FHIR elements must have a @value or children (inherited)</sch:assert>
      <sch:assert test="@value|f:*|h:div">All FHIR elements must have a @value or children (inherited)</sch:assert>
    </sch:rule>
  </sch:pattern>
  <sch:pattern>
    <sch:title>RelatedPerson.identifier.assigner</sch:title>
    <sch:rule context="f:RelatedPerson/f:identifier/f:assigner">
      <sch:assert test="@value|f:*|h:div">All FHIR elements must have a @value or children (inherited)</sch:assert>
      <sch:assert test="@value|f:*|h:div">All FHIR elements must have a @value or children (inherited)</sch:assert>
      <sch:assert test="@value|f:*|h:div">All FHIR elements must have a @value or children (inherited)</sch:assert>
    </sch:rule>
  </sch:pattern>
  <sch:pattern>
    <sch:title>RelatedPerson.active</sch:title>
    <sch:rule context="f:RelatedPerson/f:active">
      <sch:assert test="@value|f:*|h:div">All FHIR elements must have a @value or children (inherited)</sch:assert>
    </sch:rule>
  </sch:pattern>
  <sch:pattern>
    <sch:title>RelatedPerson.patient</sch:title>
    <sch:rule context="f:RelatedPerson/f:patient">
      <sch:assert test="@value|f:*|h:div">All FHIR elements must have a @value or children (inherited)</sch:assert>
    </sch:rule>
  </sch:pattern>
  <sch:pattern>
    <sch:title>RelatedPerson.relationship</sch:title>
    <sch:rule context="f:RelatedPerson/f:relationship">
      <sch:assert test="@value|f:*|h:div">All FHIR elements must have a @value or children (inherited)</sch:assert>
    </sch:rule>
  </sch:pattern>
  <sch:pattern>
    <sch:title>RelatedPerson.name</sch:title>
    <sch:rule context="f:RelatedPerson/f:name">
      <sch:assert test="@value|f:*|h:div">All FHIR elements must have a @value or children (inherited)</sch:assert>
    </sch:rule>
  </sch:pattern>
  <sch:pattern>
    <sch:title>RelatedPerson.telecom</sch:title>
    <sch:rule context="f:RelatedPerson/f:telecom">
      <sch:assert test="not(exists(f:value)) or exists(f:system)">A system is required if a value is provided. (inherited)</sch:assert>
      <sch:assert test="@value|f:*|h:div">All FHIR elements must have a @value or children (inherited)</sch:assert>
    </sch:rule>
  </sch:pattern>
  <sch:pattern>
    <sch:title>RelatedPerson.gender</sch:title>
    <sch:rule context="f:RelatedPerson/f:gender">
      <sch:assert test="@value|f:*|h:div">All FHIR elements must have a @value or children (inherited)</sch:assert>
    </sch:rule>
  </sch:pattern>
  <sch:pattern>
    <sch:title>RelatedPerson.birthDate</sch:title>
    <sch:rule context="f:RelatedPerson/f:birthDate">
      <sch:assert test="@value|f:*|h:div">All FHIR elements must have a @value or children (inherited)</sch:assert>
    </sch:rule>
  </sch:pattern>
  <sch:pattern>
    <sch:title>RelatedPerson.address</sch:title>
    <sch:rule context="f:RelatedPerson/f:address">
      <sch:assert test="@value|f:*|h:div">All FHIR elements must have a @value or children (inherited)</sch:assert>
    </sch:rule>
  </sch:pattern>
  <sch:pattern>
    <sch:title>RelatedPerson.photo</sch:title>
    <sch:rule context="f:RelatedPerson/f:photo">
      <sch:assert test="@value|f:*|h:div">All FHIR elements must have a @value or children (inherited)</sch:assert>
    </sch:rule>
  </sch:pattern>
  <sch:pattern>
    <sch:title>RelatedPerson.period</sch:title>
    <sch:rule context="f:RelatedPerson/f:period">
      <sch:assert test="@value|f:*|h:div">All FHIR elements must have a @value or children (inherited)</sch:assert>
    </sch:rule>
  </sch:pattern>
  <sch:pattern>
    <sch:title>f:RelatedPerson/f:communication</sch:title>
    <sch:rule context="f:RelatedPerson/f:communication">
      <sch:assert test="count(f:preferred) &lt;= 0">preferred: maximum cardinality of 'preferred' is 0</sch:assert>
    </sch:rule>
  </sch:pattern>
  <sch:pattern>
    <sch:title>RelatedPerson.communication</sch:title>
    <sch:rule context="f:RelatedPerson/f:communication">
      <sch:assert test="@value|f:*|h:div">All FHIR elements must have a @value or children (inherited)</sch:assert>
    </sch:rule>
  </sch:pattern>
  <sch:pattern>
    <sch:title>RelatedPerson.communication.extension</sch:title>
    <sch:rule context="f:RelatedPerson/f:communication/f:extension">
      <sch:assert test="@value|f:*|h:div">All FHIR elements must have a @value or children (inherited)</sch:assert>
      <sch:assert test="exists(f:extension)!=exists(f:*[starts-with(local-name(.), &quot;value&quot;)])">Must have either extensions or value[x], not both (inherited)</sch:assert>
    </sch:rule>
  </sch:pattern>
  <sch:pattern>
    <sch:title>RelatedPerson.communication.modifierExtension</sch:title>
    <sch:rule context="f:RelatedPerson/f:communication/f:modifierExtension">
      <sch:assert test="@value|f:*|h:div">All FHIR elements must have a @value or children (inherited)</sch:assert>
      <sch:assert test="exists(f:extension)!=exists(f:*[starts-with(local-name(.), &quot;value&quot;)])">Must have either extensions or value[x], not both (inherited)</sch:assert>
    </sch:rule>
  </sch:pattern>
  <sch:pattern>
    <sch:title>RelatedPerson.communication.language</sch:title>
    <sch:rule context="f:RelatedPerson/f:communication/f:language">
      <sch:assert test="@value|f:*|h:div">All FHIR elements must have a @value or children (inherited)</sch:assert>
    </sch:rule>
  </sch:pattern>
  <sch:pattern>
    <sch:title>RelatedPerson.communication.preferred</sch:title>
    <sch:rule context="f:RelatedPerson/f:communication/f:preferred">
      <sch:assert test="@value|f:*|h:div">All FHIR elements must have a @value or children (inherited)</sch:assert>
    </sch:rule>
  </sch:pattern>
</sch:schema>
