{
  "resourceType": "ValueSet",
  "id": "triage-vs",
  "text": {
    "status": "generated",
    "div": "<div xmlns=\"http://www.w3.org/1999/xhtml\"><h2>Triage Value Set.</h2><div><p>Codes for defining triage levels.</p>\n</div><ul><li>Include all codes defined in <a href=\"CodeSystem-TriageCS.html\"><code>http://fhir.mn/CodeSystem/TriageCS</code></a></li></ul></div>"
  },
  "url": "http://fhir.mn/ValueSet/triage-vs",
  "version": "1.0.0",
  "name": "TriageValueSet",
  "title": "Triage Value Set.",
  "status": "active",
  "date": "2021-10-12T23:24:32+02:00",
  "publisher": "http://fhir.mn",
  "contact": [
    {
      "name": "Pétur Þór Valdimarsson",
      "telecom": [
        {
          "system": "url",
          "value": "http://fhir.mn"
        },
        {
          "system": "email",
          "value": "petur.valdimarsson@chorus.se"
        }
      ]
    }
  ],
  "description": "Codes for defining triage levels.",
  "compose": {
    "include": [
      {
        "system": "http://fhir.mn/CodeSystem/TriageCS"
      }
    ]
  }
}