{
  "resourceType": "ValueSet",
  "id": "OutpatientEncounterServiceTypeVS",
  "text": {
    "status": "generated",
    "div": "<div xmlns=\"http://www.w3.org/1999/xhtml\"><h2>OutpatientEncounterServiceType Value Set.</h2><div><p>List of encounter service types.</p>\n</div><ul><li>Include all codes defined in <a href=\"CodeSystem-OutpatientEncounterServiceType.html\"><code>http://fhir.mn/CodeSystem/OutpatientEncounterServiceType</code></a></li></ul></div>"
  },
  "url": "http://fhir.mn/ValueSet/OutpatientEncounterServiceTypeVS",
  "version": "1.0.0",
  "name": "OutpatientEncounterServiceTypeVS",
  "title": "OutpatientEncounterServiceType Value Set.",
  "status": "active",
  "date": "2021-10-12T23:24:32+02:00",
  "publisher": "http://fhir.mn",
  "contact": [
    {
      "name": "Pétur Þór Valdimarsson",
      "telecom": [
        {
          "system": "url",
          "value": "http://fhir.mn"
        },
        {
          "system": "email",
          "value": "petur.valdimarsson@chorus.se"
        }
      ]
    }
  ],
  "description": "List of encounter service types.",
  "compose": {
    "include": [
      {
        "system": "http://fhir.mn/CodeSystem/OutpatientEncounterServiceType"
      }
    ]
  }
}