{
  "resourceType": "CodeSystem",
  "id": "Districts",
  "text": {
    "status": "generated",
    "div": "<div xmlns=\"http://www.w3.org/1999/xhtml\"><h2>Districts Code System.</h2><div><p>Сум болон дүүргийн жагсаалт</p>\n</div><p>This code system http://fhir.mn/CodeSystem/Districts defines the following codes:</p><table class=\"codes\"><tr><td style=\"white-space:nowrap\"><b>Code</b></td><td><b>Display</b></td><td><b>Definition</b></td></tr><tr><td style=\"white-space:nowrap\">1<a name=\"Districts-1\"> </a></td><td>Baganuur</td><td/></tr><tr><td style=\"white-space:nowrap\">2<a name=\"Districts-2\"> </a></td><td>Bagakhangai</td><td/></tr><tr><td style=\"white-space:nowrap\">3<a name=\"Districts-3\"> </a></td><td>Bayangol</td><td/></tr><tr><td style=\"white-space:nowrap\">4<a name=\"Districts-4\"> </a></td><td>Bayanzürkh</td><td/></tr><tr><td style=\"white-space:nowrap\">5<a name=\"Districts-5\"> </a></td><td>Chingeltei</td><td/></tr><tr><td style=\"white-space:nowrap\">6<a name=\"Districts-6\"> </a></td><td>Khan Uul</td><td/></tr><tr><td style=\"white-space:nowrap\">7<a name=\"Districts-7\"> </a></td><td>Nalaikh</td><td/></tr><tr><td style=\"white-space:nowrap\">8<a name=\"Districts-8\"> </a></td><td>Songino Khairkhan</td><td/></tr><tr><td style=\"white-space:nowrap\">9<a name=\"Districts-9\"> </a></td><td>Sükhbaatar</td><td/></tr></table></div>"
  },
  "url": "http://fhir.mn/CodeSystem/Districts",
  "version": "1.0.0",
  "name": "Дүүрэг",
  "title": "Districts Code System.",
  "status": "active",
  "date": "2021-10-12T23:28:18+02:00",
  "publisher": "http://fhir.mn",
  "contact": [
    {
      "name": "Петур Бор Валдимарссон",
      "telecom": [
        {
          "system": "url",
          "value": "http://fhir.mn"
        },
        {
          "system": "email",
          "value": "petur.valdimarsson@chorus.se"
        }
      ]
    }
  ],
  "description": "Сум болон дүүргийн жагсаалт",
  "content": "complete",
  "concept": [
    {
      "code": "1",
      "display": "Baganuur"
    },
    {
      "code": "2",
      "display": "Bagakhangai"
    },
    {
      "code": "3",
      "display": "Bayangol"
    },
    {
      "code": "4",
      "display": "Bayanzürkh"
    },
    {
      "code": "5",
      "display": "Chingeltei"
    },
    {
      "code": "6",
      "display": "Khan Uul"
    },
    {
      "code": "7",
      "display": "Nalaikh"
    },
    {
      "code": "8",
      "display": "Songino Khairkhan"
    },
    {
      "code": "9",
      "display": "Sükhbaatar"
    }
  ]
}