{
  "resourceType": "CodeSystem",
  "id": "ASRTypesCS",
  "text": {
    "status": "generated",
    "div": "<div xmlns=\"http://www.w3.org/1999/xhtml\"><h2>ASR Types.</h2><p>This code system http://fhir.mn/CodeSystem/ASRTypesCS defines the following codes:</p><table class=\"codes\"><tr><td style=\"white-space:nowrap\"><b>Code</b></td><td><b>Display</b></td><td><b>Definition</b></td></tr><tr><td style=\"white-space:nowrap\">1<a name=\"ASRTypesCS-1\"> </a></td><td>450 form 1</td><td/></tr><tr><td style=\"white-space:nowrap\">2<a name=\"ASRTypesCS-2\"> </a></td><td>450 form 2</td><td/></tr></table></div>"
  },
  "url": "http://fhir.mn/CodeSystem/ASRTypesCS",
  "version": "1.0.0",
  "name": "ХТФХэлбэрCS",
  "title": "ASR Types.",
  "status": "active",
  "date": "2021-10-12T23:28:18+02:00",
  "publisher": "http://fhir.mn",
  "contact": [
    {
      "name": "Петур Бор Валдимарссон",
      "telecom": [
        {
          "system": "url",
          "value": "http://fhir.mn"
        },
        {
          "system": "email",
          "value": "petur.valdimarsson@chorus.se"
        }
      ]
    }
  ],
  "content": "complete",
  "concept": [
    {
      "code": "1",
      "display": "450 form 1"
    },
    {
      "code": "2",
      "display": "450 form 2"
    }
  ]
}