{
  "resourceType": "CodeSystem",
  "id": "Ethnicity",
  "text": {
    "status": "generated",
    "div": "<div xmlns=\"http://www.w3.org/1999/xhtml\"><h2>Ethnicity Code System.</h2><div><p>Яс үндэсийн жагсаалт.</p>\n</div><p>This code system http://fhir.mn/CodeSystem/Ethnicity defines the following codes:</p><table class=\"codes\"><tr><td style=\"white-space:nowrap\"><b>Code</b></td><td><b>Display</b></td><td><b>Definition</b></td></tr><tr><td style=\"white-space:nowrap\">1<a name=\"Ethnicity-1\"> </a></td><td>First</td><td/></tr><tr><td style=\"white-space:nowrap\">2<a name=\"Ethnicity-2\"> </a></td><td>Second</td><td/></tr></table></div>"
  },
  "url": "http://fhir.mn/CodeSystem/Ethnicity",
  "version": "1.0.0",
  "name": "Яс үндэс",
  "title": "Ethnicity Code System.",
  "status": "active",
  "date": "2021-10-12T23:28:18+02:00",
  "publisher": "http://fhir.mn",
  "contact": [
    {
      "name": "Петур Бор Валдимарссон",
      "telecom": [
        {
          "system": "url",
          "value": "http://fhir.mn"
        },
        {
          "system": "email",
          "value": "petur.valdimarsson@chorus.se"
        }
      ]
    }
  ],
  "description": "Яс үндэсийн жагсаалт.",
  "content": "complete",
  "concept": [
    {
      "code": "1",
      "display": "First"
    },
    {
      "code": "2",
      "display": "Second"
    }
  ]
}