<?xml version="1.0" encoding="UTF-8" standalone="no"?><svg xmlns="http://www.w3.org/2000/svg" xmlns:xlink="http://www.w3.org/1999/xlink" contentScriptType="application/ecmascript" contentStyleType="text/css" height="385px" preserveAspectRatio="none" style="width:563px;height:385px;background:#FFFFFF;" version="1.1" viewBox="0 0 563 385" width="563px" zoomAndPan="magnify"><defs><filter height="300%" id="f1278p6sduypkg" width="300%" x="-1" y="-1"><feGaussianBlur result="blurOut" stdDeviation="2.0"/><feColorMatrix in="blurOut" result="blurOut2" type="matrix" values="0 0 0 0 0 0 0 0 0 0 0 0 0 0 0 0 0 0 .4 0"/><feOffset dx="4.0" dy="4.0" in="blurOut2" result="blurOut3"/><feBlend in="SourceGraphic" in2="blurOut3" mode="normal"/></filter></defs><g><!--MD5=[f6874fad8e5f96439cc203ac09db5558]
class PractitionerMn--><rect codeLine="5" fill="#A5E8E7" filter="url(#f1278p6sduypkg)" height="182.6387" id="PractitionerMn" style="stroke:#000000;stroke-width:1.5;" width="269" x="7" y="189"/><text fill="#000000" font-family="OpenSansCondensedLight" font-size="12" lengthAdjust="spacing" textLength="82" x="100.5" y="205.6016">PractitionerMn</text><line style="stroke:#000000;stroke-width:1.5;" x1="8" x2="275" y1="213.1328" y2="213.1328"/><text fill="#000000" font-family="sans-serif" font-size="11" lengthAdjust="spacing" textLength="159" x="13" y="227.7676">nationalIdentificationNumber:</text><a href="StructureDefinition-mng-dt-identifier.html" target="_top" title="StructureDefinition-mng-dt-identifier.html" xlink:actuate="onRequest" xlink:href="StructureDefinition-mng-dt-identifier.html" xlink:show="new" xlink:title="StructureDefinition-mng-dt-identifier.html" xlink:type="simple"><text fill="#0000FF" font-family="sans-serif" font-size="11" lengthAdjust="spacing" text-decoration="underline" textLength="64" x="175" y="227.7676">IdentifierMn</text></a><text fill="#000000" font-family="sans-serif" font-size="11" lengthAdjust="spacing" textLength="28" x="242" y="227.7676">[0..1]</text><text fill="#000000" font-family="sans-serif" font-size="11" lengthAdjust="spacing" textLength="94" x="13" y="240.7227">passportNumber:</text><a href="StructureDefinition-mng-dt-identifier.html" target="_top" title="StructureDefinition-mng-dt-identifier.html" xlink:actuate="onRequest" xlink:href="StructureDefinition-mng-dt-identifier.html" xlink:show="new" xlink:title="StructureDefinition-mng-dt-identifier.html" xlink:type="simple"><text fill="#0000FF" font-family="sans-serif" font-size="11" lengthAdjust="spacing" text-decoration="underline" textLength="64" x="110" y="240.7227">IdentifierMn</text></a><text fill="#000000" font-family="sans-serif" font-size="11" lengthAdjust="spacing" textLength="28" x="177" y="240.7227">[0..1]</text><text fill="#000000" font-family="sans-serif" font-size="11" lengthAdjust="spacing" textLength="59" x="13" y="253.6777">nationality:</text><a href="https://www.hl7.org/fhir/datatypes.html#CodeableConcept" target="_top" title="https://www.hl7.org/fhir/datatypes.html#CodeableConcept" xlink:actuate="onRequest" xlink:href="https://www.hl7.org/fhir/datatypes.html#CodeableConcept" xlink:show="new" xlink:title="https://www.hl7.org/fhir/datatypes.html#CodeableConcept" xlink:type="simple"><text fill="#0000FF" font-family="sans-serif" font-size="11" lengthAdjust="spacing" text-decoration="underline" textLength="98" x="75" y="253.6777">CodeableConcept!</text></a><text fill="#000000" font-family="sans-serif" font-size="11" lengthAdjust="spacing" textLength="26" x="176" y="253.6777">[1..*]</text><text fill="#000000" font-family="sans-serif" font-size="11" lengthAdjust="spacing" textLength="37" x="13" y="266.6328">active :</text><a href="https://www.hl7.org/fhir/datatypes.html#boolean" target="_top" title="https://www.hl7.org/fhir/datatypes.html#boolean" xlink:actuate="onRequest" xlink:href="https://www.hl7.org/fhir/datatypes.html#boolean" xlink:show="new" xlink:title="https://www.hl7.org/fhir/datatypes.html#boolean" xlink:type="simple"><text fill="#0000FF" font-family="sans-serif" font-size="11" lengthAdjust="spacing" text-decoration="underline" textLength="43" x="53" y="266.6328">boolean</text></a><text fill="#000000" font-family="sans-serif" font-size="11" lengthAdjust="spacing" textLength="28" x="99" y="266.6328">[1..1]</text><text fill="#000000" font-family="sans-serif" font-size="11" lengthAdjust="spacing" textLength="35" x="13" y="279.5879">name :</text><a href="StructureDefinition-mng-dt-human-name.html" target="_top" title="StructureDefinition-mng-dt-human-name.html" xlink:actuate="onRequest" xlink:href="StructureDefinition-mng-dt-human-name.html" xlink:show="new" xlink:title="StructureDefinition-mng-dt-human-name.html" xlink:type="simple"><text fill="#0000FF" font-family="sans-serif" font-size="11" lengthAdjust="spacing" text-decoration="underline" textLength="84" x="51" y="279.5879">HumanNameMn</text></a><text fill="#000000" font-family="sans-serif" font-size="11" lengthAdjust="spacing" textLength="26" x="138" y="279.5879">[1..*]</text><text fill="#000000" font-family="sans-serif" font-size="11" lengthAdjust="spacing" textLength="44" x="13" y="292.543">gender :</text><a href="https://www.hl7.org/fhir/datatypes.html#code" target="_top" title="https://www.hl7.org/fhir/datatypes.html#code" xlink:actuate="onRequest" xlink:href="https://www.hl7.org/fhir/datatypes.html#code" xlink:show="new" xlink:title="https://www.hl7.org/fhir/datatypes.html#code" xlink:type="simple"><text fill="#0000FF" font-family="sans-serif" font-size="11" lengthAdjust="spacing" text-decoration="underline" textLength="26" x="60" y="292.543">code</text></a><text fill="#000000" font-family="sans-serif" font-size="11" lengthAdjust="spacing" textLength="37" x="89" y="292.543">[1..1] «</text><a href="https://www.hl7.org/fhir/valueset-administrative-gender.html" target="_top" title="https://www.hl7.org/fhir/valueset-administrative-gender.html" xlink:actuate="onRequest" xlink:href="https://www.hl7.org/fhir/valueset-administrative-gender.html" xlink:show="new" xlink:title="https://www.hl7.org/fhir/valueset-administrative-gender.html" xlink:type="simple"><text fill="#0000FF" font-family="sans-serif" font-size="11" lengthAdjust="spacing" text-decoration="underline" textLength="120" x="126" y="292.543">AdministrativeGender!</text></a><text fill="#000000" font-family="sans-serif" font-size="11" lengthAdjust="spacing" textLength="6" x="246" y="292.543">»</text><text fill="#000000" font-family="sans-serif" font-size="11" lengthAdjust="spacing" textLength="56" x="13" y="305.498">birthDate :</text><a href="https://www.hl7.org/fhir/datatypes.html#date" target="_top" title="https://www.hl7.org/fhir/datatypes.html#date" xlink:actuate="onRequest" xlink:href="https://www.hl7.org/fhir/datatypes.html#date" xlink:show="new" xlink:title="https://www.hl7.org/fhir/datatypes.html#date" xlink:type="simple"><text fill="#0000FF" font-family="sans-serif" font-size="11" lengthAdjust="spacing" text-decoration="underline" textLength="23" x="72" y="305.498">date</text></a><text fill="#000000" font-family="sans-serif" font-size="11" lengthAdjust="spacing" textLength="28" x="98" y="305.498">[1..1]</text><text fill="#000000" font-family="sans-serif" font-size="11" lengthAdjust="spacing" textLength="38" x="13" y="318.4531">photo :</text><a href="http://hl7.org/fhir/R4/datatypes.html#Attachment" target="_top" title="http://hl7.org/fhir/R4/datatypes.html#Attachment" xlink:actuate="onRequest" xlink:href="http://hl7.org/fhir/R4/datatypes.html#Attachment" xlink:show="new" xlink:title="http://hl7.org/fhir/R4/datatypes.html#Attachment" xlink:type="simple"><text fill="#0000FF" font-family="sans-serif" font-size="11" lengthAdjust="spacing" text-decoration="underline" textLength="62" x="54" y="318.4531">Attachment</text></a><text fill="#000000" font-family="sans-serif" font-size="11" lengthAdjust="spacing" textLength="28" x="119" y="318.4531">[1..1]</text><text fill="#000000" font-family="sans-serif" font-size="11" lengthAdjust="spacing" textLength="49" x="13" y="331.4082">address :</text><a href="StructureDefinition-mng-dt-address.html" target="_top" title="StructureDefinition-mng-dt-address.html" xlink:actuate="onRequest" xlink:href="StructureDefinition-mng-dt-address.html" xlink:show="new" xlink:title="StructureDefinition-mng-dt-address.html" xlink:type="simple"><text fill="#0000FF" font-family="sans-serif" font-size="11" lengthAdjust="spacing" text-decoration="underline" textLength="61" x="65" y="331.4082">AddressMn</text></a><text fill="#000000" font-family="sans-serif" font-size="11" lengthAdjust="spacing" textLength="26" x="129" y="331.4082">[1..*]</text><text fill="#000000" font-family="sans-serif" font-size="11" lengthAdjust="spacing" textLength="48" x="13" y="344.3633">telecom :</text><a href="StructureDefinition-mng-dt-contact-point.html" target="_top" title="StructureDefinition-mng-dt-contact-point.html" xlink:actuate="onRequest" xlink:href="StructureDefinition-mng-dt-contact-point.html" xlink:show="new" xlink:title="StructureDefinition-mng-dt-contact-point.html" xlink:type="simple"><text fill="#0000FF" font-family="sans-serif" font-size="11" lengthAdjust="spacing" text-decoration="underline" textLength="69" x="64" y="344.3633">ContactPoint</text></a><text fill="#000000" font-family="sans-serif" font-size="11" lengthAdjust="spacing" textLength="26" x="136" y="344.3633">[1..*]</text><text fill="#000000" font-family="sans-serif" font-size="11" lengthAdjust="spacing" textLength="89" x="13" y="357.3184">communication :</text><a href="https://www.hl7.org/fhir/datatypes.html#CodeableConcept" target="_top" title="https://www.hl7.org/fhir/datatypes.html#CodeableConcept" xlink:actuate="onRequest" xlink:href="https://www.hl7.org/fhir/datatypes.html#CodeableConcept" xlink:show="new" xlink:title="https://www.hl7.org/fhir/datatypes.html#CodeableConcept" xlink:type="simple"><text fill="#0000FF" font-family="sans-serif" font-size="11" lengthAdjust="spacing" text-decoration="underline" textLength="98" x="105" y="357.3184">CodeableConcept!</text></a><text fill="#000000" font-family="sans-serif" font-size="11" lengthAdjust="spacing" textLength="26" x="206" y="357.3184">[0..*]</text><line style="stroke:#000000;stroke-width:1.5;" x1="8" x2="275" y1="363.6387" y2="363.6387"/><!--MD5=[d581c5b18622ad4b385532da9a0e9251]
class OrganizationMn--><rect codeLine="5" fill="#A5E8E7" filter="url(#f1278p6sduypkg)" height="130.8184" id="OrganizationMn" style="stroke:#000000;stroke-width:1.5;" width="238" x="311.5" y="215"/><text fill="#000000" font-family="OpenSansCondensedLight" font-size="12" lengthAdjust="spacing" textLength="90" x="385.5" y="231.6016">OrganizationMn</text><line style="stroke:#000000;stroke-width:1.5;" x1="312.5" x2="548.5" y1="239.1328" y2="239.1328"/><text fill="#000000" font-family="sans-serif" font-size="11" lengthAdjust="spacing" textLength="51" x="317.5" y="253.7676">identifier:</text><a href="StructureDefinition-mng-dt-identifier.html" target="_top" title="StructureDefinition-mng-dt-identifier.html" xlink:actuate="onRequest" xlink:href="StructureDefinition-mng-dt-identifier.html" xlink:show="new" xlink:title="StructureDefinition-mng-dt-identifier.html" xlink:type="simple"><text fill="#0000FF" font-family="sans-serif" font-size="11" lengthAdjust="spacing" text-decoration="underline" textLength="64" x="371.5" y="253.7676">IdentifierMn</text></a><text fill="#000000" font-family="sans-serif" font-size="11" lengthAdjust="spacing" textLength="26" x="438.5" y="253.7676">[0..*]</text><text fill="#000000" font-family="sans-serif" font-size="11" lengthAdjust="spacing" textLength="34" x="317.5" y="266.7227">active:</text><a href="https://www.hl7.org/fhir/datatypes.html#boolean" target="_top" title="https://www.hl7.org/fhir/datatypes.html#boolean" xlink:actuate="onRequest" xlink:href="https://www.hl7.org/fhir/datatypes.html#boolean" xlink:show="new" xlink:title="https://www.hl7.org/fhir/datatypes.html#boolean" xlink:type="simple"><text fill="#0000FF" font-family="sans-serif" font-size="11" lengthAdjust="spacing" text-decoration="underline" textLength="43" x="354.5" y="266.7227">boolean</text></a><text fill="#000000" font-family="sans-serif" font-size="11" lengthAdjust="spacing" textLength="28" x="400.5" y="266.7227">[0..1]</text><text fill="#000000" font-family="sans-serif" font-size="11" lengthAdjust="spacing" textLength="26" x="317.5" y="279.6777">type:</text><a href="https://www.hl7.org/fhir/datatypes.html#CodeableConcept" target="_top" title="https://www.hl7.org/fhir/datatypes.html#CodeableConcept" xlink:actuate="onRequest" xlink:href="https://www.hl7.org/fhir/datatypes.html#CodeableConcept" xlink:show="new" xlink:title="https://www.hl7.org/fhir/datatypes.html#CodeableConcept" xlink:type="simple"><text fill="#0000FF" font-family="sans-serif" font-size="11" lengthAdjust="spacing" text-decoration="underline" textLength="98" x="346.5" y="279.6777">CodeableConcept!</text></a><text fill="#000000" font-family="sans-serif" font-size="11" lengthAdjust="spacing" textLength="26" x="447.5" y="279.6777">[0..*]</text><text fill="#000000" font-family="sans-serif" font-size="11" lengthAdjust="spacing" textLength="32" x="317.5" y="292.6328">name:</text><a href="https://www.hl7.org/fhir/datatypes.html#string" target="_top" title="https://www.hl7.org/fhir/datatypes.html#string" xlink:actuate="onRequest" xlink:href="https://www.hl7.org/fhir/datatypes.html#string" xlink:show="new" xlink:title="https://www.hl7.org/fhir/datatypes.html#string" xlink:type="simple"><text fill="#0000FF" font-family="sans-serif" font-size="11" lengthAdjust="spacing" text-decoration="underline" textLength="32" x="352.5" y="292.6328">string</text></a><text fill="#000000" font-family="sans-serif" font-size="11" lengthAdjust="spacing" textLength="28" x="387.5" y="292.6328">[0..1]</text><text fill="#000000" font-family="sans-serif" font-size="11" lengthAdjust="spacing" textLength="45" x="317.5" y="305.5879">telecom:</text><a href="StructureDefinition-mng-dt-contact-point.html" target="_top" title="StructureDefinition-mng-dt-contact-point.html" xlink:actuate="onRequest" xlink:href="StructureDefinition-mng-dt-contact-point.html" xlink:show="new" xlink:title="StructureDefinition-mng-dt-contact-point.html" xlink:type="simple"><text fill="#0000FF" font-family="sans-serif" font-size="11" lengthAdjust="spacing" text-decoration="underline" textLength="69" x="365.5" y="305.5879">ContactPoint</text></a><text fill="#000000" font-family="sans-serif" font-size="11" lengthAdjust="spacing" textLength="26" x="437.5" y="305.5879">[0..*]</text><text fill="#000000" font-family="sans-serif" font-size="11" lengthAdjust="spacing" textLength="49" x="317.5" y="318.543">address: ​</text><a href="StructureDefinition-mng-dt-address.html" target="_top" title="StructureDefinition-mng-dt-address.html" xlink:actuate="onRequest" xlink:href="StructureDefinition-mng-dt-address.html" xlink:show="new" xlink:title="StructureDefinition-mng-dt-address.html" xlink:type="simple"><text fill="#0000FF" font-family="sans-serif" font-size="11" lengthAdjust="spacing" text-decoration="underline" textLength="61" x="366.5" y="318.543">AddressMn</text></a><text fill="#000000" font-family="sans-serif" font-size="11" lengthAdjust="spacing" textLength="26" x="430.5" y="318.543">[0..*]</text><text fill="#000000" font-family="sans-serif" font-size="11" lengthAdjust="spacing" textLength="38" x="317.5" y="331.498">partOf:</text><a href="https://www.hl7.org/fhir/references.html#Reference" target="_top" title="https://www.hl7.org/fhir/references.html#Reference" xlink:actuate="onRequest" xlink:href="https://www.hl7.org/fhir/references.html#Reference" xlink:show="new" xlink:title="https://www.hl7.org/fhir/references.html#Reference" xlink:type="simple"><text fill="#0000FF" font-family="sans-serif" font-size="11" lengthAdjust="spacing" text-decoration="underline" textLength="53" x="358.5" y="331.498">Reference</text></a><text fill="#000000" font-family="sans-serif" font-size="11" lengthAdjust="spacing" textLength="37" x="414.5" y="331.498">[0..1] «</text><a href="StructureDefinition-mng-core-organization.html" target="_top" title="StructureDefinition-mng-core-organization.html" xlink:actuate="onRequest" xlink:href="StructureDefinition-mng-core-organization.html" xlink:show="new" xlink:title="StructureDefinition-mng-core-organization.html" xlink:type="simple"><text fill="#0000FF" font-family="sans-serif" font-size="11" lengthAdjust="spacing" text-decoration="underline" textLength="86" x="451.5" y="331.498">OrganizationMn</text></a><text fill="#000000" font-family="sans-serif" font-size="11" lengthAdjust="spacing" textLength="6" x="537.5" y="331.498">»​</text><line style="stroke:#000000;stroke-width:1.5;" x1="312.5" x2="548.5" y1="337.8184" y2="337.8184"/><!--MD5=[8b3cb427f1397425745564805c955e99]
class PractitionerRoleMn--><rect codeLine="5" fill="#A5E8E7" filter="url(#f1278p6sduypkg)" height="104.9082" id="PractitionerRoleMn" style="stroke:#000000;stroke-width:1.5;" width="359" x="106" y="7"/><text fill="#000000" font-family="OpenSansCondensedLight" font-size="12" lengthAdjust="spacing" textLength="107" x="232" y="23.6016">PractitionerRoleMn</text><line style="stroke:#000000;stroke-width:1.5;" x1="107" x2="464" y1="31.1328" y2="31.1328"/><text fill="#000000" font-family="sans-serif" font-size="11" lengthAdjust="spacing" textLength="37" x="112" y="45.7676">active :</text><a href="https://www.hl7.org/fhir/datatypes.html#boolean" target="_top" title="https://www.hl7.org/fhir/datatypes.html#boolean" xlink:actuate="onRequest" xlink:href="https://www.hl7.org/fhir/datatypes.html#boolean" xlink:show="new" xlink:title="https://www.hl7.org/fhir/datatypes.html#boolean" xlink:type="simple"><text fill="#0000FF" font-family="sans-serif" font-size="11" lengthAdjust="spacing" text-decoration="underline" textLength="43" x="152" y="45.7676">boolean</text></a><text fill="#000000" font-family="sans-serif" font-size="11" lengthAdjust="spacing" textLength="28" x="198" y="45.7676">[0..1]</text><text fill="#000000" font-family="sans-serif" font-size="11" lengthAdjust="spacing" textLength="66" x="112" y="58.7227">practitioner:</text><a href="https://www.hl7.org/fhir/references.html#Reference" target="_top" title="https://www.hl7.org/fhir/references.html#Reference" xlink:actuate="onRequest" xlink:href="https://www.hl7.org/fhir/references.html#Reference" xlink:show="new" xlink:title="https://www.hl7.org/fhir/references.html#Reference" xlink:type="simple"><text fill="#0000FF" font-family="sans-serif" font-size="11" lengthAdjust="spacing" text-decoration="underline" textLength="53" x="181" y="58.7227">Reference</text></a><text fill="#000000" font-family="sans-serif" font-size="11" lengthAdjust="spacing" textLength="37" x="237" y="58.7227">[0..1] «</text><a href="StructureDefinition-mng-core-practitioner.html" target="_top" title="StructureDefinition-mng-core-practitioner.html" xlink:actuate="onRequest" xlink:href="StructureDefinition-mng-core-practitioner.html" xlink:show="new" xlink:title="StructureDefinition-mng-core-practitioner.html" xlink:type="simple"><text fill="#0000FF" font-family="sans-serif" font-size="11" lengthAdjust="spacing" text-decoration="underline" textLength="78" x="274" y="58.7227">PractitionerMn</text></a><text fill="#000000" font-family="sans-serif" font-size="11" lengthAdjust="spacing" textLength="6" x="352" y="58.7227">»</text><text fill="#000000" font-family="sans-serif" font-size="11" lengthAdjust="spacing" textLength="71" x="112" y="71.6777">organization:</text><a href="https://www.hl7.org/fhir/references.html#Reference" target="_top" title="https://www.hl7.org/fhir/references.html#Reference" xlink:actuate="onRequest" xlink:href="https://www.hl7.org/fhir/references.html#Reference" xlink:show="new" xlink:title="https://www.hl7.org/fhir/references.html#Reference" xlink:type="simple"><text fill="#0000FF" font-family="sans-serif" font-size="11" lengthAdjust="spacing" text-decoration="underline" textLength="53" x="186" y="71.6777">Reference</text></a><text fill="#000000" font-family="sans-serif" font-size="11" lengthAdjust="spacing" textLength="37" x="242" y="71.6777">[0..1] «</text><a href="StructureDefinition-mng-core-organization.html" target="_top" title="StructureDefinition-mng-core-organization.html" xlink:actuate="onRequest" xlink:href="StructureDefinition-mng-core-organization.html" xlink:show="new" xlink:title="StructureDefinition-mng-core-organization.html" xlink:type="simple"><text fill="#0000FF" font-family="sans-serif" font-size="11" lengthAdjust="spacing" text-decoration="underline" textLength="86" x="279" y="71.6777">OrganizationMn</text></a><text fill="#000000" font-family="sans-serif" font-size="11" lengthAdjust="spacing" textLength="6" x="365" y="71.6777">»</text><text fill="#000000" font-family="sans-serif" font-size="11" lengthAdjust="spacing" textLength="50" x="112" y="84.6328">specialty:</text><a href="https://www.hl7.org/fhir/datatypes.html#CodeableConcept" target="_top" title="https://www.hl7.org/fhir/datatypes.html#CodeableConcept" xlink:actuate="onRequest" xlink:href="https://www.hl7.org/fhir/datatypes.html#CodeableConcept" xlink:show="new" xlink:title="https://www.hl7.org/fhir/datatypes.html#CodeableConcept" xlink:type="simple"><text fill="#0000FF" font-family="sans-serif" font-size="11" lengthAdjust="spacing" text-decoration="underline" textLength="98" x="165" y="84.6328">CodeableConcept!</text></a><text fill="#000000" font-family="sans-serif" font-size="11" lengthAdjust="spacing" textLength="35" x="266" y="84.6328">[0..*] «</text><a href="https://www.hl7.org/fhir/valueset-c80-practice-codes.html" target="_top" title="https://www.hl7.org/fhir/valueset-c80-practice-codes.html" xlink:actuate="onRequest" xlink:href="https://www.hl7.org/fhir/valueset-c80-practice-codes.html" xlink:show="new" xlink:title="https://www.hl7.org/fhir/valueset-c80-practice-codes.html" xlink:type="simple"><text fill="#0000FF" font-family="sans-serif" font-size="11" lengthAdjust="spacing" text-decoration="underline" textLength="152" x="301" y="84.6328">PracticeSettingCodeValueSet</text></a><text fill="#000000" font-family="sans-serif" font-size="11" lengthAdjust="spacing" textLength="6" x="453" y="84.6328">»</text><text fill="#000000" font-family="sans-serif" font-size="11" lengthAdjust="spacing" textLength="45" x="112" y="97.5879">telecom:</text><a href="https://www.hl7.org/fhir/datatypes.html#ContactPoint" target="_top" title="https://www.hl7.org/fhir/datatypes.html#ContactPoint" xlink:actuate="onRequest" xlink:href="https://www.hl7.org/fhir/datatypes.html#ContactPoint" xlink:show="new" xlink:title="https://www.hl7.org/fhir/datatypes.html#ContactPoint" xlink:type="simple"><text fill="#0000FF" font-family="sans-serif" font-size="11" lengthAdjust="spacing" text-decoration="underline" textLength="69" x="160" y="97.5879">ContactPoint</text></a><text fill="#000000" font-family="sans-serif" font-size="11" lengthAdjust="spacing" textLength="26" x="232" y="97.5879">[0..*]</text><line style="stroke:#000000;stroke-width:1.5;" x1="107" x2="464" y1="103.9082" y2="103.9082"/><!--MD5=[6afcf302c46c7a2bec94f6350007515f]
link PractitionerRoleMn to PractitionerMn--><path codeLine="9" d="M251.56,112.12 C236.51,135.01 218.34,162.63 201.15,188.78 " fill="none" id="PractitionerRoleMn-PractitionerMn" style="stroke:#000000;stroke-width:1.0;"/><text fill="#000000" font-family="sans-serif" font-size="13" lengthAdjust="spacing" textLength="105" x="232.5" y="155.5684">practitioner[0..1]</text><!--MD5=[c2600310807e8504007530625c60b3ed]
link PractitionerRoleMn to OrganizationMn--><path codeLine="10" d="M325.29,112.14 C332.51,121.94 339.86,132.2 346.5,142 C362.27,165.27 378.6,191.47 392.63,214.7 " fill="none" id="PractitionerRoleMn-OrganizationMn" style="stroke:#000000;stroke-width:1.0;"/><text fill="#000000" font-family="sans-serif" font-size="13" lengthAdjust="spacing" textLength="111" x="356.5" y="155.5684">organization[0..1]</text><!--MD5=[3de6cc6344e1e9d87365cd7760bd34bf]
@startuml
hide circle

!include link/all.pinc
!include mng/practitioner.pml
!include mng/organization.pml

!include mng/practitioner-role.pml

PractitionerRoleMn - - PractitionerMn : practitioner[0..1]
PractitionerRoleMn - - OrganizationMn: organization[0..1]
@enduml

@startuml
hide circle































skinparam classBackgroundColor #A5E8E7
skinparam classBorderColor #000000
skinparam ArrowColor #000000
skinparam classFontName OpenSansCondensedLight
skinparam classFontSize 1em
hide circle


class PractitionerMn {
   nationalIdentificationNumber: [[StructureDefinition-mng-dt-identifier.html IdentifierMn]] [0..1]
   passportNumber: [[StructureDefinition-mng-dt-identifier.html IdentifierMn]] [0..1]
   nationality: [[https://www.hl7.org/fhir/datatypes.html#CodeableConcept CodeableConcept!]] [1..*]
   active : [[https://www.hl7.org/fhir/datatypes.html#boolean boolean]] [1..1]
   name : [[StructureDefinition-mng-dt-human-name.html HumanNameMn]] [1..*]
   gender : [[https://www.hl7.org/fhir/datatypes.html#code code]] [1..1] «[[https://www.hl7.org/fhir/valueset-administrative-gender.html AdministrativeGender!]]»
   birthDate : [[https://www.hl7.org/fhir/datatypes.html#date date]] [1..1]
   photo : [[http://hl7.org/fhir/R4/datatypes.html#Attachment Attachment]] [1..1]
   address : [[StructureDefinition-mng-dt-address.html AddressMn]] [1..*]
   telecom : [[StructureDefinition-mng-dt-contact-point.html ContactPoint]] [1..*]
   communication : [[https://www.hl7.org/fhir/datatypes.html#CodeableConcept CodeableConcept!]] [0..*]
}
hide circle


class OrganizationMn {
    identifier: [[StructureDefinition-mng-dt-identifier.html IdentifierMn]] [0..*]
    active: [[https://www.hl7.org/fhir/datatypes.html#boolean boolean]] [0..1]
    type: [[https://www.hl7.org/fhir/datatypes.html#CodeableConcept CodeableConcept!]] [0..*]
    name: [[https://www.hl7.org/fhir/datatypes.html#string string]] [0..1]
    telecom: [[StructureDefinition-mng-dt-contact-point.html ContactPoint]] [0..*]
    address: ​[[StructureDefinition-mng-dt-address.html AddressMn]] [0..*]
    partOf: [[https://www.hl7.org/fhir/references.html#Reference Reference]] [0..1] «[[StructureDefinition-mng-core-organization.html OrganizationMn]]»​
}


hide circle


class PractitionerRoleMn {
    active : [[https://www.hl7.org/fhir/datatypes.html#boolean boolean]] [0..1]
    practitioner: [[https://www.hl7.org/fhir/references.html#Reference Reference]] [0..1] «[[StructureDefinition-mng-core-practitioner.html PractitionerMn]]»
    organization: [[https://www.hl7.org/fhir/references.html#Reference Reference]] [0..1] «[[StructureDefinition-mng-core-organization.html OrganizationMn]]»
    specialty: [[https://www.hl7.org/fhir/datatypes.html#CodeableConcept CodeableConcept!]] [0..*] «[[https://www.hl7.org/fhir/valueset-c80-practice-codes.html PracticeSettingCodeValueSet]]»
    telecom: [[https://www.hl7.org/fhir/datatypes.html#ContactPoint ContactPoint]] [0..*]
}


PractitionerRoleMn - - PractitionerMn : practitioner[0..1]
PractitionerRoleMn - - OrganizationMn: organization[0..1]
@enduml

PlantUML version 1.2021.10(Mon Aug 30 15:43:48 CEST 2021)
(GPL source distribution)
Java Runtime: OpenJDK Runtime Environment
JVM: OpenJDK 64-Bit Server VM
Default Encoding: UTF-8
Language: en
Country: GB
--></g></svg>