<?xml version="1.0" encoding="UTF-8" standalone="no"?><svg xmlns="http://www.w3.org/2000/svg" xmlns:xlink="http://www.w3.org/1999/xlink" contentScriptType="application/ecmascript" contentStyleType="text/css" height="526.7423px" preserveAspectRatio="none" style="width:1000px;height:526px;background:#FFFFFF;" version="1.1" viewBox="0 0 1000 526" width="1000.8104px" zoomAndPan="magnify"><defs><filter height="300%" id="fe3zcotb7tf83" width="300%" x="-1" y="-1"><feGaussianBlur result="blurOut" stdDeviation="1.6207455429497568"/><feColorMatrix in="blurOut" result="blurOut2" type="matrix" values="0 0 0 0 0 0 0 0 0 0 0 0 0 0 0 0 0 0 .4 0"/><feOffset dx="3.2414910858995136" dy="3.2414910858995136" in="blurOut2" result="blurOut3"/><feBlend in="SourceGraphic" in2="blurOut3" mode="normal"/></filter></defs><g><!--MD5=[bcb1ab6a44e0a760a069c883bcab1506]
cluster Clinical--><polygon fill="#FFFFFF" filter="url(#fe3zcotb7tf83)" points="275.5267,72.6337,324.1491,72.6337,329.8217,90.8576,621.5559,90.8576,621.5559,321.4182,275.5267,321.4182,275.5267,72.6337" style="stroke:#000000;stroke-width:1.2155591572123177;"/><line style="stroke:#000000;stroke-width:1.2155591572123177;" x1="275.5267" x2="329.8217" y1="90.8576" y2="90.8576"/><text fill="#000000" font-family="sans-serif" font-size="11.3452" font-weight="bold" lengthAdjust="spacing" textLength="43.7601" x="278.7682" y="85.223">Clinical</text><!--MD5=[4992fcd186140ea19593e0f4ecb79d30]
cluster Pregnancy--><polygon fill="#FFFFFF" filter="url(#fe3zcotb7tf83)" points="654.7812,72.6337,718.8006,72.6337,724.4733,90.8576,987.034,90.8576,987.034,240.3809,654.7812,240.3809,654.7812,72.6337" style="stroke:#000000;stroke-width:1.2155591572123177;"/><line style="stroke:#000000;stroke-width:1.2155591572123177;" x1="654.7812" x2="724.4733" y1="90.8576" y2="90.8576"/><text fill="#000000" font-family="sans-serif" font-size="11.3452" font-weight="bold" lengthAdjust="spacing" textLength="59.1572" x="658.0227" y="85.223">Pregnancy</text><!--MD5=[210d424013b76c02c7eefb711723e561]
cluster SocialHistory--><polygon fill="#FFFFFF" filter="url(#fe3zcotb7tf83)" points="12.966,72.6337,94.8136,72.6337,100.4862,90.8576,243.1118,90.8576,243.1118,159.3436,12.966,159.3436,12.966,72.6337" style="stroke:#000000;stroke-width:1.2155591572123177;"/><line style="stroke:#000000;stroke-width:1.2155591572123177;" x1="12.966" x2="100.4862" y1="90.8576" y2="90.8576"/><text fill="#000000" font-family="sans-serif" font-size="11.3452" font-weight="bold" lengthAdjust="spacing" textLength="76.9854" x="16.2075" y="85.223">SocialHistory</text><!--MD5=[72229ae7d4f987dedf03fc0dcef2de55]
cluster Specialized--><polygon fill="#FFFFFF" filter="url(#fe3zcotb7tf83)" points="610.2107,353.8331,679.9028,353.8331,685.5754,372.057,706.6451,372.057,706.6451,440.5429,610.2107,440.5429,610.2107,353.8331" style="stroke:#000000;stroke-width:1.2155591572123177;"/><line style="stroke:#000000;stroke-width:1.2155591572123177;" x1="610.2107" x2="685.5754" y1="372.057" y2="372.057"/><text fill="#000000" font-family="sans-serif" font-size="11.3452" font-weight="bold" lengthAdjust="spacing" textLength="64.8298" x="613.4522" y="366.4223">Specialized</text><!--MD5=[114f4823940f317c08f5bedd633c9afd]
cluster Entities--><polygon fill="#FFFFFF" filter="url(#fe3zcotb7tf83)" points="367.9092,353.8331,417.342,353.8331,423.0146,372.057,577.7958,372.057,577.7958,521.5802,367.9092,521.5802,367.9092,353.8331" style="stroke:#000000;stroke-width:1.2155591572123177;"/><line style="stroke:#000000;stroke-width:1.2155591572123177;" x1="367.9092" x2="423.0146" y1="372.057" y2="372.057"/><text fill="#000000" font-family="sans-serif" font-size="11.3452" font-weight="bold" lengthAdjust="spacing" textLength="44.5705" x="371.1507" y="366.4223">Entities</text><!--MD5=[f1a9144029453156c6878f92b753144a]
class AllergyIntolerance--><rect codeLine="10" fill="#FEFECE" filter="url(#fe3zcotb7tf83)" height="32.5225" id="AllergyIntolerance" style="stroke:#A80036;stroke-width:1.2155591572123177;" width="87.5203" x="294.9757" y="107.4797"/><text fill="#000000" font-family="sans-serif" font-size="9.7245" lengthAdjust="spacing" textLength="82.658" x="297.4068" y="120.9332">AllergyIntolerance</text><line style="stroke:#A80036;stroke-width:1.2155591572123177;" x1="295.7861" x2="381.6856" y1="127.0363" y2="127.0363"/><line style="stroke:#A80036;stroke-width:1.2155591572123177;" x1="295.7861" x2="381.6856" y1="133.5193" y2="133.5193"/><!--MD5=[a030fa97ffb865708cae79f6847e8968]
class Condition--><rect codeLine="11" fill="#FEFECE" filter="url(#fe3zcotb7tf83)" height="32.5225" id="Condition" style="stroke:#A80036;stroke-width:1.2155591572123177;" width="48.6224" x="410.859" y="107.4797"/><text fill="#000000" font-family="sans-serif" font-size="9.7245" lengthAdjust="spacing" textLength="43.7601" x="413.2901" y="120.9332">Condition</text><line style="stroke:#A80036;stroke-width:1.2155591572123177;" x1="411.6694" x2="458.671" y1="127.0363" y2="127.0363"/><line style="stroke:#A80036;stroke-width:1.2155591572123177;" x1="411.6694" x2="458.671" y1="133.5193" y2="133.5193"/><!--MD5=[979e1b474622dfe75cc2a5acd60ad50b]
class DeviceUseStatement--><rect codeLine="13" fill="#FEFECE" filter="url(#fe3zcotb7tf83)" height="32.5225" id="DeviceUseStatement" style="stroke:#A80036;stroke-width:1.2155591572123177;" width="98.8655" x="487.8444" y="107.4797"/><text fill="#000000" font-family="sans-serif" font-size="9.7245" lengthAdjust="spacing" textLength="94.0032" x="490.2755" y="120.9332">DeviceUseStatement</text><line style="stroke:#A80036;stroke-width:1.2155591572123177;" x1="488.6548" x2="585.8995" y1="127.0363" y2="127.0363"/><line style="stroke:#A80036;stroke-width:1.2155591572123177;" x1="488.6548" x2="585.8995" y1="133.5193" y2="133.5193"/><!--MD5=[181c2720b9794936658bc7f80f7be5f7]
class ImagingStudy--><rect codeLine="14" fill="#FEFECE" filter="url(#fe3zcotb7tf83)" height="32.5225" id="ImagingStudy" style="stroke:#A80036;stroke-width:1.2155591572123177;" width="66.4506" x="309.5624" y="188.517"/><text fill="#000000" font-family="sans-serif" font-size="9.7245" lengthAdjust="spacing" textLength="61.5883" x="311.9935" y="201.9705">ImagingStudy</text><line style="stroke:#A80036;stroke-width:1.2155591572123177;" x1="310.3728" x2="375.2026" y1="208.0736" y2="208.0736"/><line style="stroke:#A80036;stroke-width:1.2155591572123177;" x1="310.3728" x2="375.2026" y1="214.5566" y2="214.5566"/><!--MD5=[e76493798d81cbee75a9ae84aab9920d]
class Immunization--><rect codeLine="15" fill="#FEFECE" filter="url(#fe3zcotb7tf83)" height="32.5225" id="Immunization" style="stroke:#A80036;stroke-width:1.2155591572123177;" width="67.2609" x="404.7812" y="188.517"/><text fill="#000000" font-family="sans-serif" font-size="9.7245" lengthAdjust="spacing" textLength="62.3987" x="407.2123" y="201.9705">Immunization</text><line style="stroke:#A80036;stroke-width:1.2155591572123177;" x1="405.5916" x2="471.2318" y1="208.0736" y2="208.0736"/><line style="stroke:#A80036;stroke-width:1.2155591572123177;" x1="405.5916" x2="471.2318" y1="214.5566" y2="214.5566"/><!--MD5=[0a3f526810f604578599cbebd4e0cfb5]
class Medication--><rect codeLine="16" fill="#FEFECE" filter="url(#fe3zcotb7tf83)" height="32.5225" id="Medication" style="stroke:#A80036;stroke-width:1.2155591572123177;" width="55.1053" x="500.8104" y="188.517"/><text fill="#000000" font-family="sans-serif" font-size="9.7245" lengthAdjust="spacing" textLength="50.2431" x="503.2415" y="201.9705">Medication</text><line style="stroke:#A80036;stroke-width:1.2155591572123177;" x1="501.6207" x2="555.1053" y1="208.0736" y2="208.0736"/><line style="stroke:#A80036;stroke-width:1.2155591572123177;" x1="501.6207" x2="555.1053" y1="214.5566" y2="214.5566"/><!--MD5=[26df59e6d290f1279cec908f1e9a1b5f]
class Observation--><rect codeLine="18" fill="#FEFECE" filter="url(#fe3zcotb7tf83)" height="32.5225" id="Observation" style="stroke:#A80036;stroke-width:1.2155591572123177;" width="60.778" x="319.6921" y="269.5543"/><text fill="#000000" font-family="sans-serif" font-size="9.7245" lengthAdjust="spacing" textLength="55.9157" x="322.1232" y="283.0077">Observation</text><line style="stroke:#A80036;stroke-width:1.2155591572123177;" x1="320.5024" x2="379.6596" y1="289.1109" y2="289.1109"/><line style="stroke:#A80036;stroke-width:1.2155591572123177;" x1="320.5024" x2="379.6596" y1="295.5939" y2="295.5939"/><!--MD5=[df3fc242ef91a47d9d4eb0969d2a8168]
class Procedure--><rect codeLine="19" fill="#FEFECE" filter="url(#fe3zcotb7tf83)" height="32.5225" id="Procedure" style="stroke:#A80036;stroke-width:1.2155591572123177;" width="52.6742" x="408.8331" y="269.5543"/><text fill="#000000" font-family="sans-serif" font-size="9.7245" lengthAdjust="spacing" textLength="47.812" x="411.2642" y="283.0077">Procedure</text><line style="stroke:#A80036;stroke-width:1.2155591572123177;" x1="409.6434" x2="460.6969" y1="289.1109" y2="289.1109"/><line style="stroke:#A80036;stroke-width:1.2155591572123177;" x1="409.6434" x2="460.6969" y1="295.5939" y2="295.5939"/><!--MD5=[8da4179ce6e2ba23dd17518d4f077be4]
class LaboratoryResult--><rect codeLine="20" fill="#FEFECE" filter="url(#fe3zcotb7tf83)" height="32.5225" id="LaboratoryResult" style="stroke:#A80036;stroke-width:1.2155591572123177;" width="83.4684" x="489.8703" y="269.5543"/><text fill="#000000" font-family="sans-serif" font-size="9.7245" lengthAdjust="spacing" textLength="78.6062" x="492.3015" y="283.0077">LaboratoryResult</text><line style="stroke:#A80036;stroke-width:1.2155591572123177;" x1="490.6807" x2="572.5284" y1="289.1109" y2="289.1109"/><line style="stroke:#A80036;stroke-width:1.2155591572123177;" x1="490.6807" x2="572.5284" y1="295.5939" y2="295.5939"/><!--MD5=[bbc4c210ea811da109a3757053a77a2f]
class PregnancyExpectedDeliveryDate--><rect codeLine="24" fill="#FEFECE" filter="url(#fe3zcotb7tf83)" height="32.5225" id="PregnancyExpectedDeliveryDate" style="stroke:#A80036;stroke-width:1.2155591572123177;" width="155.5916" x="674.2301" y="107.4797"/><text fill="#000000" font-family="sans-serif" font-size="9.7245" lengthAdjust="spacing" textLength="150.7293" x="676.6613" y="120.9332">PregnancyExpectedDeliveryDate</text><line style="stroke:#A80036;stroke-width:1.2155591572123177;" x1="675.0405" x2="829.0113" y1="127.0363" y2="127.0363"/><line style="stroke:#A80036;stroke-width:1.2155591572123177;" x1="675.0405" x2="829.0113" y1="133.5193" y2="133.5193"/><!--MD5=[a3d8b0757010bc938d95582c2c43167b]
class PregnancyOutcome--><rect codeLine="25" fill="#FEFECE" filter="url(#fe3zcotb7tf83)" height="32.5225" id="PregnancyOutcome" style="stroke:#A80036;stroke-width:1.2155591572123177;" width="94.0032" x="858.1848" y="107.4797"/><text fill="#000000" font-family="sans-serif" font-size="9.7245" lengthAdjust="spacing" textLength="89.141" x="860.6159" y="120.9332">PregnancyOutcome</text><line style="stroke:#A80036;stroke-width:1.2155591572123177;" x1="858.9951" x2="951.3776" y1="127.0363" y2="127.0363"/><line style="stroke:#A80036;stroke-width:1.2155591572123177;" x1="858.9951" x2="951.3776" y1="133.5193" y2="133.5193"/><!--MD5=[b886da55dec2a43269367b4fd2ac0db2]
class PregnancyStatus--><rect codeLine="26" fill="#FEFECE" filter="url(#fe3zcotb7tf83)" height="32.5225" id="PregnancyStatus" style="stroke:#A80036;stroke-width:1.2155591572123177;" width="80.2269" x="711.9125" y="188.517"/><text fill="#000000" font-family="sans-serif" font-size="9.7245" lengthAdjust="spacing" textLength="75.3647" x="714.3436" y="201.9705">PregnancyStatus</text><line style="stroke:#A80036;stroke-width:1.2155591572123177;" x1="712.7229" x2="791.329" y1="208.0736" y2="208.0736"/><line style="stroke:#A80036;stroke-width:1.2155591572123177;" x1="712.7229" x2="791.329" y1="214.5566" y2="214.5566"/><!--MD5=[5ca66ed48ebc056570d5f31330e61d60]
class AlcoholHistory--><rect codeLine="30" fill="#FEFECE" filter="url(#fe3zcotb7tf83)" height="32.5225" id="AlcoholHistory" style="stroke:#A80036;stroke-width:1.2155591572123177;" width="70.5024" x="152.7553" y="107.4797"/><text fill="#000000" font-family="sans-serif" font-size="9.7245" lengthAdjust="spacing" textLength="65.6402" x="155.1864" y="120.9332">AlcoholHistory</text><line style="stroke:#A80036;stroke-width:1.2155591572123177;" x1="153.5656" x2="222.4473" y1="127.0363" y2="127.0363"/><line style="stroke:#A80036;stroke-width:1.2155591572123177;" x1="153.5656" x2="222.4473" y1="133.5193" y2="133.5193"/><!--MD5=[7d0906306ad8d1d10c254b8fa4df3645]
class SmokingHistory--><rect codeLine="31" fill="#FEFECE" filter="url(#fe3zcotb7tf83)" height="32.5225" id="SmokingHistory" style="stroke:#A80036;stroke-width:1.2155591572123177;" width="76.175" x="47.812" y="107.4797"/><text fill="#000000" font-family="sans-serif" font-size="9.7245" lengthAdjust="spacing" textLength="71.3128" x="50.2431" y="120.9332">SmokingHistory</text><line style="stroke:#A80036;stroke-width:1.2155591572123177;" x1="48.6224" x2="123.1767" y1="127.0363" y2="127.0363"/><line style="stroke:#A80036;stroke-width:1.2155591572123177;" x1="48.6224" x2="123.1767" y1="133.5193" y2="133.5193"/><!--MD5=[41a810bb8b0fdc0d19f320c9a7e75908]
class Disease--><rect codeLine="35" fill="#FEFECE" filter="url(#fe3zcotb7tf83)" height="32.5225" id="Disease" style="stroke:#A80036;stroke-width:1.2155591572123177;" width="41.329" x="645.4619" y="388.6791"/><text fill="#000000" font-family="sans-serif" font-size="9.7245" lengthAdjust="spacing" textLength="36.4668" x="647.893" y="402.1325">Disease</text><line style="stroke:#A80036;stroke-width:1.2155591572123177;" x1="646.2723" x2="685.9806" y1="408.2357" y2="408.2357"/><line style="stroke:#A80036;stroke-width:1.2155591572123177;" x1="646.2723" x2="685.9806" y1="414.7186" y2="414.7186"/><!--MD5=[9dd4eaa2771a2ff8dbee15cc1e732cab]
class Patient--><rect codeLine="39" fill="#FEFECE" filter="url(#fe3zcotb7tf83)" height="32.5225" id="Patient" style="stroke:#A80036;stroke-width:1.2155591572123177;" width="36.4668" x="392.6256" y="388.6791"/><text fill="#000000" font-family="sans-serif" font-size="9.7245" lengthAdjust="spacing" textLength="31.6045" x="395.0567" y="402.1325">Patient</text><line style="stroke:#A80036;stroke-width:1.2155591572123177;" x1="393.436" x2="428.282" y1="408.2357" y2="408.2357"/><line style="stroke:#A80036;stroke-width:1.2155591572123177;" x1="393.436" x2="428.282" y1="414.7186" y2="414.7186"/><!--MD5=[86c7c362de55a38b660185a1328fe18d]
class Organization--><rect codeLine="40" fill="#FEFECE" filter="url(#fe3zcotb7tf83)" height="32.5225" id="Organization" style="stroke:#A80036;stroke-width:1.2155591572123177;" width="64.0194" x="457.4554" y="388.6791"/><text fill="#000000" font-family="sans-serif" font-size="9.7245" lengthAdjust="spacing" textLength="59.1572" x="459.8865" y="402.1325">Organization</text><line style="stroke:#A80036;stroke-width:1.2155591572123177;" x1="458.2658" x2="520.6645" y1="408.2357" y2="408.2357"/><line style="stroke:#A80036;stroke-width:1.2155591572123177;" x1="458.2658" x2="520.6645" y1="414.7186" y2="414.7186"/><!--MD5=[2edc31ff762501c9cec4b1b863028f54]
class Practitioner--><rect codeLine="41" fill="#FEFECE" filter="url(#fe3zcotb7tf83)" height="32.5225" id="Practitioner" style="stroke:#A80036;stroke-width:1.2155591572123177;" width="57.5365" x="387.7634" y="469.7164"/><text fill="#000000" font-family="sans-serif" font-size="9.7245" lengthAdjust="spacing" textLength="52.6742" x="390.1945" y="483.1698">Practitioner</text><line style="stroke:#A80036;stroke-width:1.2155591572123177;" x1="388.5737" x2="444.4895" y1="489.2729" y2="489.2729"/><line style="stroke:#A80036;stroke-width:1.2155591572123177;" x1="388.5737" x2="444.4895" y1="495.7559" y2="495.7559"/><!--MD5=[7b9c16a3d4995a55b032296f71ab1184]
class PractitionerRole--><rect codeLine="42" fill="#FEFECE" filter="url(#fe3zcotb7tf83)" height="32.5225" id="PractitionerRole" style="stroke:#A80036;stroke-width:1.2155591572123177;" width="77.7958" x="474.0681" y="469.7164"/><text fill="#000000" font-family="sans-serif" font-size="9.7245" lengthAdjust="spacing" textLength="72.9335" x="476.4992" y="483.1698">PractitionerRole</text><line style="stroke:#A80036;stroke-width:1.2155591572123177;" x1="474.8784" x2="551.0535" y1="489.2729" y2="489.2729"/><line style="stroke:#A80036;stroke-width:1.2155591572123177;" x1="474.8784" x2="551.0535" y1="495.7559" y2="495.7559"/><!--MD5=[eddfcd2153580558cd00dfae8d3f2810]
link SocialHistory to Clinical--><path d="M23.8584,72.4883 C23.8994,72.3401 23.9408,72.192 23.9824,72.0439 C24.1491,71.4516 24.3211,70.8603 24.4987,70.2704 C25.919,65.5506 27.6923,60.9169 29.9006,56.5633 C34.3173,47.8561 40.4741,40.2694 49.0276,35.3566 C100.7131,5.6645 533.8088,5.6645 585.4943,35.3566 C594.0478,40.2694 600.2046,47.8561 604.6213,56.5633 C606.8296,60.9169 608.6029,65.5506 610.0232,70.2704 C610.2008,70.8603 610.3728,71.4516 610.5395,72.0439 C610.5811,72.192 610.6225,92.8407 610.6635,92.9889 " fill="none" id="SocialHistory-to-Clinical" style="stroke:#A80036;stroke-width:0.8103727714748784;"/><polygon fill="#A80036" points="610.6635,72.4883,611.8427,64.5947,609.583,68.5832,605.5944,66.3235,610.6635,72.4883" style="stroke:#A80036;stroke-width:0.8103727714748784;"/><!--MD5=[c5b4cb4154220c0ea210382ebfb747a7]
link Pregnancy to Clinical--><path d="M976.1416,72.4883 C976.1006,72.3401 976.0592,72.192 976.0176,72.0439 C975.8509,71.4516 975.6789,70.8603 975.5013,70.2704 C974.081,65.5506 972.3077,60.9169 970.0994,56.5633 C965.6827,47.8561 959.5259,40.2694 950.9724,35.3566 C897.8768,4.8622 729.5948,6.7747 675.4457,35.3566 C655.4052,45.9319 640.7536,66.4891 630.9066,85.1124 C628.4448,89.7683 626.2834,94.3033 624.413,98.5312 C623.4779,100.6452 622.6155,102.6824 621.8248,104.6196 C621.7753,104.7407 621.7262,104.8613 621.6773,104.9816 " fill="none" id="Pregnancy-to-Clinical" style="stroke:#A80036;stroke-width:0.8103727714748784;"/><polygon fill="#A80036" points="621.6773,104.9816,627.4253,99.4444,623.2022,101.2277,621.419,97.0046,621.6773,104.9816" style="stroke:#A80036;stroke-width:0.8103727714748784;"/><!--MD5=[9ebb361285756052e31cdc46521776bd]
link Clinical to Entities--><path d="M602.4556,321.6141 C602.1653,323.0495 601.869,324.4799 601.5664,325.9048 C600.9614,328.7546 600.3315,331.5825 599.6759,334.3841 C595.9846,350.158 589.2139,367.0016 583.2131,380.1783 C581.7129,383.4724 580.2608,386.5374 578.917,389.2992 C578.5811,389.9897 578.2519,390.6612 577.9304,391.3126 C577.8902,391.394 577.8501,391.4751 577.8102,391.5559 " fill="none" id="Clinical-to-Entities" style="stroke:#A80036;stroke-width:0.8103727714748784;"/><polygon fill="#A80036" points="577.8102,391.5559,583.9482,386.4544,579.6059,387.9237,578.1367,383.5813,577.8102,391.5559" style="stroke:#A80036;stroke-width:0.8103727714748784;"/><!--MD5=[f61a29ed5b934a3bd0b8bd3510f6b2c6]
link Specialized to Entities--><path d="M610.0616,404.9975 C609.8288,405.0007 609.5961,405.0038 609.3634,405.0068 C608.8979,405.0129 608.4325,405.0187 607.967,405.0243 C607.0361,405.0354 606.1052,405.0453 605.1744,405.0542 C601.4508,405.0896 597.7274,405.1074 594.0043,405.1074 C590.2811,405.1074 586.5582,405.0896 582.8357,405.0542 C581.905,405.0453 580.9744,405.0354 580.0439,405.0243 C579.5786,405.0187 579.1133,405.0129 578.648,405.0068 C578.4154,405.0038 578.1827,405.0007 577.9501,404.9975 C577.921,404.9971 577.8919,404.9967 577.8629,404.9963 " fill="none" id="Specialized-to-Entities" style="stroke:#A80036;stroke-width:0.8103727714748784;"/><polygon fill="#A80036" points="577.8629,404.9963,585.1109,408.3379,581.9143,405.0521,585.2001,401.8555,577.8629,404.9963" style="stroke:#A80036;stroke-width:0.8103727714748784;"/><!--MD5=[f61a29ed5b934a3bd0b8bd3510f6b2c6]
link Specialized to Entities--><path d="M610.0616,404.7756 C609.8288,404.7724 609.5961,404.7693 609.3634,404.7663 C608.8979,404.7602 608.4325,404.7544 607.967,404.7488 C607.0361,404.7377 606.1052,404.7278 605.1744,404.7189 C601.4508,404.6834 597.7274,404.6657 594.0043,404.6657 C590.2811,404.6657 586.5582,404.6834 582.8357,404.7189 C581.905,404.7278 580.9744,404.7377 580.0439,404.7488 C579.5786,404.7544 579.1133,404.7602 578.648,404.7663 C578.4154,404.7693 578.1827,404.7724 577.9501,404.7756 C577.921,404.776 577.8919,404.7764 577.8629,404.7768 " fill="none" id="Specialized-to-Entities-1" style="stroke:#A80036;stroke-width:0.8103727714748784;"/><polygon fill="#A80036" points="577.8629,404.7768,585.2001,407.9176,581.9143,404.721,585.1109,401.4352,577.8629,404.7768" style="stroke:#A80036;stroke-width:0.8103727714748784;"/><!--MD5=[741d9a06324e7094b3a49cca57aea797]
link SocialHistory to Entities--><path d="M27.622,159.5265 C27.6559,159.6063 27.6899,159.6861 27.7241,159.7658 C27.9973,160.4036 28.2793,161.0384 28.5704,161.669 C29.1525,162.9301 29.7708,164.1743 30.4276,165.3923 C31.741,167.8282 33.2081,170.159 34.846,172.3096 C114.4489,276.8071 156.5802,295.3566 282.0097,334.3841 C297.0178,339.0519 553.282,330.2026 564.8298,340.8671 C567.342,343.1878 569.3408,345.8733 570.9138,348.8012 C571.7003,350.2652 572.3803,351.7897 572.9649,353.3596 C573.0014,353.4577 573.0375,353.556 573.0733,353.6545 " fill="none" id="SocialHistory-to-Entities" style="stroke:#A80036;stroke-width:0.8103727714748784;"/><polygon fill="#A80036" points="573.0733,353.6545,573.6285,345.6926,571.6892,349.8463,567.5355,347.9071,573.0733,353.6545" style="stroke:#A80036;stroke-width:0.8103727714748784;"/><!--MD5=[d92ef2892436d28c3f4b340ce754469b]
link Pregnancy to Entities--><path d="M987.0511,169.0907 C987.1344,170.7083 987.2015,172.3491 987.2498,174.0093 C988.0227,200.5733 983.9992,232.1191 965.154,253.3468 C961.7261,257.2123 607.7877,337.6742 603.7277,340.8671 C591.7139,350.3323 583.7338,365.4579 578.6983,378.5393 C578.541,378.9481 578.3865,379.3549 578.2349,379.7595 C578.159,379.9617 578.0839,380.1635 578.0095,380.3646 C577.9723,380.4652 577.9353,380.5656 577.8985,380.6659 " fill="none" id="Pregnancy-to-Entities" style="stroke:#A80036;stroke-width:0.8103727714748784;"/><polygon fill="#A80036" points="577.8985,380.6659,583.4567,374.9382,579.2961,376.8627,577.3716,372.702,577.8985,380.6659" style="stroke:#A80036;stroke-width:0.8103727714748784;"/><!--MD5=[705acd2344f046da6b36d80172ea91a0]
link AllergyIntolerance to Condition--><!--MD5=[f0efea3d20a9dafe812f3904157b2f4d]
link Condition to DeviceUseStatement--><!--MD5=[9f03717eb66a742e22f694fbddc97251]
link AllergyIntolerance to ImagingStudy--><!--MD5=[204c8f7376efd15967f4fe4a40851b26]
link ImagingStudy to Immunization--><!--MD5=[67a3a93c26b88e5c1dc858b9055c8e23]
link Immunization to Medication--><!--MD5=[96115ce546cc72f20561a88b85a40267]
link ImagingStudy to Observation--><!--MD5=[7b692efcaead6f3a14a587f6ff61b91d]
link Observation to Procedure--><!--MD5=[34467b11c203266666c64bad148e8f7e]
link Procedure to LaboratoryResult--><!--MD5=[1e3b92ad3b0c2e55639152474fa10242]
link PregnancyExpectedDeliveryDate to PregnancyOutcome--><!--MD5=[b5b92e3a76c849f04743d20db34fa95d]
link PregnancyExpectedDeliveryDate to PregnancyStatus--><!--MD5=[8eace1c69e7436da38eeea78b736ba56]
link Patient to Organization--><!--MD5=[b2aa9f06a082dc3a68d5bcca412aedbe]
link Patient to Practitioner--><!--MD5=[1726c1c67d9c978c769f36137250624d]
link Practitioner to PractitionerRole--><!--MD5=[a040ada2c3b0c96318ec46bbbad42f70]
link DeviceUseStatement to PregnancyExpectedDeliveryDate--><!--MD5=[8e3c36ae85f2f8b456f16ee0ae96ecee]
link Observation to Patient--><!--MD5=[764ac171c963fe5f744bf122d00d7468]
@startuml
hide circle
' left to right direction
' top to bottom direction
' !include link/all.pinc
scale 1000 width



package Clinical <<Folder>> {
    class AllergyIntolerance
    class Condition

    class DeviceUseStatement
    class ImagingStudy
    class Immunization
    class Medication

    class Observation
    class Procedure
    class LaboratoryResult
}

package Pregnancy <<Folder>>  {
    class PregnancyExpectedDeliveryDate
    class PregnancyOutcome
    class PregnancyStatus
}

package SocialHistory <<Folder>>  {
    class AlcoholHistory
    class SmokingHistory
}

package Specialized <<Folder>>  {
    class Disease
}

package Entities <<Folder>> {
    class Patient
    class Organization
    class Practitioner
    class PractitionerRole
}

SocialHistory -> Clinical
Pregnancy -> Clinical
Clinical -> Entities
Specialized -> Entities
SocialHistory -> Entities
Specialized -> Entities
Pregnancy -> Entities
' Pregnancy -[Hidden]> Clinical
' Clinical -[Hidden]> Entities
' Clinical -[Hidden]> DataTypes
' Clinical -[Hidden]> Extensions
'Pregnancy -[Hidden]> BaseResources
'BaseResources -[Hidden]> DataTypes
'BaseResources -[Hidden]> Extensions
'
'AddressMn -> Subdistrict
'HumanName -> FamilyInitials
'HumanName -> ClanName
'Disease -> DiseaseCategory
'
'LaboratoryResult -|> Observation
'PregnancyExpectedDeliveryDate -|> Observation
'PregnancyOutcome -|> Observation
'PregnancyStatus -|> Observation
'PregnancyStatus -|> Observation
'SmokingHistory -|> Observation
'
'Patient -|> AddressMn
'Practitioner -|> AddressMn
'Organization -|> AddressMn

@enduml

@startuml
hide circle
scale 1000 width



package Clinical <<Folder>> {
    class AllergyIntolerance
    class Condition

    class DeviceUseStatement
    class ImagingStudy
    class Immunization
    class Medication

    class Observation
    class Procedure
    class LaboratoryResult
}

package Pregnancy <<Folder>>  {
    class PregnancyExpectedDeliveryDate
    class PregnancyOutcome
    class PregnancyStatus
}

package SocialHistory <<Folder>>  {
    class AlcoholHistory
    class SmokingHistory
}

package Specialized <<Folder>>  {
    class Disease
}

package Entities <<Folder>> {
    class Patient
    class Organization
    class Practitioner
    class PractitionerRole
}

SocialHistory -> Clinical
Pregnancy -> Clinical
Clinical -> Entities
Specialized -> Entities
SocialHistory -> Entities
Specialized -> Entities
Pregnancy -> Entities

@enduml

PlantUML version 1.2021.10(Mon Aug 30 15:43:48 CEST 2021)
(GPL source distribution)
Java Runtime: OpenJDK Runtime Environment
JVM: OpenJDK 64-Bit Server VM
Default Encoding: UTF-8
Language: en
Country: GB
--></g></svg>