<?xml version="1.0" encoding="UTF-8"?>
<sch:schema xmlns:sch="http://purl.oclc.org/dsdl/schematron" queryBinding="xslt2">
  <sch:ns prefix="f" uri="http://hl7.org/fhir"/>
  <sch:ns prefix="h" uri="http://www.w3.org/1999/xhtml"/>
  <!-- 
    This file contains just the constraints for the profile ЭрүүлМэндийнБайдалMн
    It includes the base constraints for the resource as well.
    Because of the way that schematrons and containment work, 
    you may need to use this schematron fragment to build a, 
    single schematron that validates contained resources (if you have any) 
  -->
  <sch:pattern>
    <sch:title>f:Condition</sch:title>
    <sch:rule context="f:Condition">
      <sch:assert test="count(f:extension[@url = 'resolution']) &lt;= 1">extension with URL = 'resolution': maximum cardinality of 'extension' is 1</sch:assert>
    </sch:rule>
  </sch:pattern>
  <sch:pattern>
    <sch:title>Condition</sch:title>
    <sch:rule context="f:Condition">
      <sch:assert test="exists(f:clinicalStatus) or exists(f:verificationStatus/f:coding/f:code/@value='entered-in-error') or not(exists(category[@value='problem-list-item']))">Condition.clinicalStatus SHALL be present if verificationStatus is not entered-in-error and category is problem-list-item (inherited)</sch:assert>
      <sch:assert test="not(exists(*[starts-with(local-name(.), 'abatement')])) or exists(f:clinicalStatus/f:coding[f:system/@value='http://terminology.hl7.org/CodeSystem/condition-clinical' and f:code/@value=('resolved', 'remission', 'inactive')])">If condition is abated, then clinicalStatus must be either inactive, resolved, or remission (inherited)</sch:assert>
      <sch:assert test="not(exists(f:verificationStatus/f:coding[f:system/@value='http://terminology.hl7.org/CodeSystem/condition-ver-status' and f:code/@value='entered-in-error'])) or not(exists(f:clinicalStatus))">Condition.clinicalStatus SHALL NOT be present if verification Status is entered-in-error (inherited)</sch:assert>
      <sch:assert test="not(parent::f:contained and f:contained)">If the resource is contained in another resource, it SHALL NOT contain nested Resources (inherited)</sch:assert>
      <sch:assert test="not(exists(for $id in f:contained/*/f:id/@value return $contained[not(parent::*/descendant::f:reference/@value=concat('#', $contained/*/id/@value) or descendant::f:reference[@value='#'])]))">If the resource is contained in another resource, it SHALL be referred to from elsewhere in the resource or SHALL refer to the containing resource (inherited)</sch:assert>
      <sch:assert test="not(exists(f:contained/*/f:meta/f:versionId)) and not(exists(f:contained/*/f:meta/f:lastUpdated))">If a resource is contained in another resource, it SHALL NOT have a meta.versionId or a meta.lastUpdated (inherited)</sch:assert>
      <sch:assert test="not(exists(f:contained/*/f:meta/f:security))">If a resource is contained in another resource, it SHALL NOT have a security label (inherited)</sch:assert>
      <sch:assert test="exists(f:text/h:div)">A resource should have narrative for robust management (inherited)</sch:assert>
    </sch:rule>
  </sch:pattern>
  <sch:pattern>
    <sch:title>Condition.meta</sch:title>
    <sch:rule context="f:Condition/f:meta">
      <sch:assert test="@value|f:*|h:div">All FHIR elements must have a @value or children (inherited)</sch:assert>
    </sch:rule>
  </sch:pattern>
  <sch:pattern>
    <sch:title>Condition.implicitRules</sch:title>
    <sch:rule context="f:Condition/f:implicitRules">
      <sch:assert test="@value|f:*|h:div">All FHIR elements must have a @value or children (inherited)</sch:assert>
    </sch:rule>
  </sch:pattern>
  <sch:pattern>
    <sch:title>Condition.language</sch:title>
    <sch:rule context="f:Condition/f:language">
      <sch:assert test="@value|f:*|h:div">All FHIR elements must have a @value or children (inherited)</sch:assert>
    </sch:rule>
  </sch:pattern>
  <sch:pattern>
    <sch:title>Condition.text</sch:title>
    <sch:rule context="f:Condition/f:text">
      <sch:assert test="@value|f:*|h:div">All FHIR elements must have a @value or children (inherited)</sch:assert>
    </sch:rule>
  </sch:pattern>
  <sch:pattern>
    <sch:title>Condition.extension</sch:title>
    <sch:rule context="f:Condition/f:extension">
      <sch:assert test="@value|f:*|h:div">All FHIR elements must have a @value or children (inherited)</sch:assert>
      <sch:assert test="exists(f:extension)!=exists(f:*[starts-with(local-name(.), &quot;value&quot;)])">Must have either extensions or value[x], not both (inherited)</sch:assert>
      <sch:assert test="@value|f:*|h:div">All FHIR elements must have a @value or children (inherited)</sch:assert>
      <sch:assert test="exists(f:extension)!=exists(f:*[starts-with(local-name(.), &quot;value&quot;)])">Must have either extensions or value[x], not both (inherited)</sch:assert>
    </sch:rule>
  </sch:pattern>
  <sch:pattern>
    <sch:title>f:Condition/f:extension</sch:title>
    <sch:rule context="f:Condition/f:extension">
      <sch:assert test="count(f:id) &lt;= 1">id: maximum cardinality of 'id' is 1</sch:assert>
      <sch:assert test="count(f:url) &gt;= 1">url: minimum cardinality of 'url' is 1</sch:assert>
      <sch:assert test="count(f:url) &lt;= 1">url: maximum cardinality of 'url' is 1</sch:assert>
    </sch:rule>
  </sch:pattern>
  <sch:pattern>
    <sch:title>Condition.extension.extension</sch:title>
    <sch:rule context="f:Condition/f:extension/f:extension">
      <sch:assert test="@value|f:*|h:div">All FHIR elements must have a @value or children (inherited)</sch:assert>
      <sch:assert test="exists(f:extension)!=exists(f:*[starts-with(local-name(.), &quot;value&quot;)])">Must have either extensions or value[x], not both (inherited)</sch:assert>
    </sch:rule>
  </sch:pattern>
  <sch:pattern>
    <sch:title>Condition.extension.value[x] 1</sch:title>
    <sch:rule context="f:Condition/f:extension/f:value[x]">
      <sch:assert test="@value|f:*|h:div">All FHIR elements must have a @value or children (inherited)</sch:assert>
      <sch:assert test="@value|f:*|h:div">All FHIR elements must have a @value or children (inherited)</sch:assert>
    </sch:rule>
  </sch:pattern>
  <sch:pattern>
    <sch:title>Condition.modifierExtension</sch:title>
    <sch:rule context="f:Condition/f:modifierExtension">
      <sch:assert test="@value|f:*|h:div">All FHIR elements must have a @value or children (inherited)</sch:assert>
      <sch:assert test="exists(f:extension)!=exists(f:*[starts-with(local-name(.), &quot;value&quot;)])">Must have either extensions or value[x], not both (inherited)</sch:assert>
    </sch:rule>
  </sch:pattern>
  <sch:pattern>
    <sch:title>Condition.identifier</sch:title>
    <sch:rule context="f:Condition/f:identifier">
      <sch:assert test="@value|f:*|h:div">All FHIR elements must have a @value or children (inherited)</sch:assert>
    </sch:rule>
  </sch:pattern>
  <sch:pattern>
    <sch:title>Condition.clinicalStatus</sch:title>
    <sch:rule context="f:Condition/f:clinicalStatus">
      <sch:assert test="@value|f:*|h:div">All FHIR elements must have a @value or children (inherited)</sch:assert>
    </sch:rule>
  </sch:pattern>
  <sch:pattern>
    <sch:title>Condition.verificationStatus</sch:title>
    <sch:rule context="f:Condition/f:verificationStatus">
      <sch:assert test="@value|f:*|h:div">All FHIR elements must have a @value or children (inherited)</sch:assert>
    </sch:rule>
  </sch:pattern>
  <sch:pattern>
    <sch:title>Condition.category</sch:title>
    <sch:rule context="f:Condition/f:category">
      <sch:assert test="@value|f:*|h:div">All FHIR elements must have a @value or children (inherited)</sch:assert>
    </sch:rule>
  </sch:pattern>
  <sch:pattern>
    <sch:title>Condition.severity</sch:title>
    <sch:rule context="f:Condition/f:severity">
      <sch:assert test="@value|f:*|h:div">All FHIR elements must have a @value or children (inherited)</sch:assert>
    </sch:rule>
  </sch:pattern>
  <sch:pattern>
    <sch:title>Condition.code</sch:title>
    <sch:rule context="f:Condition/f:code">
      <sch:assert test="@value|f:*|h:div">All FHIR elements must have a @value or children (inherited)</sch:assert>
    </sch:rule>
  </sch:pattern>
  <sch:pattern>
    <sch:title>Condition.bodySite</sch:title>
    <sch:rule context="f:Condition/f:bodySite">
      <sch:assert test="@value|f:*|h:div">All FHIR elements must have a @value or children (inherited)</sch:assert>
    </sch:rule>
  </sch:pattern>
  <sch:pattern>
    <sch:title>Condition.subject</sch:title>
    <sch:rule context="f:Condition/f:subject">
      <sch:assert test="@value|f:*|h:div">All FHIR elements must have a @value or children (inherited)</sch:assert>
    </sch:rule>
  </sch:pattern>
  <sch:pattern>
    <sch:title>Condition.encounter</sch:title>
    <sch:rule context="f:Condition/f:encounter">
      <sch:assert test="@value|f:*|h:div">All FHIR elements must have a @value or children (inherited)</sch:assert>
    </sch:rule>
  </sch:pattern>
  <sch:pattern>
    <sch:title>Condition.onset[x] 1</sch:title>
    <sch:rule context="f:Condition/f:onset[x]">
      <sch:assert test="@value|f:*|h:div">All FHIR elements must have a @value or children (inherited)</sch:assert>
    </sch:rule>
  </sch:pattern>
  <sch:pattern>
    <sch:title>Condition.abatement[x] 1</sch:title>
    <sch:rule context="f:Condition/f:abatement[x]">
      <sch:assert test="@value|f:*|h:div">All FHIR elements must have a @value or children (inherited)</sch:assert>
    </sch:rule>
  </sch:pattern>
  <sch:pattern>
    <sch:title>Condition.recordedDate</sch:title>
    <sch:rule context="f:Condition/f:recordedDate">
      <sch:assert test="@value|f:*|h:div">All FHIR elements must have a @value or children (inherited)</sch:assert>
    </sch:rule>
  </sch:pattern>
  <sch:pattern>
    <sch:title>Condition.recorder</sch:title>
    <sch:rule context="f:Condition/f:recorder">
      <sch:assert test="@value|f:*|h:div">All FHIR elements must have a @value or children (inherited)</sch:assert>
    </sch:rule>
  </sch:pattern>
  <sch:pattern>
    <sch:title>Condition.asserter</sch:title>
    <sch:rule context="f:Condition/f:asserter">
      <sch:assert test="@value|f:*|h:div">All FHIR elements must have a @value or children (inherited)</sch:assert>
    </sch:rule>
  </sch:pattern>
  <sch:pattern>
    <sch:title>Condition.stage</sch:title>
    <sch:rule context="f:Condition/f:stage">
      <sch:assert test="exists(f:summary) or exists(f:assessment)">Stage SHALL have summary or assessment (inherited)</sch:assert>
      <sch:assert test="@value|f:*|h:div">All FHIR elements must have a @value or children (inherited)</sch:assert>
    </sch:rule>
  </sch:pattern>
  <sch:pattern>
    <sch:title>Condition.stage.extension</sch:title>
    <sch:rule context="f:Condition/f:stage/f:extension">
      <sch:assert test="@value|f:*|h:div">All FHIR elements must have a @value or children (inherited)</sch:assert>
      <sch:assert test="exists(f:extension)!=exists(f:*[starts-with(local-name(.), &quot;value&quot;)])">Must have either extensions or value[x], not both (inherited)</sch:assert>
    </sch:rule>
  </sch:pattern>
  <sch:pattern>
    <sch:title>Condition.stage.modifierExtension</sch:title>
    <sch:rule context="f:Condition/f:stage/f:modifierExtension">
      <sch:assert test="@value|f:*|h:div">All FHIR elements must have a @value or children (inherited)</sch:assert>
      <sch:assert test="exists(f:extension)!=exists(f:*[starts-with(local-name(.), &quot;value&quot;)])">Must have either extensions or value[x], not both (inherited)</sch:assert>
    </sch:rule>
  </sch:pattern>
  <sch:pattern>
    <sch:title>Condition.stage.summary</sch:title>
    <sch:rule context="f:Condition/f:stage/f:summary">
      <sch:assert test="@value|f:*|h:div">All FHIR elements must have a @value or children (inherited)</sch:assert>
    </sch:rule>
  </sch:pattern>
  <sch:pattern>
    <sch:title>Condition.stage.assessment</sch:title>
    <sch:rule context="f:Condition/f:stage/f:assessment">
      <sch:assert test="@value|f:*|h:div">All FHIR elements must have a @value or children (inherited)</sch:assert>
    </sch:rule>
  </sch:pattern>
  <sch:pattern>
    <sch:title>Condition.stage.type</sch:title>
    <sch:rule context="f:Condition/f:stage/f:type">
      <sch:assert test="@value|f:*|h:div">All FHIR elements must have a @value or children (inherited)</sch:assert>
    </sch:rule>
  </sch:pattern>
  <sch:pattern>
    <sch:title>Condition.evidence</sch:title>
    <sch:rule context="f:Condition/f:evidence">
      <sch:assert test="exists(f:code) or exists(f:detail)">evidence SHALL have code or details (inherited)</sch:assert>
      <sch:assert test="@value|f:*|h:div">All FHIR elements must have a @value or children (inherited)</sch:assert>
    </sch:rule>
  </sch:pattern>
  <sch:pattern>
    <sch:title>Condition.evidence.extension</sch:title>
    <sch:rule context="f:Condition/f:evidence/f:extension">
      <sch:assert test="@value|f:*|h:div">All FHIR elements must have a @value or children (inherited)</sch:assert>
      <sch:assert test="exists(f:extension)!=exists(f:*[starts-with(local-name(.), &quot;value&quot;)])">Must have either extensions or value[x], not both (inherited)</sch:assert>
    </sch:rule>
  </sch:pattern>
  <sch:pattern>
    <sch:title>Condition.evidence.modifierExtension</sch:title>
    <sch:rule context="f:Condition/f:evidence/f:modifierExtension">
      <sch:assert test="@value|f:*|h:div">All FHIR elements must have a @value or children (inherited)</sch:assert>
      <sch:assert test="exists(f:extension)!=exists(f:*[starts-with(local-name(.), &quot;value&quot;)])">Must have either extensions or value[x], not both (inherited)</sch:assert>
    </sch:rule>
  </sch:pattern>
  <sch:pattern>
    <sch:title>Condition.evidence.code</sch:title>
    <sch:rule context="f:Condition/f:evidence/f:code">
      <sch:assert test="@value|f:*|h:div">All FHIR elements must have a @value or children (inherited)</sch:assert>
    </sch:rule>
  </sch:pattern>
  <sch:pattern>
    <sch:title>Condition.evidence.detail</sch:title>
    <sch:rule context="f:Condition/f:evidence/f:detail">
      <sch:assert test="@value|f:*|h:div">All FHIR elements must have a @value or children (inherited)</sch:assert>
    </sch:rule>
  </sch:pattern>
  <sch:pattern>
    <sch:title>Condition.note</sch:title>
    <sch:rule context="f:Condition/f:note">
      <sch:assert test="@value|f:*|h:div">All FHIR elements must have a @value or children (inherited)</sch:assert>
    </sch:rule>
  </sch:pattern>
</sch:schema>
