<?xml version="1.0" encoding="UTF-8"?>
<sch:schema xmlns:sch="http://purl.oclc.org/dsdl/schematron" queryBinding="xslt2">
  <sch:ns prefix="f" uri="http://hl7.org/fhir"/>
  <sch:ns prefix="h" uri="http://www.w3.org/1999/xhtml"/>
  <!-- 
    This file contains just the constraints for the profile Practitioner
    It includes the base constraints for the resource as well.
    Because of the way that schematrons and containment work, 
    you may need to use this schematron fragment to build a, 
    single schematron that validates contained resources (if you have any) 
  -->
  <sch:pattern>
    <sch:title>f:Practitioner</sch:title>
    <sch:rule context="f:Practitioner">
      <sch:assert test="count(f:extension[@url = 'http://fhir.mn/StructureDefinition/nationality']) &gt;= 1">extension with URL = 'http://fhir.mn/StructureDefinition/nationality': minimum cardinality of 'extension' is 1</sch:assert>
      <sch:assert test="count(f:active) &gt;= 1">active: minimum cardinality of 'active' is 1</sch:assert>
      <sch:assert test="count(f:telecom) &gt;= 1">telecom: minimum cardinality of 'telecom' is 1</sch:assert>
      <sch:assert test="count(f:address) &gt;= 1">address: minimum cardinality of 'address' is 1</sch:assert>
      <sch:assert test="count(f:gender) &gt;= 1">gender: minimum cardinality of 'gender' is 1</sch:assert>
      <sch:assert test="count(f:birthDate) &gt;= 1">birthDate: minimum cardinality of 'birthDate' is 1</sch:assert>
      <sch:assert test="count(f:qualification) &gt;= 1">qualification: minimum cardinality of 'qualification' is 1</sch:assert>
    </sch:rule>
  </sch:pattern>
  <sch:pattern>
    <sch:title>Practitioner</sch:title>
    <sch:rule context="f:Practitioner">
      <sch:assert test="not(parent::f:contained and f:contained)">If the resource is contained in another resource, it SHALL NOT contain nested Resources (inherited)</sch:assert>
      <sch:assert test="not(exists(for $id in f:contained/*/f:id/@value return $contained[not(parent::*/descendant::f:reference/@value=concat('#', $contained/*/id/@value) or descendant::f:reference[@value='#'])]))">If the resource is contained in another resource, it SHALL be referred to from elsewhere in the resource or SHALL refer to the containing resource (inherited)</sch:assert>
      <sch:assert test="not(exists(f:contained/*/f:meta/f:versionId)) and not(exists(f:contained/*/f:meta/f:lastUpdated))">If a resource is contained in another resource, it SHALL NOT have a meta.versionId or a meta.lastUpdated (inherited)</sch:assert>
      <sch:assert test="not(exists(f:contained/*/f:meta/f:security))">If a resource is contained in another resource, it SHALL NOT have a security label (inherited)</sch:assert>
      <sch:assert test="exists(f:text/h:div)">A resource should have narrative for robust management (inherited)</sch:assert>
      <sch:assert test="f:identifier:nationalIdentificationNumber or f:identifier:passportNumber">ЭмнэлгийнМэргэжилтэн.ялганТанигч[nationalIdentificationNumber] эсвэл ЭмнэлгийнМэргэжилтэн.ялганТанигч[passportNumber] эсвэл хоёулаа байх ёстой.</sch:assert>
    </sch:rule>
  </sch:pattern>
  <sch:pattern>
    <sch:title>Practitioner.meta</sch:title>
    <sch:rule context="f:Practitioner/f:meta">
      <sch:assert test="@value|f:*|h:div">All FHIR elements must have a @value or children (inherited)</sch:assert>
    </sch:rule>
  </sch:pattern>
  <sch:pattern>
    <sch:title>Practitioner.implicitRules</sch:title>
    <sch:rule context="f:Practitioner/f:implicitRules">
      <sch:assert test="@value|f:*|h:div">All FHIR elements must have a @value or children (inherited)</sch:assert>
    </sch:rule>
  </sch:pattern>
  <sch:pattern>
    <sch:title>Practitioner.language</sch:title>
    <sch:rule context="f:Practitioner/f:language">
      <sch:assert test="@value|f:*|h:div">All FHIR elements must have a @value or children (inherited)</sch:assert>
    </sch:rule>
  </sch:pattern>
  <sch:pattern>
    <sch:title>Practitioner.text</sch:title>
    <sch:rule context="f:Practitioner/f:text">
      <sch:assert test="@value|f:*|h:div">All FHIR elements must have a @value or children (inherited)</sch:assert>
    </sch:rule>
  </sch:pattern>
  <sch:pattern>
    <sch:title>Practitioner.extension</sch:title>
    <sch:rule context="f:Practitioner/f:extension">
      <sch:assert test="@value|f:*|h:div">All FHIR elements must have a @value or children (inherited)</sch:assert>
      <sch:assert test="exists(f:extension)!=exists(f:*[starts-with(local-name(.), &quot;value&quot;)])">Must have either extensions or value[x], not both (inherited)</sch:assert>
      <sch:assert test="@value|f:*|h:div">FHIR-ийн бүх элементүүд @утга эсвэл дэд элементийг агуулах ёстой (inherited)</sch:assert>
      <sch:assert test="exists(f:extension)!=exists(f:*[starts-with(local-name(.), 'value')])">Өргөтгөл эсвэл утга[x]-ийн аль нэгийг агуулах ёстой, хоёуланг нь агуулж болохгүй (inherited)</sch:assert>
    </sch:rule>
  </sch:pattern>
  <sch:pattern>
    <sch:title>Practitioner.modifierExtension</sch:title>
    <sch:rule context="f:Practitioner/f:modifierExtension">
      <sch:assert test="@value|f:*|h:div">All FHIR elements must have a @value or children (inherited)</sch:assert>
      <sch:assert test="exists(f:extension)!=exists(f:*[starts-with(local-name(.), &quot;value&quot;)])">Must have either extensions or value[x], not both (inherited)</sch:assert>
    </sch:rule>
  </sch:pattern>
  <sch:pattern>
    <sch:title>f:Practitioner/f:identifier</sch:title>
    <sch:rule context="f:Practitioner/f:identifier">
      <sch:assert test="count(f:id) &lt;= 1">id: maximum cardinality of 'id' is 1</sch:assert>
      <sch:assert test="count(f:use) &lt;= 1">use: maximum cardinality of 'use' is 1</sch:assert>
      <sch:assert test="count(f:type) &lt;= 1">type: maximum cardinality of 'type' is 1</sch:assert>
      <sch:assert test="count(f:system) &lt;= 1">system: maximum cardinality of 'system' is 1</sch:assert>
      <sch:assert test="count(f:value) &lt;= 1">value: maximum cardinality of 'value' is 1</sch:assert>
      <sch:assert test="count(f:period) &lt;= 1">period: maximum cardinality of 'period' is 1</sch:assert>
      <sch:assert test="count(f:assigner) &lt;= 1">assigner: maximum cardinality of 'assigner' is 1</sch:assert>
      <sch:assert test="count(f:id) &lt;= 0">id: maximum cardinality of 'id' is 0</sch:assert>
      <sch:assert test="count(f:use) &lt;= 0">use: maximum cardinality of 'use' is 0</sch:assert>
      <sch:assert test="count(f:type) &lt;= 1">type: maximum cardinality of 'type' is 1</sch:assert>
      <sch:assert test="count(f:system) &gt;= 1">system: minimum cardinality of 'system' is 1</sch:assert>
      <sch:assert test="count(f:system) &lt;= 1">system: maximum cardinality of 'system' is 1</sch:assert>
      <sch:assert test="count(f:value) &gt;= 1">value: minimum cardinality of 'value' is 1</sch:assert>
      <sch:assert test="count(f:value) &lt;= 1">value: maximum cardinality of 'value' is 1</sch:assert>
      <sch:assert test="count(f:period) &lt;= 1">period: maximum cardinality of 'period' is 1</sch:assert>
      <sch:assert test="count(f:assigner) &lt;= 1">assigner: maximum cardinality of 'assigner' is 1</sch:assert>
      <sch:assert test="count(f:id) &lt;= 0">id: maximum cardinality of 'id' is 0</sch:assert>
      <sch:assert test="count(f:use) &lt;= 0">use: maximum cardinality of 'use' is 0</sch:assert>
      <sch:assert test="count(f:type) &lt;= 1">type: maximum cardinality of 'type' is 1</sch:assert>
      <sch:assert test="count(f:system) &gt;= 1">system: minimum cardinality of 'system' is 1</sch:assert>
      <sch:assert test="count(f:system) &lt;= 1">system: maximum cardinality of 'system' is 1</sch:assert>
      <sch:assert test="count(f:value) &gt;= 1">value: minimum cardinality of 'value' is 1</sch:assert>
      <sch:assert test="count(f:value) &lt;= 1">value: maximum cardinality of 'value' is 1</sch:assert>
      <sch:assert test="count(f:period) &lt;= 1">period: maximum cardinality of 'period' is 1</sch:assert>
      <sch:assert test="count(f:assigner) &lt;= 1">assigner: maximum cardinality of 'assigner' is 1</sch:assert>
    </sch:rule>
  </sch:pattern>
  <sch:pattern>
    <sch:title>Practitioner.identifier</sch:title>
    <sch:rule context="f:Practitioner/f:identifier">
      <sch:assert test="@value|f:*|h:div">All FHIR elements must have a @value or children (inherited)</sch:assert>
      <sch:assert test="@value|f:*|h:div">All FHIR elements must have a @value or children (inherited)</sch:assert>
      <sch:assert test="@value|f:*|h:div">All FHIR elements must have a @value or children (inherited)</sch:assert>
    </sch:rule>
  </sch:pattern>
  <sch:pattern>
    <sch:title>Practitioner.identifier.extension</sch:title>
    <sch:rule context="f:Practitioner/f:identifier/f:extension">
      <sch:assert test="@value|f:*|h:div">All FHIR elements must have a @value or children</sch:assert>
      <sch:assert test="exists(f:extension)!=exists(f:*[starts-with(local-name(.), &quot;value&quot;)])">Must have either extensions or value[x], not both</sch:assert>
      <sch:assert test="@value|f:*|h:div">All FHIR elements must have a @value or children</sch:assert>
      <sch:assert test="exists(f:extension)!=exists(f:*[starts-with(local-name(.), &quot;value&quot;)])">Must have either extensions or value[x], not both</sch:assert>
      <sch:assert test="@value|f:*|h:div">All FHIR elements must have a @value or children</sch:assert>
      <sch:assert test="exists(f:extension)!=exists(f:*[starts-with(local-name(.), &quot;value&quot;)])">Must have either extensions or value[x], not both</sch:assert>
    </sch:rule>
  </sch:pattern>
  <sch:pattern>
    <sch:title>Practitioner.identifier.use</sch:title>
    <sch:rule context="f:Practitioner/f:identifier/f:use">
      <sch:assert test="@value|f:*|h:div">All FHIR elements must have a @value or children (inherited)</sch:assert>
      <sch:assert test="@value|f:*|h:div">All FHIR elements must have a @value or children (inherited)</sch:assert>
      <sch:assert test="@value|f:*|h:div">All FHIR elements must have a @value or children (inherited)</sch:assert>
    </sch:rule>
  </sch:pattern>
  <sch:pattern>
    <sch:title>Practitioner.identifier.type</sch:title>
    <sch:rule context="f:Practitioner/f:identifier/f:type">
      <sch:assert test="@value|f:*|h:div">All FHIR elements must have a @value or children (inherited)</sch:assert>
      <sch:assert test="@value|f:*|h:div">All FHIR elements must have a @value or children (inherited)</sch:assert>
      <sch:assert test="@value|f:*|h:div">All FHIR elements must have a @value or children (inherited)</sch:assert>
    </sch:rule>
  </sch:pattern>
  <sch:pattern>
    <sch:title>Practitioner.identifier.system</sch:title>
    <sch:rule context="f:Practitioner/f:identifier/f:system">
      <sch:assert test="@value|f:*|h:div">All FHIR elements must have a @value or children (inherited)</sch:assert>
      <sch:assert test="@value|f:*|h:div">All FHIR elements must have a @value or children (inherited)</sch:assert>
      <sch:assert test="@value|f:*|h:div">All FHIR elements must have a @value or children (inherited)</sch:assert>
    </sch:rule>
  </sch:pattern>
  <sch:pattern>
    <sch:title>Practitioner.identifier.value</sch:title>
    <sch:rule context="f:Practitioner/f:identifier/f:value">
      <sch:assert test="@value|f:*|h:div">All FHIR elements must have a @value or children (inherited)</sch:assert>
      <sch:assert test="@value|f:*|h:div">All FHIR elements must have a @value or children (inherited)</sch:assert>
      <sch:assert test="@value|f:*|h:div">All FHIR elements must have a @value or children (inherited)</sch:assert>
    </sch:rule>
  </sch:pattern>
  <sch:pattern>
    <sch:title>Practitioner.identifier.period</sch:title>
    <sch:rule context="f:Practitioner/f:identifier/f:period">
      <sch:assert test="@value|f:*|h:div">All FHIR elements must have a @value or children (inherited)</sch:assert>
      <sch:assert test="@value|f:*|h:div">All FHIR elements must have a @value or children (inherited)</sch:assert>
      <sch:assert test="@value|f:*|h:div">All FHIR elements must have a @value or children (inherited)</sch:assert>
    </sch:rule>
  </sch:pattern>
  <sch:pattern>
    <sch:title>Practitioner.identifier.assigner</sch:title>
    <sch:rule context="f:Practitioner/f:identifier/f:assigner">
      <sch:assert test="@value|f:*|h:div">All FHIR elements must have a @value or children (inherited)</sch:assert>
      <sch:assert test="@value|f:*|h:div">All FHIR elements must have a @value or children (inherited)</sch:assert>
      <sch:assert test="@value|f:*|h:div">All FHIR elements must have a @value or children (inherited)</sch:assert>
    </sch:rule>
  </sch:pattern>
  <sch:pattern>
    <sch:title>Practitioner.active</sch:title>
    <sch:rule context="f:Practitioner/f:active">
      <sch:assert test="@value|f:*|h:div">All FHIR elements must have a @value or children (inherited)</sch:assert>
    </sch:rule>
  </sch:pattern>
  <sch:pattern>
    <sch:title>f:Practitioner/f:name</sch:title>
    <sch:rule context="f:Practitioner/f:name">
      <sch:assert test="count(f:id) &lt;= 0">id: maximum cardinality of 'id' is 0</sch:assert>
      <sch:assert test="count(f:extension[@url = 'http://fhir.mn/StructureDefinition/clan-name']) &lt;= 1">extension with URL = 'http://fhir.mn/StructureDefinition/clan-name': maximum cardinality of 'extension' is 1</sch:assert>
      <sch:assert test="count(f:use) &lt;= 0">use: maximum cardinality of 'use' is 0</sch:assert>
      <sch:assert test="count(f:text) &lt;= 1">text: maximum cardinality of 'text' is 1</sch:assert>
      <sch:assert test="count(f:family) &lt;= 1">family: maximum cardinality of 'family' is 1</sch:assert>
      <sch:assert test="count(f:prefix) &lt;= 0">prefix: maximum cardinality of 'prefix' is 0</sch:assert>
      <sch:assert test="count(f:suffix) &lt;= 0">suffix: maximum cardinality of 'suffix' is 0</sch:assert>
      <sch:assert test="count(f:period) &lt;= 0">period: maximum cardinality of 'period' is 0</sch:assert>
    </sch:rule>
  </sch:pattern>
  <sch:pattern>
    <sch:title>Practitioner.name</sch:title>
    <sch:rule context="f:Practitioner/f:name">
      <sch:assert test="@value|f:*|h:div">All FHIR elements must have a @value or children (inherited)</sch:assert>
    </sch:rule>
  </sch:pattern>
  <sch:pattern>
    <sch:title>Practitioner.name.extension</sch:title>
    <sch:rule context="f:Practitioner/f:name/f:extension">
      <sch:assert test="@value|f:*|h:div">All FHIR elements must have a @value or children</sch:assert>
      <sch:assert test="exists(f:extension)!=exists(f:*[starts-with(local-name(.), &quot;value&quot;)])">Must have either extensions or value[x], not both</sch:assert>
      <sch:assert test="@value|f:*|h:div">All FHIR elements must have a @value or children (inherited)</sch:assert>
      <sch:assert test="exists(f:extension)!=exists(f:*[starts-with(local-name(.), &quot;value&quot;)])">Must have either extensions or value[x], not both (inherited)</sch:assert>
    </sch:rule>
  </sch:pattern>
  <sch:pattern>
    <sch:title>Practitioner.name.use</sch:title>
    <sch:rule context="f:Practitioner/f:name/f:use">
      <sch:assert test="@value|f:*|h:div">All FHIR elements must have a @value or children (inherited)</sch:assert>
    </sch:rule>
  </sch:pattern>
  <sch:pattern>
    <sch:title>Practitioner.name.text</sch:title>
    <sch:rule context="f:Practitioner/f:name/f:text">
      <sch:assert test="@value|f:*|h:div">All FHIR elements must have a @value or children (inherited)</sch:assert>
    </sch:rule>
  </sch:pattern>
  <sch:pattern>
    <sch:title>f:Practitioner/f:name/f:family</sch:title>
    <sch:rule context="f:Practitioner/f:name/f:family">
      <sch:assert test="count(f:id) &lt;= 0">id: maximum cardinality of 'id' is 0</sch:assert>
      <sch:assert test="count(f:value) &lt;= 1">value: maximum cardinality of 'value' is 1</sch:assert>
    </sch:rule>
  </sch:pattern>
  <sch:pattern>
    <sch:title>Practitioner.name.family</sch:title>
    <sch:rule context="f:Practitioner/f:name/f:family">
      <sch:assert test="@value|f:*|h:div">All FHIR elements must have a @value or children (inherited)</sch:assert>
    </sch:rule>
  </sch:pattern>
  <sch:pattern>
    <sch:title>Practitioner.name.family.extension</sch:title>
    <sch:rule context="f:Practitioner/f:name/f:family/f:extension">
      <sch:assert test="@value|f:*|h:div">All FHIR elements must have a @value or children (inherited)</sch:assert>
      <sch:assert test="exists(f:extension)!=exists(f:*[starts-with(local-name(.), 'value')])">Must have either extensions or value[x], not both (inherited)</sch:assert>
    </sch:rule>
  </sch:pattern>
  <sch:pattern>
    <sch:title>Practitioner.name.given</sch:title>
    <sch:rule context="f:Practitioner/f:name/f:given">
      <sch:assert test="@value|f:*|h:div">All FHIR elements must have a @value or children (inherited)</sch:assert>
    </sch:rule>
  </sch:pattern>
  <sch:pattern>
    <sch:title>Practitioner.name.prefix</sch:title>
    <sch:rule context="f:Practitioner/f:name/f:prefix">
      <sch:assert test="@value|f:*|h:div">All FHIR elements must have a @value or children (inherited)</sch:assert>
    </sch:rule>
  </sch:pattern>
  <sch:pattern>
    <sch:title>Practitioner.name.suffix</sch:title>
    <sch:rule context="f:Practitioner/f:name/f:suffix">
      <sch:assert test="@value|f:*|h:div">All FHIR elements must have a @value or children (inherited)</sch:assert>
    </sch:rule>
  </sch:pattern>
  <sch:pattern>
    <sch:title>Practitioner.name.period</sch:title>
    <sch:rule context="f:Practitioner/f:name/f:period">
      <sch:assert test="@value|f:*|h:div">All FHIR elements must have a @value or children (inherited)</sch:assert>
    </sch:rule>
  </sch:pattern>
  <sch:pattern>
    <sch:title>f:Practitioner/f:telecom</sch:title>
    <sch:rule context="f:Practitioner/f:telecom">
      <sch:assert test="count(f:id) &lt;= 0">id: maximum cardinality of 'id' is 0</sch:assert>
      <sch:assert test="count(f:system) &gt;= 1">system: minimum cardinality of 'system' is 1</sch:assert>
      <sch:assert test="count(f:system) &lt;= 1">system: maximum cardinality of 'system' is 1</sch:assert>
      <sch:assert test="count(f:value) &gt;= 1">value: minimum cardinality of 'value' is 1</sch:assert>
      <sch:assert test="count(f:value) &lt;= 1">value: maximum cardinality of 'value' is 1</sch:assert>
      <sch:assert test="count(f:use) &lt;= 1">use: maximum cardinality of 'use' is 1</sch:assert>
      <sch:assert test="count(f:rank) &lt;= 0">rank: maximum cardinality of 'rank' is 0</sch:assert>
      <sch:assert test="count(f:period) &lt;= 0">period: maximum cardinality of 'period' is 0</sch:assert>
    </sch:rule>
  </sch:pattern>
  <sch:pattern>
    <sch:title>Practitioner.telecom</sch:title>
    <sch:rule context="f:Practitioner/f:telecom">
      <sch:assert test="not(exists(f:value)) or exists(f:system)">A system is required if a value is provided. (inherited)</sch:assert>
      <sch:assert test="@value|f:*|h:div">All FHIR elements must have a @value or children (inherited)</sch:assert>
    </sch:rule>
  </sch:pattern>
  <sch:pattern>
    <sch:title>Practitioner.telecom.extension</sch:title>
    <sch:rule context="f:Practitioner/f:telecom/f:extension">
      <sch:assert test="@value|f:*|h:div">All FHIR elements must have a @value or children</sch:assert>
      <sch:assert test="exists(f:extension)!=exists(f:*[starts-with(local-name(.), &quot;value&quot;)])">Must have either extensions or value[x], not both</sch:assert>
    </sch:rule>
  </sch:pattern>
  <sch:pattern>
    <sch:title>Practitioner.telecom.system</sch:title>
    <sch:rule context="f:Practitioner/f:telecom/f:system">
      <sch:assert test="@value|f:*|h:div">All FHIR elements must have a @value or children (inherited)</sch:assert>
    </sch:rule>
  </sch:pattern>
  <sch:pattern>
    <sch:title>Practitioner.telecom.value</sch:title>
    <sch:rule context="f:Practitioner/f:telecom/f:value">
      <sch:assert test="@value|f:*|h:div">All FHIR elements must have a @value or children (inherited)</sch:assert>
    </sch:rule>
  </sch:pattern>
  <sch:pattern>
    <sch:title>Practitioner.telecom.use</sch:title>
    <sch:rule context="f:Practitioner/f:telecom/f:use">
      <sch:assert test="@value|f:*|h:div">All FHIR elements must have a @value or children (inherited)</sch:assert>
    </sch:rule>
  </sch:pattern>
  <sch:pattern>
    <sch:title>Practitioner.telecom.rank</sch:title>
    <sch:rule context="f:Practitioner/f:telecom/f:rank">
      <sch:assert test="@value|f:*|h:div">All FHIR elements must have a @value or children (inherited)</sch:assert>
    </sch:rule>
  </sch:pattern>
  <sch:pattern>
    <sch:title>Practitioner.telecom.period</sch:title>
    <sch:rule context="f:Practitioner/f:telecom/f:period">
      <sch:assert test="@value|f:*|h:div">All FHIR elements must have a @value or children (inherited)</sch:assert>
    </sch:rule>
  </sch:pattern>
  <sch:pattern>
    <sch:title>f:Practitioner/f:address</sch:title>
    <sch:rule context="f:Practitioner/f:address">
      <sch:assert test="count(f:id) &lt;= 0">id: maximum cardinality of 'id' is 0</sch:assert>
      <sch:assert test="count(f:extension[@url = 'http://fhir.mn/StructureDefinition/subdistrict']) &gt;= 1">extension with URL = 'http://fhir.mn/StructureDefinition/subdistrict': minimum cardinality of 'extension' is 1</sch:assert>
      <sch:assert test="count(f:extension[@url = 'http://fhir.mn/StructureDefinition/subdistrict']) &lt;= 1">extension with URL = 'http://fhir.mn/StructureDefinition/subdistrict': maximum cardinality of 'extension' is 1</sch:assert>
      <sch:assert test="count(f:use) &lt;= 1">use: maximum cardinality of 'use' is 1</sch:assert>
      <sch:assert test="count(f:type) &lt;= 0">type: maximum cardinality of 'type' is 0</sch:assert>
      <sch:assert test="count(f:text) &lt;= 1">text: maximum cardinality of 'text' is 1</sch:assert>
      <sch:assert test="count(f:line) &gt;= 1">line: minimum cardinality of 'line' is 1</sch:assert>
      <sch:assert test="count(f:city) &lt;= 0">city: maximum cardinality of 'city' is 0</sch:assert>
      <sch:assert test="count(f:district) &gt;= 1">district: minimum cardinality of 'district' is 1</sch:assert>
      <sch:assert test="count(f:district) &lt;= 1">district: maximum cardinality of 'district' is 1</sch:assert>
      <sch:assert test="count(f:state) &gt;= 1">state: minimum cardinality of 'state' is 1</sch:assert>
      <sch:assert test="count(f:state) &lt;= 1">state: maximum cardinality of 'state' is 1</sch:assert>
      <sch:assert test="count(f:postalCode) &lt;= 1">postalCode: maximum cardinality of 'postalCode' is 1</sch:assert>
      <sch:assert test="count(f:country) &lt;= 1">country: maximum cardinality of 'country' is 1</sch:assert>
      <sch:assert test="count(f:period) &lt;= 0">period: maximum cardinality of 'period' is 0</sch:assert>
    </sch:rule>
  </sch:pattern>
  <sch:pattern>
    <sch:title>Practitioner.address</sch:title>
    <sch:rule context="f:Practitioner/f:address">
      <sch:assert test="@value|f:*|h:div">All FHIR elements must have a @value or children (inherited)</sch:assert>
    </sch:rule>
  </sch:pattern>
  <sch:pattern>
    <sch:title>Practitioner.address.extension</sch:title>
    <sch:rule context="f:Practitioner/f:address/f:extension">
      <sch:assert test="@value|f:*|h:div">All FHIR elements must have a @value or children</sch:assert>
      <sch:assert test="exists(f:extension)!=exists(f:*[starts-with(local-name(.), &quot;value&quot;)])">Must have either extensions or value[x], not both</sch:assert>
      <sch:assert test="@value|f:*|h:div">All FHIR elements must have a @value or children (inherited)</sch:assert>
      <sch:assert test="exists(f:extension)!=exists(f:*[starts-with(local-name(.), &quot;value&quot;)])">Must have either extensions or value[x], not both (inherited)</sch:assert>
    </sch:rule>
  </sch:pattern>
  <sch:pattern>
    <sch:title>Practitioner.address.use</sch:title>
    <sch:rule context="f:Practitioner/f:address/f:use">
      <sch:assert test="@value|f:*|h:div">All FHIR elements must have a @value or children (inherited)</sch:assert>
    </sch:rule>
  </sch:pattern>
  <sch:pattern>
    <sch:title>Practitioner.address.type</sch:title>
    <sch:rule context="f:Practitioner/f:address/f:type">
      <sch:assert test="@value|f:*|h:div">All FHIR elements must have a @value or children (inherited)</sch:assert>
    </sch:rule>
  </sch:pattern>
  <sch:pattern>
    <sch:title>Practitioner.address.text</sch:title>
    <sch:rule context="f:Practitioner/f:address/f:text">
      <sch:assert test="@value|f:*|h:div">All FHIR elements must have a @value or children (inherited)</sch:assert>
    </sch:rule>
  </sch:pattern>
  <sch:pattern>
    <sch:title>Practitioner.address.line</sch:title>
    <sch:rule context="f:Practitioner/f:address/f:line">
      <sch:assert test="@value|f:*|h:div">All FHIR elements must have a @value or children (inherited)</sch:assert>
    </sch:rule>
  </sch:pattern>
  <sch:pattern>
    <sch:title>Practitioner.address.city</sch:title>
    <sch:rule context="f:Practitioner/f:address/f:city">
      <sch:assert test="@value|f:*|h:div">All FHIR elements must have a @value or children (inherited)</sch:assert>
    </sch:rule>
  </sch:pattern>
  <sch:pattern>
    <sch:title>Practitioner.address.district</sch:title>
    <sch:rule context="f:Practitioner/f:address/f:district">
      <sch:assert test="@value|f:*|h:div">All FHIR elements must have a @value or children (inherited)</sch:assert>
    </sch:rule>
  </sch:pattern>
  <sch:pattern>
    <sch:title>Practitioner.address.state</sch:title>
    <sch:rule context="f:Practitioner/f:address/f:state">
      <sch:assert test="@value|f:*|h:div">All FHIR elements must have a @value or children (inherited)</sch:assert>
    </sch:rule>
  </sch:pattern>
  <sch:pattern>
    <sch:title>Practitioner.address.postalCode</sch:title>
    <sch:rule context="f:Practitioner/f:address/f:postalCode">
      <sch:assert test="@value|f:*|h:div">All FHIR elements must have a @value or children (inherited)</sch:assert>
    </sch:rule>
  </sch:pattern>
  <sch:pattern>
    <sch:title>Practitioner.address.country</sch:title>
    <sch:rule context="f:Practitioner/f:address/f:country">
      <sch:assert test="@value|f:*|h:div">All FHIR elements must have a @value or children (inherited)</sch:assert>
    </sch:rule>
  </sch:pattern>
  <sch:pattern>
    <sch:title>Practitioner.address.period</sch:title>
    <sch:rule context="f:Practitioner/f:address/f:period">
      <sch:assert test="@value|f:*|h:div">All FHIR elements must have a @value or children (inherited)</sch:assert>
    </sch:rule>
  </sch:pattern>
  <sch:pattern>
    <sch:title>Practitioner.gender</sch:title>
    <sch:rule context="f:Practitioner/f:gender">
      <sch:assert test="@value|f:*|h:div">All FHIR elements must have a @value or children (inherited)</sch:assert>
    </sch:rule>
  </sch:pattern>
  <sch:pattern>
    <sch:title>Practitioner.birthDate</sch:title>
    <sch:rule context="f:Practitioner/f:birthDate">
      <sch:assert test="@value|f:*|h:div">All FHIR elements must have a @value or children (inherited)</sch:assert>
    </sch:rule>
  </sch:pattern>
  <sch:pattern>
    <sch:title>Practitioner.photo</sch:title>
    <sch:rule context="f:Practitioner/f:photo">
      <sch:assert test="@value|f:*|h:div">All FHIR elements must have a @value or children (inherited)</sch:assert>
    </sch:rule>
  </sch:pattern>
  <sch:pattern>
    <sch:title>f:Practitioner/f:qualification</sch:title>
    <sch:rule context="f:Practitioner/f:qualification">
      <sch:assert test="count(f:identifier) &gt;= 1">identifier: minimum cardinality of 'identifier' is 1</sch:assert>
      <sch:assert test="count(f:period) &gt;= 1">period: minimum cardinality of 'period' is 1</sch:assert>
      <sch:assert test="count(f:issuer) &gt;= 1">issuer: minimum cardinality of 'issuer' is 1</sch:assert>
    </sch:rule>
  </sch:pattern>
  <sch:pattern>
    <sch:title>Practitioner.qualification</sch:title>
    <sch:rule context="f:Practitioner/f:qualification">
      <sch:assert test="@value|f:*|h:div">All FHIR elements must have a @value or children (inherited)</sch:assert>
    </sch:rule>
  </sch:pattern>
  <sch:pattern>
    <sch:title>Practitioner.qualification.extension</sch:title>
    <sch:rule context="f:Practitioner/f:qualification/f:extension">
      <sch:assert test="@value|f:*|h:div">All FHIR elements must have a @value or children (inherited)</sch:assert>
      <sch:assert test="exists(f:extension)!=exists(f:*[starts-with(local-name(.), &quot;value&quot;)])">Must have either extensions or value[x], not both (inherited)</sch:assert>
    </sch:rule>
  </sch:pattern>
  <sch:pattern>
    <sch:title>Practitioner.qualification.modifierExtension</sch:title>
    <sch:rule context="f:Practitioner/f:qualification/f:modifierExtension">
      <sch:assert test="@value|f:*|h:div">All FHIR elements must have a @value or children (inherited)</sch:assert>
      <sch:assert test="exists(f:extension)!=exists(f:*[starts-with(local-name(.), &quot;value&quot;)])">Must have either extensions or value[x], not both (inherited)</sch:assert>
    </sch:rule>
  </sch:pattern>
  <sch:pattern>
    <sch:title>Practitioner.qualification.identifier</sch:title>
    <sch:rule context="f:Practitioner/f:qualification/f:identifier">
      <sch:assert test="@value|f:*|h:div">All FHIR elements must have a @value or children (inherited)</sch:assert>
    </sch:rule>
  </sch:pattern>
  <sch:pattern>
    <sch:title>Practitioner.qualification.code</sch:title>
    <sch:rule context="f:Practitioner/f:qualification/f:code">
      <sch:assert test="@value|f:*|h:div">All FHIR elements must have a @value or children (inherited)</sch:assert>
    </sch:rule>
  </sch:pattern>
  <sch:pattern>
    <sch:title>f:Practitioner/f:qualification/f:period</sch:title>
    <sch:rule context="f:Practitioner/f:qualification/f:period">
      <sch:assert test="count(f:id) &lt;= 1">id: maximum cardinality of 'id' is 1</sch:assert>
      <sch:assert test="count(f:start) &gt;= 1">start: minimum cardinality of 'start' is 1</sch:assert>
      <sch:assert test="count(f:start) &lt;= 1">start: maximum cardinality of 'start' is 1</sch:assert>
      <sch:assert test="count(f:end) &lt;= 1">end: maximum cardinality of 'end' is 1</sch:assert>
    </sch:rule>
  </sch:pattern>
  <sch:pattern>
    <sch:title>Practitioner.qualification.period</sch:title>
    <sch:rule context="f:Practitioner/f:qualification/f:period">
      <sch:assert test="@value|f:*|h:div">All FHIR elements must have a @value or children (inherited)</sch:assert>
    </sch:rule>
  </sch:pattern>
  <sch:pattern>
    <sch:title>Practitioner.qualification.period.extension</sch:title>
    <sch:rule context="f:Practitioner/f:qualification/f:period/f:extension">
      <sch:assert test="@value|f:*|h:div">All FHIR elements must have a @value or children</sch:assert>
      <sch:assert test="exists(f:extension)!=exists(f:*[starts-with(local-name(.), &quot;value&quot;)])">Must have either extensions or value[x], not both</sch:assert>
    </sch:rule>
  </sch:pattern>
  <sch:pattern>
    <sch:title>Practitioner.qualification.period.start</sch:title>
    <sch:rule context="f:Practitioner/f:qualification/f:period/f:start">
      <sch:assert test="@value|f:*|h:div">All FHIR elements must have a @value or children (inherited)</sch:assert>
    </sch:rule>
  </sch:pattern>
  <sch:pattern>
    <sch:title>Practitioner.qualification.period.end</sch:title>
    <sch:rule context="f:Practitioner/f:qualification/f:period/f:end">
      <sch:assert test="@value|f:*|h:div">All FHIR elements must have a @value or children (inherited)</sch:assert>
    </sch:rule>
  </sch:pattern>
  <sch:pattern>
    <sch:title>Practitioner.qualification.issuer</sch:title>
    <sch:rule context="f:Practitioner/f:qualification/f:issuer">
      <sch:assert test="@value|f:*|h:div">All FHIR elements must have a @value or children (inherited)</sch:assert>
    </sch:rule>
  </sch:pattern>
  <sch:pattern>
    <sch:title>Practitioner.communication</sch:title>
    <sch:rule context="f:Practitioner/f:communication">
      <sch:assert test="@value|f:*|h:div">All FHIR elements must have a @value or children (inherited)</sch:assert>
    </sch:rule>
  </sch:pattern>
</sch:schema>
