"Path","Slice Name","Alias(s)","Label","Min","Max","Must Support?","Is Modifier?","Is Summary?","Type(s)","Short","Definition","Comments","Requirements","Default Value","Meaning When Missing","Fixed Value","Pattern","Example","Minimum Value","Maximum Value","Maximum Length","Binding Strength","Binding Description","Binding Value Set","Code","Slicing Discriminator","Slicing Description","Slicing Ordered","Slicing Rules","Base Path","Base Min","Base Max","Condition(s)","Constraint(s)","Mapping: Ажлын урсгалын зураглал","Mapping: SNOMED CT Агуулгын Домэйн Холбоос","Mapping: HL7 v2 Дүйцүүлэлт","Mapping: RIM дүйцүүлэлт","Mapping: FiveWs Загвар Дүйцүүлэлт","Mapping: SNOMED CT Элементийн Холбоос","Mapping: Дүрс оношилгооны үр дүн"
"Observation","","Vital Signs
MeasurementResultsTests","",0,*,"","","","","Хэмжилт ба энгийн нотолгоо","Өвчтөн, төхөөрөмж эсвэл бусад субьектийн талаарх хэмжилт ба энгийн нотолгоо.","Төхөөрөмжийн хэмжилт, лабораторийн үл хуваагдах үр дүн, амин үзүүлэлт, өндөр, жин, тамхи татах байдал, сэтгэгдэл гэх мэт энгийн ажиглалтуудад ашигладаг. Бусад хэрэглүүрийг лабораторийн тайлан гэх мэт ажиглалтын бусад төрлийн агуулгаар хангахад ашигладаг.","","","","","","","","",,,,,"",,,,"Observation",0,*,"","dom-2:Хэрвээ хэрэглүүр өөр хэрэглүүрийн дотор агуулагдаж байгаа бол, тэрээр дотроо багтсан хэрэглүүр агуулах ЁСГҮЙ. {contained.contained.empty()}
dom-3:Хэрвээ хэрэглүүр өөр хэрэглүүрийн дотор агуулагдаж байгаа бол, тэрээр хэрэглүүрийн хаа нэгтэйгээс заагдсан байх ЁСТОЙ эсвэл агуулж буй хэрэглүүр рүү заах ЁСТОЙ. {contained.where((('#'+id in (%resource.descendants().reference | %resource.descendants().as(canonical) | %resource.descendants().as(uri) | %resource.descendants().as(url))) or descendants().where(reference = '#').exists() or descendants().where(as(canonical) = '#').exists() or descendants().where(as(canonical) = '#').exists()).not()).trace('unmatched', id).empty()}dom-4:Хэрвээ хэрэглүүр өөр хэрэглүүрийн дотор агуулагдаж байгаа бол тэрээр meta.versionId эсвэл meta.lastUpdated элементтэй байх ЁСГҮЙ. {contained.meta.versionId.empty() and contained.meta.lastUpdated.empty()}dom-5:Хэрвээ хэрэглүүр өөр хэрэглүүрийн дотор агуулагдаж байгаа бол, аюулгүй байдлын шошготой байх ЁСГҮЙ. {contained.meta.security.empty()}dom-6:Зохион байгуулалтыг сайн байлгах үүднээс хэрэглүүрүүдэд хүүрнэл хэсэг байх хэрэгтэй. {text.`div`.exists()}obs-6:Ажиглалт.утга[X] байхгүй үед л өгөгдөлӨгөгдөөгүйШалтгаан байх ЁСТОЙ. {dataAbsentReason.empty() or value.empty()}obs-7:Хэрэв Ажиглалт.код нь Ажиглалт.бүрэлдхүүнХэсэг.кодтой адилхан бол кодтой холбоотой утгын элемент байх ЁСГҮЙ. {value.empty() or component.code.where(coding.intersect(%resource.code.coding).exists()).empty()}","Event","< 363787002 |Observable entity|","OBX","Entity. Role, or Act","Observation[classCode=OBS, moodCode=EVN]"
"Observation.id","","","",0,1,"","","Y","string {[]} {[]}
","Энэхүү бүтцийн логик Id","Хэрэглүүрийн URL-д ашиглагдсан, хэрэглүүрийн логик id. Нэгэнт оноогдсон бол энэ утга хэзээ ч өөрчлөгдөхгүй.","Хэрэглүүр id-гүй байх цорын ганц тохиолдол нь түүнийг create үйлдэл ашиглан сервер лүү илгээж байх үе юм.","","","","","","","","",,,,,"",,,,"Resource.id",0,1,"",""
"Observation.meta","","","",0,1,"","","Y","Meta {[]} {[]}
","Хэрэглүүрийн тухай мета өгөгдөл","Хэрэглүүрийн тухай мета өгөгдөл. Энэ бол дэд бүтцэд хадгалагдаж буй агуулга юм. Агуулгын өөрчлөлт нь хэрэглүүрийн хувилбаруудад гарч буй өөрчлөлттэй үргэлж холбоотой байхгүй байх магадлалтай.","","","","","","","","","",,,,,"",,,,"Resource.meta",0,1,"","ele-1:FHIR-ийн бүх элементүүд @утга эсвэл дэд элементийг агуулах ёстой {hasValue() or (children().count() > id.count())}
"
"Observation.implicitRules","","","",0,1,"","Y","Y","uri {[]} {[]}
","Энэхүү бүтцийг үүсгэхэд ашигласан дүрмийн багц","Энэхүү бүтцийг үүсгэхэд ашигласан, мөн боловсруулах явцад ойлгогдох ёстой дүрмийн багцыг заасан заалт. Ихэнх тохиолдолд, энэ нь бусад профайл гэх мэтийн хамтаар тусгай дүрмийг тодорхойлсон хэрэгжүүлэлтийн удирдамжийн лавлагаа юм.","Энэхүү дүрмийн багцыг эцэслэн батлах нь тухайн агуулгыг зөвхөн цөөн тооны бизнесийн оролцогчид ойлгох боломжтой болгож хязгаарлаахад хүргэнэ. Үүний үр дүнд, урт хугацаандаа өгөгдлийн ашигтай байдал ч мөн хязгаарлагдана. Гэсэн хэдий ч, одоо буй эрүүл мэндийн эко систем нь нэлээд тархай бутархай бөгөөд өгөгдлийг ерөнхийд нь тооцоолохуйц хэмжээнд тодорхойлох, цуглуулах, солилцоход хараахан бэлэн биш байна. Боломжтой бол хэрэгжүүлэгчид ба/эсвэл тодорхойлолтыг зохиогчид энэ элементийг ашиглахаас зайлсхийх хэрэгтэй. Ихэнхдээ, хэрэглэгдсэн тохиолдолд, URL гэдэг нь дээрх онцгой дүрмүүдийг бусад профайл, утгын олонлог гэх мэтийн хамтаар хүүрнэлийн нэг хэсэг хэмээн тодорхойлсон хэрэгжүүлэлтийн удирдамжийг заасан заалт байна.","","","","","","","","",,,,,"",,,,"Resource.implicitRules",0,1,"","ele-1:FHIR-ийн бүх элементүүд @утга эсвэл дэд элементийг агуулах ёстой {hasValue() or (children().count() > id.count())}
"
"Observation.language","","","",0,1,"","","","code {[]} {[]}
","Хэрэглүүрийн агуулгын хэл","Хэрэглүүр бичигдсэн үндсэн хэл","Хэл нь индексжүүлэлт болон ашиглахад хүртээмжтэй байдлыг нэмэгдүүлэх зорилгоор (ерөнхийдөө, текстээс яриа үүсгэх гэх мэт үйлчилгээ хэлний шошгыг ашигладаг) ашиглагддаг. Хүүрнэл хэсэгт буй html хэлний шошго нь хүүрнэл хэсэгтээ хамаарна. Хэрэглүүр дэх хэлний шошго нь тухайн хэрэглүүр дэх өгөгдлөөс боловсруулан гаргасан бусад илэрхийллийн хэлийг тодорхойлоход ашиглагдаж болно. Бүх агуулга нь үндсэн хэл дээр байх албагүй. Хэрэглүүр.хэл элементийг хүүрнэл хэсэгт автоматаар хамаарна гэж тооцож болохгүй. Хэрэв хэлийг зааж өгсөн бол түүнийг html дэх div элемент дээр бас зааж өгөх хэрэгтэй (xml:lang ба html lang шинж чанар хоорондын хамаарлын тухай мэдээллийг HTML5-д буй дүрмүүдээс харна уу).","","","","","","","","",,"preferred","Хүний хэл","http://hl7.org/fhir/ValueSet/languages","",,,,"Resource.language",0,1,"","ele-1:FHIR-ийн бүх элементүүд @утга эсвэл дэд элементийг агуулах ёстой {hasValue() or (children().count() > id.count())}
"
"Observation.text","","narrative
htmlxhtmldisplay","",0,1,"","","","Narrative {[]} {[]}
","Хүн тайлж ойлгоход зориулсан, хэрэглүүрийн текстэн хураангуй","Хэрэглүүрийн хураангуйг дотроо агуулсан бөгөөд тухайн хэрэглүүрийн агуулгыг хүнд илэрхийлэхэд ашиглаж болохоор, хүнд уншигдахуйц хэлбэрээр бичигдсэн хүүрнэл хэсэг. Хүүрнэл хэсэг нь бүтэцлэгдсэн өгөгдлийг бүгдийг нь шифрлэх шаардлагагүй боловч хүн зөвхөн хүүрнэл хэсгийг уншихад ""эмнэлзүйн хувьд аюулгүй"" болгохуйц, хангалттай хэмжээний нарийвчилсан мэдээллийг агуулсан байх шаардлагатай. Хэрэглүүрийн тодорхойлолт нь эмнэл зүйн аюулгүй байдлыг хангахын тулд, хүүрнэл хэсэгт ямар агуулга багтсан байх ёстойг тодорхойлж болно.","Өөр хэрэглүүрийн дотор агуулагдсан хэрэглүүр хүүрнэл хэсгийг агуулдаггүй. Өөр хэрэглүүрийн дотор агуулагдаагүй хэрэглүүр нь хүүрнэл хэсгийг агуулах ЁСТОЙ. Зарим тохиолдолд, хэрэглүүр нь багахан хэмжээний чөлөөт өгөгдөлтэй эсвэл огт чөлөөт өгөгдөлгүй текст агуулж болно (minOccurs=1 элементүүд бүгд хангагдсан тохиолдолд). Энэ нь мэдээллийг ""текстийн товчлол"" болгон хадгалсан эсвэл текстийг нэмэлтээр, боловсруулаагүй хэлбэрээр оруулсан эсвэл хүүрнэсэн, шифрлэсэн мэдээллийг сүүлд нь оруулсан хуучин системүүдийн өгөгдлийн тухайд зайлшгүй чухал байх магадлалтай.","","","","","","","","",,,,,"",,,,"DomainResource.text",0,1,"","ele-1:FHIR-ийн бүх элементүүд @утга эсвэл дэд элементийг агуулах ёстой {hasValue() or (children().count() > id.count())}
","Act.text?"
"Observation.contained","","inline resources
anonymous resourcescontained resources","",0,*,"","","","Resource {[]} {[]}
","Хэрэглүүрийн дотор агуулагдах Хэрэглүүрүүд","Эдгээр хэрэглүүрүүд нь тэднийг агуулж буй хэрэглүүрээс гадна, бие даан орших боломжгүй - Тэд тусдаа бие даан ялган танигдах боломжгүй, мөн бие даасан өгөгдөл солилцооны цар хүрээтэй байх ч боломжгүй юм.","Ялган танилт нэгэнт алдагдсан тохиолдод, үүнийг дахин сэргээх нь маш хэцүү (бөгөөд хам сэдвээс хамааралтай) байдаг учир, агуулгыг зүй ёсоор ялган таних боломжтой үед үүнийг хэзээ ч хийх ёсгүй. Хэрэглүүрийн дотор агуулагдах хэрэглүүрүүд нь мета элементүүддээ профай болон шошгыг агуулж болно, гэхдээ аюулгүй байдлын шошго агуулах ЁСГҮЙ.","","","","","","","","",,,,,"",,,,"DomainResource.contained",0,*,"","","N/A"
"Observation.extension","","extensions
user content","",0,*,"","","","Extension {[]} {[]}
","Is ""by"" same as ""during the implementation""?","Хэрэглүүрийн үндсэн тодорхойлолтын хэсэг бус, нэмэлт мэдээллийг илэрхийлэхэд ашиглаж болно. Өргөтгөлийн хэрэглээг аюулгүй, зохион байгуулахад дөхөм байлгах үүднээс шинэ өргөтгөл тодорхойлох болон хэрэглэх явдлыг хатуу чанд тодорхойлсон байдаг. Бүх хэрэгжүүлэгч шинэ өргөтгөл тодорхойлж болох боловч өргөтгөлийн тодорхойлолтын хэсэг болон мөрдөгдөх ЁСТОЙ багц шаардлага байдаг.","Өргөтгөлийг ашиглаж эсвэл тодорхойлж буй байгууллага эсвэл хууль эрх зүйн хүрээний байдлаас үл хамааран, ямар ч програм, төсөл, стандартад өргөтгөлийг ашиглахад буруутгах зүйл байх ёсгүй. Өргөтгөлийн хэрэглээ нь FHIR-ийн тодорхойлолтыг хүн бүрийн хэрэгцээнд нийцэхүйц, энгийн түвшинд байх боломжийг олгож буй хүчин зүйл юм.","","","","","","","","",,,,,"",,,,"DomainResource.extension",0,*,"","ele-1:FHIR-ийн бүх элементүүд @утга эсвэл дэд элементийг агуулах ёстой {hasValue() or (children().count() > id.count())}
ext-1:Өргөтгөл эсвэл утга[x]-ийн аль нэгийг агуулах ёстой, хоёуланг нь агуулж болохгүй {extension.exists() != value.exists()}","N/A"
"Observation.modifierExtension","","extensions
user content","",0,*,"","Y","","Extension {[]} {[]}
","Хэрэгсэхгүй байж болшгүй өргөтгөлүүд","Хэрэглүүрийн үндсэн тодорхойлолтын хэсэг биш бөгөөд үүнийг агуулж буй элементийн тухай ойлголтыг болон / эсвэл агуулсан элементэд агуулагдах бүтцүүдийн тухай ойлголтыг өөрчлөх чадвартай нэмэлт мэдээллийг илэрхийлэхэд ашиглаж болно. Хувиргагч элементүүд нь ихэвчлэн үгүйсгэл эсвэл хязгаарлалтыг агуулдаг. Өргөтгөлийн хэрэглээг аюулгүй, зохион байгуулахад дөхөм байлгах үүднээс шинэ өргөтгөл тодорхойлох болон хэрэглэх явдлыг хатуу чанд тодорхойлсон байдаг. Бүх хэрэгжүүлэгч шинэ өргөтгөл тодорхойлж болох боловч өргөтгөлийн тодорхойлолтын хэсэг болон мөрдөгдөх ЁСТОЙ багц шаардлага байдаг. Хэрэглүүрийг боловсруулдаг аппликейшнүүд нь хувиргагч өргөтгөлүүдийг хянаж байх шаардлагатай. 

 Хувиргагч өргөтгөл нь Хэрэглүүр эсвэл ДомейнХэрэглүүр (мөн хувиргагчӨргөтгөлийн утгыг өөрчилж болохгүй) дээрх ямар нэг элементийн утгыг өөрчлөх ЁСГҮЙ.","Өргөтгөлийг ашиглаж эсвэл тодорхойлж буй байгууллага эсвэл хууль эрх зүйн хүрээний байдлаас үл хамааран, ямар ч програм, төсөл, стандартад өргөтгөлийг ашиглахад буруутгах зүйл байх ёсгүй. Өргөтгөлийн хэрэглээ нь FHIR-ийн тодорхойлолтыг хүн бүрийн хэрэгцээнд нийцэхүйц, энгийн түвшинд байх боломжийг олгож буй хүчин зүйл юм.","Хувиргагч өргөтгөл нь хэрэгсэхгүй байж *болохгүй* өргөтгөлүүдийг, хэрэгсэхгүй байж болох өргөтгөлүүдээс тодорхой ялгах боломжийг олгодог. Энэ нь хэрэгжүүлэгчид өргөтгөл байх эсэхийг хязгаарлах хэрэгцээг багасган, цахим систем хоорондын зохицлыг сайжруулдаг. Дэлгэрэнгүй мэдээллийг [хувиргагч өргөтгөлийн тодорхойлолт(extensibility.html#modifierExtension) хэсгээс үзнэ үү.","","","","","","","",,,,,"",,,,"DomainResource.modifierExtension",0,*,"","ele-1:FHIR-ийн бүх элементүүд @утга эсвэл дэд элементийг агуулах ёстой {hasValue() or (children().count() > id.count())}
ext-1:Өргөтгөл эсвэл утга[x]-ийн аль нэгийг агуулах ёстой, хоёуланг нь агуулж болохгүй {extension.exists() != value.exists()}","N/A"
"Observation.identifier","","","",0,*,"Y","","Y","Identifier {[]} {[]}
","Ажиглалтын бизнесийн ялган танигч","Тухайн ажиглалтад оноогдсон өвөрмөц ялган танигч.","","Ажиглалтыг бусдаас нь ялгаж, заах боломжийг олгоно.","","","","","","","",,,,,"",,,,"Observation.identifier",0,*,"","ele-1:FHIR-ийн бүх элементүүд @утга эсвэл дэд элементийг агуулах ёстой {hasValue() or (children().count() > id.count())}
","Event.identifier","OBX.21  For OBX segments from systems without OBX-21 support a combination of ORC/OBR and OBX must be negotiated between trading partners to uniquely identify the OBX segment. Depending on how V2 has been implemented each of these may be an option: 1) OBR-3 + OBX-3 + OBX-4 or 2) OBR-3 + OBR-4 + OBX-3 + OBX-4 or 2) some other way to uniquely ID the OBR/ORC + OBX-3 + OBX-4.","id","FiveWs.identifier"
"Observation.basedOn","","Fulfills
","",0,*,"Y","","Y","Reference {[]} {[CanonicalType[http://fhir.mn/StructureDefinition/mng-imaging-referral]]}
","Төлөвлөгөө, хүсэлт эсвэл захиалгыг биелүүлдэг","Энэ арга хэмжээний хүрээнд бүхэлд нь эсвэл хэсэгчлэн биелүүлсэн төлөвлөгөө, хүсэлт, захиалга. Жишээлбэл, ЭмийнХүсэлт олгогдохоос өмнө өвчтөн лабораторийн шинжилгээ хийлгэсэн байхыг шаарддаг.","","Тухайн үйл явдлын баталгаажуулалтыг хянах болон тухайн хүсэлт / саналыг гүйцэлдүүлэхээр ямар нэгэн арга хэмжээ авсан эсэхийг хянах боломжийг олгоно.","","","","","","","",,,,,"",,,,"Observation.basedOn",0,*,"","ele-1:FHIR-ийн бүх элементүүд @утга эсвэл дэд элементийг агуулах ёстой {hasValue() or (children().count() > id.count())}
","Event.basedOn","ORC",".inboundRelationship[typeCode=COMP].source[moodCode=EVN]"
"Observation.partOf","","Container
","",0,0,"Y","","Y","Reference {[]} {[CanonicalType[http://hl7.org/fhir/StructureDefinition/MedicationAdministration], CanonicalType[http://hl7.org/fhir/StructureDefinition/MedicationDispense], CanonicalType[http://hl7.org/fhir/StructureDefinition/MedicationStatement], CanonicalType[http://hl7.org/fhir/StructureDefinition/Procedure], CanonicalType[http://hl7.org/fhir/StructureDefinition/Immunization], CanonicalType[http://hl7.org/fhir/StructureDefinition/ImagingStudy]]}
","Заагдсан үйл явдлын хэсэг","Ажиглалт нь бүрэлдэхүүн хэсэг эсвэл алхам нь болж буй илүү том үйл явдал юм Жишээлбэл, ажиглалт нь ажилбарын нэг хэсэг байх.","`Энкантур` -г ашиглаж Ажиглалтыг Үзлэгтэй холбоно. [Тэмдэглэл](StructureDefinition-mng-observation-generic.html/observation.html#obsgrouping) хэсгээс өөр Ажиглалтыг зааж, холбох зааврыг харна уу.","","","","","","","","",,,,,"",,,,"Observation.partOf",0,*,"","ele-1:FHIR-ийн бүх элементүүд @утга эсвэл дэд элементийг агуулах ёстой {hasValue() or (children().count() > id.count())}
","Event.partOf","Varies by domain",".outboundRelationship[typeCode=FLFS].target"
"Observation.status","","","",1,1,"Y","Y","Y","code {[]} {[]}
","бүртгэгдсэн | урьдчилсан | эцсийн | нэмэлт өөрчлөлт оруулсан +","Үр дүнгийн утгын статус.","Статус нь хэрэглүүр одоогоор хүчин төгөлдөр бус болохыг илэрхийлэх кодыг агуулдаг тул энэхүү элементийг хувиргагч хэмээн тэмдэглэсэн.","Хувь хүний үр дүнгийн статусыг хянах шаардлагатай. Зарим үр дүнг бүхэл бүтэн тайлан гарахаас өмнө боловсруулж дуусгадаг.","","","","","","","",,"required","Ажиглалтын статусаар хангаж буй кодууд","http://hl7.org/fhir/ValueSet/observation-status|4.0.1","",,,,"Observation.status",1,1,"","ele-1:FHIR-ийн бүх элементүүд @утга эсвэл дэд элементийг агуулах ёстой {hasValue() or (children().count() > id.count())}
","Event.status","< 445584004 |Report by finality status|","OBX-11","status  Amended & Final are differentiated by whether it is the subject of a ControlAct event with a type of ""revise""","FiveWs.status"
"Observation.category","","","",0,1,"Y","","","CodeableConcept {[]} {[]}
","Ажиглалтын төрлийн ангилал","Хийгдсэн ажиглалтын ерөнхий төрлийг ангилж буй код.","Шаардагдсан ангиллын утгын олонлогоос гадна, энэ элемент нь эзэмшигчийн ангиллын тухай болоод олон ангиллыг нэгэн зэрэг дүнтэй ашиглах тодорхойлолтод үндэслэн, төрөл бүрийн ангилалын схем ашиглах боломжийг олгодог. Нарийвчлалын түвшин нь утгын олонлог дахь ангилалын ойлголтуудаар тодорхойлогдоно.","Ямар ажиглалтыг татаж, харуулахыг шүүх зорилгоор ашигладаг.","","","","","","","",,"required","","http://fhir.mn/ValueSet/ImagingReportCategoriesMn","",,,,"Observation.category",0,*,"","ele-1:FHIR-ийн бүх элементүүд @утга эсвэл дэд элементийг агуулах ёстой {hasValue() or (children().count() > id.count())}
",".outboundRelationship[typeCode=""COMP].target[classCode=""LIST"", moodCode=""EVN""].code","FiveWs.class"
"Observation.code","","Name
","",1,1,"Y","","Y","CodeableConcept {[]} {[]}
","Ажиглалтын төрөл (код / ​​төрөл)","Юуг ажиглагдсан талаар тайлбарлана. Заримдаа үүнийг ажиглалтын ""нэр"" гэж нэрлэдэг.","Ажиглалтын утгыг зөв ойлгохын тулд *Бүх* кодын-утга болоод, хэрэв байвал component.code-component.value гэсэн хослолыг харгалзан үзэх шаардлагатай.","Ажиглалтыг ойлгоход ямар ажиглалт хийж байгааг мэдэх зайлшгүй шаардлагатай.","","","","","","","",,"example","Энгийн ажиглалтын нэрийг тодорхойлдог кодууд.","http://hl7.org/fhir/ValueSet/observation-codes","",,,,"Observation.code",1,1,"","ele-1:FHIR-ийн бүх элементүүд @утга эсвэл дэд элементийг агуулах ёстой {hasValue() or (children().count() > id.count())}
","Event.code","< 363787002 |Observable entity| OR < 386053000 |Evaluation procedure|","OBX-3","code","FiveWs.what[x]","116680003 |Is a|"
"Observation.subject","","","",1,1,"Y","","Y","Reference {[]} {[CanonicalType[http://fhir.mn/StructureDefinition/mng-core-patient]]}
","Ажиглалт нь хэн болон/эсвэл юуны тухай болох","Тухайн ажиглалт дээрх өвчтөн, эсвэл бүлэг өвчтөн, байршил, эсвэл багаж, мөн тухайн ажиглалт хэний бүртгэл дээр хадгалагдах болох нь. Ажиглалтын анхаарал хандуулж буй бодит цөм нь субьектээс өөр байвал (эсвэл субьектийн сорьц, хэсэг, эсвэл бүс хязгаар нь байвал), ""цөм"" элемент эсвэл `код` нь өөрөө ажиглалтын анхаарал хандуулж буй бодит цөмийг заана.","Энэ элементийн тоо хэмжээ нь 1..1 байна гэж тооцож болно. Субьект байхгүй байх цорын ганц нөхцөл нь ажиглалт хийж буй төхөөрөмж өвчтөнийг танихгүй байх юм. Энэ тохиолдолд ажиглалтыг өвчтөнтөй зарим хам сэдэв/суваг тохируулагч техникээр тааруулах ЁСТОЙ ба энэ үед ажиглалтыг шинэчлэх шаардлагатай.","Хэрэв та хэн эсвэл юуны тухай болохыг мэдэхгүй бол ажиглалт нь ямар ч утгагүй болно.","","","","","","","",,,,,"",,,,"Observation.subject",0,1,"","ele-1:FHIR-ийн бүх элементүүд @утга эсвэл дэд элементийг агуулах ёстой {hasValue() or (children().count() > id.count())}
","Event.subject","PID-3","participation[typeCode=RTGT]","FiveWs.subject[x]","FiveWs.subject"
"Observation.focus","","","",0,0,"Y","","Y","Reference {[]} {[CanonicalType[http://hl7.org/fhir/StructureDefinition/Resource]]}
","Ажиглалт нь бүртгэлийн субьектийн тухай биш тохиолдолд, ажиглалт юуны тухай болох нь","Бүртгэл дээрх өвчтөн нь эхнэр эсвэл нөхөр, эцэг эх, хэвлий дэх ураг, эсвэл донор гэх мэт өвчтөнтэй холбоотой хэн нэгэн эсвэл ямар нэгэн зүйлийг илтгэхгүй байгаа тохиолдолд, ажиглалтын анхаарал хандуулж буй бодит цөм нь юу болох. Жишээ нь, эхийнх нь бүртгэл дээрх ургийн тухай ажиглалт. Одоо буй эрүүл мэндийн байдал, мэс засал, субьектийн баримталдаг дэглэм, субьектийн тухай өөр ажиглалт, хавдар эсвэл суулгасан төхөөрөмж гэх мэт биед хамаарах бүтэц нь ажиглалтын анхаарал хандуулж буй цөм нь байж мөн болно. Ийм хэрэглээний жишээ нь Ажиглалт хэрэглүүрийг эх нь хүүхдийнхээ трахеостомийн гуурсыг сольж сурсан эсэхийг бүртгэхэд ашиглах байж болно. Энэ жишээнд, хүүхэд нь бүртгэлийн өвчтөн, ээж нь ажиглалтын цөм байна.","Ихэвчлэн ажиглалт нь өвчтөн, эсвэл бүлэг өвчтөн, байршил, эсвэл төхөөрөмж гэх мэт субьектийн талаар хийгддэг ба субьект болон ажиглалтаар юуг шууд хэмжиж байгаа ялгааг түүнийг кодолсон ажиглалтын кодоор (жишээ: Цусны сахар г.м) нарийвчлан тодорхойлдог ба энэ элементийг ашиглан тусад нь илэрхийлэх шаардлагагүй. Эх сурвалж руу заалт хийх шаардлагатай бол `specimen `-г ашиглана уу. Хэрэглүүрийн оронд код ашиглах шаардлагатай бол биеийн хэсэгт `bodysite`-г эсвэл [цөмКод](StructureDefinition-mng-observation-generic.html/extension-observation-focuscode.html) стандарт өргөтгөлийн алийг ч ашигласан болно.","","","","","","","","",,,,,"",,,,"Observation.focus",0,*,"","ele-1:FHIR-ийн бүх элементүүд @утга эсвэл дэд элементийг агуулах ёстой {hasValue() or (children().count() > id.count())}
","OBX-3","participation[typeCode=SBJ]","FiveWs.subject[x]","FiveWs.subject"
"Observation.encounter","","Context
","",0,1,"Y","","Y","Reference {[]} {[CanonicalType[http://fhir.mn/StructureDefinition/mng-encounter]]}
","Энэхүү ажиглалтыг хийсэн эрүүл мэндийн арга хэмжээ","Энэхүү ажиглалтыг хийсэн эрүүл мэндийн арга хэмжээ. (жишээ нь: өвтөн ба эрүүл мэндийн тусламж үйлчилгээ үзүүлэгчдийн харилцан үйлчлэл)","Энэ нь ихэвчлэн тухайн үйл явдал явцад нь тохиолдож буй энкантур байх боловч зарим үйл явдал энкантур эхлэхээс өмнө эсвэл энкантур албан ёсоор дууссаны дараа эхэлж, энкантурийн хам сэдвийн хүрээнд хамаарсан хэвээр байна. (жишээ: эмнэлэгт хэвтэлтийн өмнөх лабораторийн шинжилгээ).","Зарим ажиглалтын хувьд ажиглалт болон тодорхой энкантур хоорондын уялдаа холбоог мэдэх нь чухал байж магадгүй юм.","","","","","","","",,,,,"",,,,"Observation.encounter",0,1,"","ele-1:FHIR-ийн бүх элементүүд @утга эсвэл дэд элементийг агуулах ёстой {hasValue() or (children().count() > id.count())}
","Event.context","PV1","inboundRelationship[typeCode=COMP].source[classCode=ENC, moodCode=EVN]","FiveWs.context"
"Observation.effective[x]","","Occurrence
","",1,1,"Y","","Y","dateTime {[]} {[]}
","Тухайн ажиглалтад эмнэлзүйн хувьд хамааралтай цаг/цаг үе.","Ажиглагдсан утга үнэнд тооцогдох цаг эсвэл цаг хугацаа. Биологийн субьектүүдийн хувьд, жишээ нь өвчтэй хүний хувьд үүнийг ихэвчлэн ""физиологийн хамааралтай цаг"" гэж нэрлэдэг. Энэ нь голдуу ажилбар хийсэн цаг эсвэл сорьц цуглуулсан цаг байдаг ч ихэнхдээ огноо/цагийн эх үүсвэр нь тодорхой бус, зөвхөн огноо/цаг өөрөө байдаг.","Энэ ажиглалт нь түүхэн бүртгэл байхаас бусад тохиолдолд дор хаяж огноо харагдах ёстой. Тодорхой бус эсвэл ""бүдэг бадаг"" цаг хугацааг (Жишээ нь: цусны сахарыг ""Өглөөний цайны дараа"" хэмжсэн) бүртгэхэд хэмжилтийг амьдарлын энгийн үйл явдалтай холбох боломжийг олгодог [Timing](StructureDefinition-mng-observation-generic.html/datatypes.html#timing) өгөгдлийн төрлийг ашиглана уу.","Ажиглалт хэзээ үнэнд тооцогдсоныг мэдэх нь түүний холбоо хамаарал болон чиг хандлагыг тодорхойлоход чухал ач холбогдолтой юм.","","","","","","","",,,,,"","type:$this}
","",,"closed","Observation.effective[x]",0,1,"","ele-1:FHIR-ийн бүх элементүүд @утга эсвэл дэд элементийг агуулах ёстой {hasValue() or (children().count() > id.count())}
","Event.occurrence[x]","OBX-14, and/or OBX-19 after v2.4  (depends on who observation made)","effectiveTime","FiveWs.done[x]"
"Observation.effective[x]","effectiveDateTime","Occurrence
","",1,1,"","","Y","dateTime {[]} {[]}
","Тухайн ажиглалтад эмнэлзүйн хувьд хамааралтай цаг/цаг үе.","Ажиглагдсан утга үнэнд тооцогдох цаг эсвэл цаг хугацаа. Биологийн субьектүүдийн хувьд, жишээ нь өвчтэй хүний хувьд үүнийг ихэвчлэн ""физиологийн хамааралтай цаг"" гэж нэрлэдэг. Энэ нь голдуу ажилбар хийсэн цаг эсвэл сорьц цуглуулсан цаг байдаг ч ихэнхдээ огноо/цагийн эх үүсвэр нь тодорхой бус, зөвхөн огноо/цаг өөрөө байдаг.","Энэ ажиглалт нь түүхэн бүртгэл байхаас бусад тохиолдолд дор хаяж огноо харагдах ёстой. Тодорхой бус эсвэл ""бүдэг бадаг"" цаг хугацааг (Жишээ нь: цусны сахарыг ""Өглөөний цайны дараа"" хэмжсэн) бүртгэхэд хэмжилтийг амьдарлын энгийн үйл явдалтай холбох боломжийг олгодог [Timing](StructureDefinition-mng-observation-generic.html/datatypes.html#timing) өгөгдлийн төрлийг ашиглана уу.","Ажиглалт хэзээ үнэнд тооцогдсоныг мэдэх нь түүний холбоо хамаарал болон чиг хандлагыг тодорхойлоход чухал ач холбогдолтой юм.","","","","","","","",,,,,"",,,,"Observation.effective[x]",0,1,"","ele-1:FHIR-ийн бүх элементүүд @утга эсвэл дэд элементийг агуулах ёстой {hasValue() or (children().count() > id.count())}
","Event.occurrence[x]","OBX-14, and/or OBX-19 after v2.4  (depends on who observation made)","effectiveTime","FiveWs.done[x]"
"Observation.issued","","","",0,0,"Y","","Y","instant {[]} {[]}
","Энэ хувилбарыг ашиглах боломжтой болгосон Огноо/Цаг.","Ерөнхийдөө үр дүнг хянаж, баталгаажуулсны дараа ажиглалтын энэ хувилбарыг тусламж үйлчилгээ үзүүлэгчид ашиглах боломжтой болгосон огноо болон цаг","Хяналт ба баталгаажуулалт шаарддаггүй Ажиглалтуудын хувьд, энэ нь хэрэглүүрийн өөрийн [`lastUpdated` ](StructureDefinition-mng-observation-generic.html/resource-definitions.html#Meta.lastUpdated) цагтай адилхан байж болно.Тодорхой шинэчлэлтийг хийхэд хяналт ба баталгаажуулалт шаарддаг Ажиглалтуудын хувьд, шинэ хувилбарыг заавал дахин хянагдаж баталгаажсан байхыг шаарддаггүй, эмнэлзүйн хувьд-ач холбогдолгүй шинэчлэлтийн улмаас, энэ нь хэрэглүүрийн өөрийн `lastUpdated` цагтай адилхан биш байж болно .","","","","","","","","",,,,,"",,,,"Observation.issued",0,1,"","ele-1:FHIR-ийн бүх элементүүд @утга эсвэл дэд элементийг агуулах ёстой {hasValue() or (children().count() > id.count())}
","OBR.22 (or MSH.7), or perhaps OBX-19 (depends on who observation made)","participation[typeCode=AUT].time","FiveWs.recorded"
"Observation.performer","","","",0,*,"Y","","Y","Reference {[]} {[CanonicalType[http://fhir.mn/StructureDefinition/mng-core-practitioner-role]]}
","Ажиглалтыг хариуцагч хэн нэгэн","Ажиглагдсан утгыг ""үнэн"" гэж нотолсны хариуцлагыг хэн хүлээх нь.","","Ажиглалтад итгэх итгэл өгч, түүнтэй хамааралтай гарч ирэх асуултыг хааш нь чиглүүлэх ёстойг зааж өгнө.","","","","","","","",,,,,"",,,,"Observation.performer",0,*,"","ele-1:FHIR-ийн бүх элементүүд @утга эсвэл дэд элементийг агуулах ёстой {hasValue() or (children().count() > id.count())}
","Event.performer.actor","OBX.15 / (Practitioner)  OBX-16,  PRT-5:PRT-4='RO' /  (Device)  OBX-18 , PRT-10:PRT-4='EQUIP' / (Organization)  OBX-23,  PRT-8:PRT-4='PO'","participation[typeCode=PRF]","FiveWs.actor"
"Observation.value[x]","","","",1,1,"Y","","Y","Quantity {[]} {[]}
CodeableConcept {[]} {[]}string {[]} {[]}boolean {[]} {[]}integer {[]} {[]}Range {[]} {[]}Ratio {[]} {[]}SampledData {[]} {[]}time {[]} {[]}dateTime {[]} {[]}Period {[]} {[]}","Бодит үр дүн","Хэрэв мэдээлэл нь энгийн утгатай бол, ажиглалт хийсний үр дүнд тогтоогдсон мэдээлэл.","Ажиглалт нь дараахыг агуулж болно; 1) зөвхөн утга, 2) утга ба хамаарах эсвэл бүрэлдэхүүн утгуудын багц, 3) зөвхөн хамаарах эсвэл бүрэлдэхүүн утгуудын багц. Хэрэв утга байгаа бол, энэ элементийн өгөгдлийн төрлийг Ажиглалт.код ашиглан тодорхойлох шаардлагатай. Хэрэв талбар нь ихэвчлэн кодлогдсон бол эсвэл Ажиглалт.код-той холбоотой төрөл нь кодчилсон утгыг тодорхойлдог бол тэмдэгтийн цувааны оронд зөвхөн тексттэй КодчилжБолохОйлголт ашиглана. Нэмэлт удирдамжийг доорх байх [Тэмдэглэл хэсэг](StructureDefinition-mng-observation-generic.html/observation.html#notes)-ээс үзнэ үү.","Ажиглалт нь утга агуулахын тулд оршин тогтнодог, гэвч хэрэв энэ нь алдаатай эсвэл бүлэг ажиглалтыг илэрхийлж байвал тийм биш байж болно.","","","","","","","",,,,,"",,,,"Observation.value[x]",0,1,"obs-7
","ele-1:FHIR-ийн бүх элементүүд @утга эсвэл дэд элементийг агуулах ёстой {hasValue() or (children().count() > id.count())}
","< 441742003 |Evaluation finding|","OBX.2, OBX.5, OBX.6","value","363714003 |Interprets|"
"Observation.dataAbsentReason","","","",0,0,"Y","","","CodeableConcept {[]} {[]}
","Why the result is missing","Provides a reason why the expected value in the element Observation.value[x] is missing.","Null or exceptional values can be represented two ways in FHIR Observations.  One way is to simply include them in the value set and represent the exceptions in the value.  For example, measurement values for a serology test could be  ""detected"", ""not detected"", ""inconclusive"", or  ""specimen unsatisfactory"".   

The alternate way is to use the value element for actual observations and use the explicit dataAbsentReason element to record exceptional values.  For example, the dataAbsentReason code ""error"" could be used when the measurement was not completed. Note that an observation may only be reported if there are values to report. For example differential cell counts values may be reported only when > 0.  Because of these options, use-case agreements are required to interpret general observations for null or exceptional values.","For many results it is necessary to handle exceptional values in measurements.","","","","","","","",,"extensible","Codes specifying why the result (`Observation.value[x]`) is missing.","http://hl7.org/fhir/ValueSet/data-absent-reason","",,,,"Observation.dataAbsentReason",0,1,"obs-6
","ele-1:All FHIR elements must have a @value or children {hasValue() or (children().count() > id.count())}
","N/A","value.nullFlavor"
"Observation.interpretation","","Abnormal Flag
","",0,*,"","","","CodeableConcept {[]} {[]}
","Өндөр, бага, хэвийн гэх мэт.","Ажиглалтын утгыг ангилсан үнэлгээ. Жишээлбэл, өндөр, бага, хэвийн.","Өмнө нь лабораторийн шинжилгээний үр дүн дээр ашиглагддаг байсан ба (өөрөөр мөн ""шинжилгээний өөрчлөлтийг илэрхийлэх туг"" гэнэ), үүний хэрэглээ нь кодчилсон тайлбар ашиглаж болох бусад хэрэглээний тохиолдлууд руу нэвтэрч, өргөжсөн. Ихэвчлэн нэг эсвэл олон тооны энгийн, нягт код байдлаар мэдээлэгддэг энэ элемент нь тайлан болон үр дүнгийн график дээр үр дүнгийн утгын дараа байрлаж, тухайн үр дүнгийн илэрхийлж буй утга болон хэвийн буй эсэхийг зааж өгдөг.","Зарим үр дүн, ялангуяа тоон үр дүнгийн хувьд, үр дүнгийн ач холбогдлыг бүрэн дүүрэн ойлгохын тулд тайлбар хийх шаардлагатай.","","","","","","","",,"extensible","Ажиглалтын тайлбарыг тодорхойлдог кодууд.","http://hl7.org/fhir/ValueSet/observation-interpretation","",,,,"Observation.interpretation",0,*,"","ele-1:FHIR-ийн бүх элементүүд @утга эсвэл дэд элементийг агуулах ёстой {hasValue() or (children().count() > id.count())}
","< 260245000 |Findings values|","OBX-8","interpretationCode","363713009 |Has interpretation|"
"Observation.note","","","",0,*,"","","","Annotation {[]} {[]}
","Ажиглалтын талаархи сэтгэгдэл","Ажиглалт эсвэл үр дүнгийн талаархи сэтгэгдэл.","Ажиглалтын талаарх ерөнхий мэдэгдлүүд эсвэл мэдэгдэхүйц, гэнэтийн эсвэл найдваргүй үр дүнгийн утгын талаарх мэдэгдэл, эсвэл тайлбартай холбоотой тохиолдолд түүний эх сурвалжийн тухай мэдээллийг агуулж болно.","Чөлөөт текст хэлбэрийн нэмэлт мэдээллээр хангах боломжтой байх хэрэгтэй.","","","","","","","",,,,,"",,,,"Observation.note",0,*,"","ele-1:FHIR-ийн бүх элементүүд @утга эсвэл дэд элементийг агуулах ёстой {hasValue() or (children().count() > id.count())}
","NTE.3 (partner NTE to OBX, or sometimes another (child?) OBX)","subjectOf.observationEvent[code=""annotation""].value"
"Observation.bodySite","","","",0,0,"Y","","","CodeableConcept {[]} {[]}
","Ажиглагдсан биеийн хэсэг","Субьектийн бие дээр ажиглалт хийсэн байрлалыг заана (өөрөөр хэлбэл зорилтот хэсэг).","Зөвхөн Ажиглалт.код код дээр илэрхийлэгдээгүй тохиолдолд л хэрэглэнэ. Олон системд үүнийг дотоод бүрэлдэхүүн бус харин холбоотой ажиглалт хэлбэрээр илэрхийлж болдог.
 Хэрэв хэрэглээний тохиолдолд БиеийнХэсэг-ийг тусдаа хэрэглүүр байдлаар (жишээлбэл, тусад нь ялган таних, хянах зорилгоор) зохицуулах шаардлагатай бол стандарт өргөтгөл [биеийнХэсэг](StructureDefinition-mng-observation-generic.html/extension-bodysite.html)-ийг ашиглана уу.","","","","","","","","",,"example","Анатомийн байршлыг тодорхойлох кодууд. Хажуу талыг оруулж болно.","http://hl7.org/fhir/ValueSet/body-site","",,,,"Observation.bodySite",0,1,"","ele-1:FHIR-ийн бүх элементүүд @утга эсвэл дэд элементийг агуулах ёстой {hasValue() or (children().count() > id.count())}
","< 123037004 |Body structure|","OBX-20","targetSiteCode","718497002 |Inherent location|"
"Observation.method","","","",0,0,"Y","","","CodeableConcept {[]} {[]}
","Үүнийг хэрхэн хийсэн бэ","Ажиглалт хийхэд ашигладаг механизмыг заана.","Зөвхөн Ажиглалт.код-ын код дээр илэрхийлэгдээгүй тохиолдолд л хэрэглэнэ.","Зарим тохиолдолд, арга нь үр дүнд нөлөөлж чаддаг тул үр дүнг харьцуулж болох эсэхийг тодорхойлох эсвэл үр дүнгийн ач холбогдлыг тодорхойлоход ашигладаг.","","","","","","","",,"example","Энгийн ажиглалт хийх арга.","http://hl7.org/fhir/ValueSet/observation-methods","",,,,"Observation.method",0,1,"","ele-1:FHIR-ийн бүх элементүүд @утга эсвэл дэд элементийг агуулах ёстой {hasValue() or (children().count() > id.count())}
","OBX-17","methodCode"
"Observation.specimen","","","",0,0,"Y","","","Reference {[]} {[CanonicalType[http://hl7.org/fhir/StructureDefinition/Specimen]]}
","Specimen used for this observation","The specimen that was used when this observation was made.","Should only be used if not implicit in code found in `Observation.code`.  Observations are not made on specimens themselves; they are made on a subject, but in many cases by the means of a specimen. Note that although specimens are often involved, they are not always tracked and reported explicitly. Also note that observation resources may be used in contexts that track the specimen explicitly (e.g. Diagnostic Report).","","","","","","","","",,,,,"",,,,"Observation.specimen",0,1,"","ele-1:All FHIR elements must have a @value or children {hasValue() or (children().count() > id.count())}
","< 123038009 |Specimen|","SPM segment","participation[typeCode=SPC].specimen","704319004 |Inherent in|"
"Observation.device","","","",0,0,"Y","","","Reference {[]} {[CanonicalType[http://hl7.org/fhir/StructureDefinition/Device], CanonicalType[http://hl7.org/fhir/StructureDefinition/DeviceMetric]]}
","(Measurement) Device","The device used to generate the observation data.","Note that this is not meant to represent a device involved in the transmission of the result, e.g., a gateway.  Such devices may be documented using the Provenance resource where relevant.","","","","","","","","",,,,,"",,,,"Observation.device",0,1,"","ele-1:All FHIR elements must have a @value or children {hasValue() or (children().count() > id.count())}
","< 49062001 |Device|","OBX-17 / PRT -10","participation[typeCode=DEV]","424226004 |Using device|"
"Observation.referenceRange","","","",0,*,"Y","","","BackboneElement {[]} {[]}
","Хэрхэн тайлбарлах талаар удирдамжаар хангана","Хэвийн эсвэл санал болгосон утгатай харьцуулж утгыг хэрхэн тайлбарлах тухай заавар. Олон лавлах утгыг ""ЭСВЭЛ"" гэсэн байдлаар тайлбарладаг. Өөрөөр хэлбэл, хоёр өөр зорилтот хүн амыг илэрхийлэхийн тулд хоёр `лавлахХэмжээ` элементийг ашиглана.","Ихэнх ажиглалтууд нь зөвхөн нэг ерөнхий лавлах хэмжээтэй байдаг. Систем нь зөвхөн өвчтөний талаарх мэдлэг (жишээлбэл, өвчтөний нас, хүйс, жин болон бусад хүчин зүйлүүд) дээр үндэслэн зөвхөн хамааралтай лавлах хэмжээг хангахаар хязгаарласан сонголт хийж БОЛОХ боловч энэ нь боломжгүй эсвэл тохиромжгүй байж болох юм. Нэгээс илүү лавлах хэмжээ өгөх тохиолдолд тэдгээрийн хоорондын ялгааг лавлах хэмжээ болон/эсвэл насны шинж чанар дээр өгөх ХЭРЭГТЭЙ.","Ямар утгыг ""хэвийн""-д тооцохыг мэдэх нь тодорхой үр дүнгийн ач холбогдлыг үнэлэхэд тусалдаг. Янз бүрийн нөхцөл, хам хүрээнд хэд хэдэн лавлах хэмжээгээр хангах боломжтой байх хэрэгтэй.","","","","","","","",,,,,"",,,,"Observation.referenceRange",0,*,"","ele-1:FHIR-ийн бүх элементүүд @утга эсвэл дэд элементийг агуулах ёстой {hasValue() or (children().count() > id.count())}
obs-3:Дор хаяж бага эсвэл өндөр эсвэл текст байх ёстой {low.exists() or high.exists() or text.exists()}","OBX.7","outboundRelationship[typeCode=REFV]/target[classCode=OBS, moodCode=EVN]"
"Observation.referenceRange.id","","","",0,1,"","","","string {[]} {[]}
","Элемент-хоорондын заалт хийх дахин давтагдашгүй id","Элемент дотооддоо заалт хийх дахин давтагдашгүй id (дотоодын заалт хийхэд зориулагдсан). Энэ нь зай агуулаагүй, ямар ч төрлийн тэмдэгтийн цуваан утга байж болно.","","","","","","","","","",,,,,"",,,,"Element.id",0,1,"","","n/a"
"Observation.referenceRange.extension","","extensions
user content","",0,*,"","","","Extension {[]} {[]}
","Is ""by"" same as ""during the implementation""?","Элементийн үндсэн тодорхойлолтод ороогүй, нэмэлт мэдээллийг илэрхийлэхэд ашиглагдаж болно. Өргөтгөлийн хэрэглээг аюулгүй, зохион байгуулахад дөхөм байлгах үүднээс шинэ өргөтгөл тодорхойлох болон хэрэглэх явдлыг хатуу чанд тодорхойлсон байдаг. Бүх хэрэгжүүлэгч шинэ өргөтгөл тодорхойлж болох боловч өргөтгөлийн тодорхойлолтын хэсэг болон мөрдөгдөх ЁСТОЙ багц шаардлага байдаг.","Өргөтгөлийг ашиглаж эсвэл тодорхойлж буй байгууллага эсвэл хууль эрх зүйн хүрээний байдлаас үл хамааран, ямар ч програм, төсөл, стандартад өргөтгөлийг ашиглахад буруутгах зүйл байх ёсгүй. Өргөтгөлийн хэрэглээ нь FHIR-ийн тодорхойлолтыг хүн бүрийн хэрэгцээнд нийцэхүйц, энгийн түвшинд байх боломжийг олгож буй хүчин зүйл юм.","","","","","","","","",,,,,"",,,,"Element.extension",0,*,"","ele-1:FHIR-ийн бүх элементүүд @утга эсвэл дэд элементийг агуулах ёстой {hasValue() or (children().count() > id.count())}
ext-1:Өргөтгөл эсвэл утга[x]-ийн аль нэгийг агуулах ёстой, хоёуланг нь агуулж болохгүй {extension.exists() != value.exists()}","n/a"
"Observation.referenceRange.modifierExtension","","extensions
user contentmodifiers","",0,*,"","Y","Y","Extension {[]} {[]}
","Танигдахгүй байсан ч хэрэгсэхгүй байж болохгүй өргөтгөлүүд","Хэрэглүүрийн үндсэн тодорхойлолтын хэсэг биш бөгөөд үүнийг агуулж буй элементийн тухай ойлголтыг болон / эсвэл агуулсан элементэд агуулагдах бүтцүүдийн тухай ойлголтыг өөрчлөх чадвартай нэмэлт мэдээллийг илэрхийлэхэд ашиглаж болно. Хувиргагч элементүүд нь ихэвчлэн үгүйсгэл эсвэл хязгаарлалтыг агуулдаг. Өргөтгөлийн хэрэглээг аюулгүй, зохион байгуулахад дөхөм байлгах үүднээс шинэ өргөтгөл тодорхойлох болон хэрэглэх явдлыг хатуу чанд тодорхойлсон байдаг. Бүх хэрэгжүүлэгч шинэ өргөтгөл тодорхойлж болох боловч өргөтгөлийн тодорхойлолтын хэсэг болон мөрдөгдөх ЁСТОЙ багц шаардлага байдаг. Хэрэглүүрийг боловсруулдаг аппликейшнүүд нь хувиргагч өргөтгөлүүдийг хянаж байх шаардлагатай. 

 Хувиргагч өргөтгөл нь Хэрэглүүр эсвэл ДомейнХэрэглүүр (мөн хувиргагчӨргөтгөлийн утгыг өөрчилж болохгүй) дээрх ямар нэг элементийн утгыг өөрчлөх ЁСГҮЙ.","Өргөтгөлийг ашиглаж эсвэл тодорхойлж буй байгууллага эсвэл хууль эрх зүйн хүрээний байдлаас үл хамааран, ямар ч програм, төсөл, стандартад өргөтгөлийг ашиглахад буруутгах зүйл байх ёсгүй. Өргөтгөлийн хэрэглээ нь FHIR-ийн тодорхойлолтыг хүн бүрийн хэрэгцээнд нийцэхүйц, энгийн түвшинд байх боломжийг олгож буй хүчин зүйл юм.","Хувиргагч өргөтгөл нь хэрэгсэхгүй байж *болохгүй* өргөтгөлүүдийг, хэрэгсэхгүй байж болох өргөтгөлүүдээс тодорхой ялгах боломжийг олгодог. Энэ нь хэрэгжүүлэгчид өргөтгөл байх эсэхийг хязгаарлах хэрэгцээг багасган, цахим систем хоорондын зохицлыг сайжруулдаг. Дэлгэрэнгүй мэдээллийг [хувиргагч өргөтгөлийн тодорхойлолт(extensibility.html#modifierExtension) хэсгээс үзнэ үү.","","","","","","","",,,,,"",,,,"BackboneElement.modifierExtension",0,*,"","ele-1:FHIR-ийн бүх элементүүд @утга эсвэл дэд элементийг агуулах ёстой {hasValue() or (children().count() > id.count())}
ext-1:Өргөтгөл эсвэл утга[x]-ийн аль нэгийг агуулах ёстой, хоёуланг нь агуулж болохгүй {extension.exists() != value.exists()}","N/A"
"Observation.referenceRange.low","","","",0,1,"","","","Quantity {[CanonicalType[http://hl7.org/fhir/StructureDefinition/SimpleQuantity]]} {[]}
","Хэрэв шаардлагатай бол, Доод Хэмжээ","Лавлах хэмжээний доод хязгаарын утга. Лавлах хэмжээний төгсгөлийн цэгийн доод хязгаарт утга нь багтсан байна (жишээ нь: лавлах хэмжээ >=5 - <=9). Хэрэв доод хязгаарыг орхигдуулсан бол доод хязгаар нь утга илэрхийлэхгүй гэж үзнэ (жишээ нь, лавлах утга <=2.3).","","","","","","","","","",,,,,"",,,,"Observation.referenceRange.low",0,1,"obs-3
","ele-1:FHIR-ийн бүх элементүүд @утга эсвэл дэд элементийг агуулах ёстой {hasValue() or (children().count() > id.count())}
","OBX-7","value:IVL_PQ.low"
"Observation.referenceRange.high","","","",0,1,"","","","Quantity {[CanonicalType[http://hl7.org/fhir/StructureDefinition/SimpleQuantity]]} {[]}
","Хэрэв шаардлагатай бол, Дээд Хэмжээ","Лавлах утгын дээд хязгаарын утга. Лавлах утгын төгсгөлийн өндөр цэг нь утгыг агуулдаг (жишээ нь, лавлах утга>> 5 - <= 9). Хэрэв дээд хязгаарыг орхигдуулсан бол энэ нь утгагүй болно (жишээ нь, лавлах утга> = 2.3).","","","","","","","","","",,,,,"",,,,"Observation.referenceRange.high",0,1,"obs-3
","ele-1:FHIR-ийн бүх элементүүд @утга эсвэл дэд элементийг агуулах ёстой {hasValue() or (children().count() > id.count())}
","OBX-7","value:IVL_PQ.high"
"Observation.referenceRange.type","","","",0,0,"Y","","","CodeableConcept {[]} {[]}
","Лавлах хэмжээг тодорхойлогч","Зорилтот лавлагаа хүн амын аль хэсэгт энэ хамаарч буйг илэрхийлэх кодууд. Жишээлбэл, ердийн эсвэл эмчилгээний хэмжээ.","Хэрэв нэгээс олон утга байвал үүн дээр өгөгдөл оруулах ХЭРЭГТЭЙ. Хэрэв энэ элемент байхгүй бол хэвийн хэмжээгээр тооцно.","Зохих ёсоор тайлбарлахын тулд энэ нь - хэвийн, зөвлөж буй, эмчилгээний гэх мэт ямар төрлийн лавлах хэмжээ гэдгийг хэлэх чадвартай байх шаардлагатай.","","","","","","","",,"preferred","Лавлах хэмжээний утгад харгалзах код","http://hl7.org/fhir/ValueSet/referencerange-meaning","",,,,"Observation.referenceRange.type",0,1,"","ele-1:FHIR-ийн бүх элементүүд @утга эсвэл дэд элементийг агуулах ёстой {hasValue() or (children().count() > id.count())}
","< 260245000 |Findings values| OR  < 365860008 |General clinical state finding| OR < 250171008 |Clinical history or observation findings| OR  < 415229000 |Racial group| OR < 365400002 |Finding of puberty stage| OR< 443938003 |Procedure carried out on subject|","OBX-10","interpretationCode"
"Observation.referenceRange.appliesTo","","","",0,0,"Y","","","CodeableConcept {[]} {[]}
","Reference range population","Codes to indicate the target population this reference range applies to.  For example, a reference range may be based on the normal population or a particular sex or race.  Multiple `appliesTo`  are interpreted as an ""AND"" of the target populations.  For example, to represent a target population of African American females, both a code of female and a code for African American would be used.","This SHOULD be populated if there is more than one range.  If this element is not present then the normal population is assumed.","Need to be able to identify the target population for proper interpretation.","","","","","","","",,"example","Codes identifying the population the reference range applies to.","http://hl7.org/fhir/ValueSet/referencerange-appliesto","",,,,"Observation.referenceRange.appliesTo",0,*,"","ele-1:All FHIR elements must have a @value or children {hasValue() or (children().count() > id.count())}
","< 260245000 |Findings values| OR  < 365860008 |General clinical state finding| OR < 250171008 |Clinical history or observation findings| OR  < 415229000 |Racial group| OR < 365400002 |Finding of puberty stage| OR< 443938003 |Procedure carried out on subject|","OBX-10","interpretationCode"
"Observation.referenceRange.age","","","",0,0,"Y","","","Range {[]} {[]}
","Applicable age range, if relevant","The age at which this reference range is applicable. This is a neonatal age (e.g. number of weeks at term) if the meaning says so.","","Some analytes vary greatly over age.","","","","","","","",,,,,"",,,,"Observation.referenceRange.age",0,1,"","ele-1:All FHIR elements must have a @value or children {hasValue() or (children().count() > id.count())}
","outboundRelationship[typeCode=PRCN].targetObservationCriterion[code=""age""].value"
"Observation.referenceRange.text","","","",0,0,"Y","","","string {[]} {[]}
","Ажиглалт дахь текстэн лавлах хэмжээ","Ажиглалтад тоон лавлах хэмжээ тохиромжгүй тохиолдолд ашиглагдах текстэн лавлах хэмжээ. Үүний жишээ нь ""Сөрөг"" лавлах хэмжээ, эсвэл ""Хэвийн"" үзүүлэлтүүдийн жагсаалт эсвэл хүснэгт байж болно.","","","","","","","","","",,,,,"",,,,"Observation.referenceRange.text",0,1,"","ele-1:FHIR-ийн бүх элементүүд @утга эсвэл дэд элементийг агуулах ёстой {hasValue() or (children().count() > id.count())}
","OBX-7","value:ST"
"Observation.hasMember","","","",0,0,"Y","","Y","Reference {[]} {[CanonicalType[http://hl7.org/fhir/StructureDefinition/Observation], CanonicalType[http://hl7.org/fhir/StructureDefinition/QuestionnaireResponse], CanonicalType[http://hl7.org/fhir/StructureDefinition/MolecularSequence]]}
","Ажиглалтын бүлэгт хамаарах холбогдох хэрэглүүр","Энэхүү ажиглалт нь ажиглаж буй зорилтот байгаа бүлгийн гишүүн байдлаар багтаасан бүлэг ажиглалт (жишээ нь: батерей, бүлэг шинжилгээний үзүүлэлтүүд, багц амин үзүүлэлтүүдийн хэмжилт) юм.","Энэ элементийг ашиглах үед, ажиглалт нь ихэвчлэн утга эсвэл холбогдох багц хэрэглүүрийг агуулдаг, гэвч зарим тохиолдолд хоёулаа байж болох юм. Ажиглалтуудыг бүлэглэн нэгтгэх арга замын мэдээллийг доор байх [Тэмдэглэл](StructureDefinition-mng-observation-generic.html/ажиглалт.html # obsgrouping) хэсгээс үзнэ үү. Систем нь [АсуумжийнХариу](StructureDefinition-mng-observation-generic.html/questionnaireresponse.html)-ийн үр дүнгүүдийг тооцоолон эцсийн оноог бодож, тухайн оноог Ажиглалт байдлаар илэрхийлж болохыг анхаарна уу.","","","","","","","","",,,,,"",,,,"Observation.hasMember",0,*,"","ele-1:FHIR-ийн бүх элементүүд @утга эсвэл дэд элементийг агуулах ёстой {hasValue() or (children().count() > id.count())}
","Relationships established by OBX-4 usage","outBoundRelationship"
"Observation.derivedFrom","","","",0,0,"Y","","Y","Reference {[]} {[CanonicalType[http://hl7.org/fhir/StructureDefinition/DocumentReference], CanonicalType[http://hl7.org/fhir/StructureDefinition/ImagingStudy], CanonicalType[http://hl7.org/fhir/StructureDefinition/Media], CanonicalType[http://hl7.org/fhir/StructureDefinition/QuestionnaireResponse], CanonicalType[http://hl7.org/fhir/StructureDefinition/Observation], CanonicalType[http://hl7.org/fhir/StructureDefinition/MolecularSequence]]}
","Ажиглалт хийгдсэн холбогдох хэмжилтүүд","Энэхүү ажиглалтын утгыг гаргаж буй хэмжилтийг илэрхийлсэн зорилтот хэрэглүүр. Жишээлбэл, хэт авиан зураг дээр үндэслэсэн анионы тооцоолсон зөрөө эсвэл ургийн хэмжилт.","Энэ элементэд жагсаасан бүх заалтын сонголт нь эмнэлзүйн ажиглалтыг болон үүссэн утгад эх сурвалж байж болох бусад хэмжилтүүдийг илэрхийлж болно. Хамгийн нийтлэг тохиолдох заалт нь өөр нэг Ажиглалт юм. Ажиглалтуудыг бүлэглэн нэгтгэх арга замын мэдээллийг доор байх [Тэмдэглэл](StructureDefinition-mng-observation-generic.html/ажиглалт.html # obsgrouping) хэсгээс үзнэ үү.","","","","","","","","",,,,,"",,,,"Observation.derivedFrom",0,*,"","ele-1:FHIR-ийн бүх элементүүд @утга эсвэл дэд элементийг агуулах ёстой {hasValue() or (children().count() > id.count())}
","Relationships established by OBX-4 usage",".targetObservation"
"Observation.component","","","",0,*,"Y","","Y","BackboneElement {[]} {[]}
","Бүрэлдэхүүн хэсгийн үр дүн","Зарим ажиглалтууд нь хэд хэдэн бүрэлдэхүүн ажиглалтуудтай байдаг. Эдгээр бүрэлдэхүүн ажиглалтууд нь өөр хоорондоо ижил шинж чанартай, код утгын тусдаа хослолоор илэрхийлэгддэг. Жишээ нь: цусны даралтыг хэмжих систолын болон диастолын бүрэлдэхүүн ажиглалтууд, генетикийн ажиглалт хийх хэд хэдэн бүрэлдэхүүн ажиглалт.","Ажиглалтуудыг бүлэглэн нэгтгэх арга замын мэдээллийг доор байх [Тэмдэглэл](StructureDefinition-mng-observation-generic.html/ажиглалт.html # obsgrouping) хэсгээс үзнэ үү.","Бүрэлдэхүүн ажиглалтууд нь Ажиглалт хэрэглүүрийн дотор, анхдагч ажиглалттай адил шинж чанартай байх ба тэдгээрийг үргэлж нэг ажиглалтын хэсэг гэж авч үздэг (тэдгээрийг салгах боломжгүй байдаг). Гэсэн хэдий ч анхдагч ажиглалтын утгад тохирох лавлах хэмжээ нь бүрэлдэхүүн утгуудад дамжин хэрэглэгдэхгүй бөгөөд бүрэлдэхүүн ажиглалт бүрт тохирч буй нөхцөлд л ингэж хэрэглэх шаардлагатай байна.","","","","","","","",,,,,"",,,,"Observation.component",0,*,"","ele-1:FHIR-ийн бүх элементүүд @утга эсвэл дэд элементийг агуулах ёстой {hasValue() or (children().count() > id.count())}
","containment by OBX-4?","outBoundRelationship[typeCode=COMP]"
"Observation.component.id","","","",0,1,"","","","string {[]} {[]}
","Элемент-хоорондын заалт хийх дахин давтагдашгүй id","Элемент дотооддоо заалт хийх дахин давтагдашгүй id (дотоодын заалт хийхэд зориулагдсан). Энэ нь зай агуулаагүй, ямар ч төрлийн тэмдэгтийн цуваан утга байж болно.","","","","","","","","","",,,,,"",,,,"Element.id",0,1,"","","n/a"
"Observation.component.extension","","extensions
user content","",0,*,"","","","Extension {[]} {[]}
","Is ""by"" same as ""during the implementation""?","Элементийн үндсэн тодорхойлолтод ороогүй, нэмэлт мэдээллийг илэрхийлэхэд ашиглагдаж болно. Өргөтгөлийн хэрэглээг аюулгүй, зохион байгуулахад дөхөм байлгах үүднээс шинэ өргөтгөл тодорхойлох болон хэрэглэх явдлыг хатуу чанд тодорхойлсон байдаг. Бүх хэрэгжүүлэгч шинэ өргөтгөл тодорхойлж болох боловч өргөтгөлийн тодорхойлолтын хэсэг болон мөрдөгдөх ЁСТОЙ багц шаардлага байдаг.","Өргөтгөлийг ашиглаж эсвэл тодорхойлж буй байгууллага эсвэл хууль эрх зүйн хүрээний байдлаас үл хамааран, ямар ч програм, төсөл, стандартад өргөтгөлийг ашиглахад буруутгах зүйл байх ёсгүй. Өргөтгөлийн хэрэглээ нь FHIR-ийн тодорхойлолтыг хүн бүрийн хэрэгцээнд нийцэхүйц, энгийн түвшинд байх боломжийг олгож буй хүчин зүйл юм.","","","","","","","","",,,,,"",,,,"Element.extension",0,*,"","ele-1:FHIR-ийн бүх элементүүд @утга эсвэл дэд элементийг агуулах ёстой {hasValue() or (children().count() > id.count())}
ext-1:Өргөтгөл эсвэл утга[x]-ийн аль нэгийг агуулах ёстой, хоёуланг нь агуулж болохгүй {extension.exists() != value.exists()}","n/a"
"Observation.component.modifierExtension","","extensions
user contentmodifiers","",0,*,"","Y","Y","Extension {[]} {[]}
","Танигдахгүй байсан ч хэрэгсэхгүй байж болохгүй өргөтгөлүүд","Хэрэглүүрийн үндсэн тодорхойлолтын хэсэг биш бөгөөд үүнийг агуулж буй элементийн тухай ойлголтыг болон / эсвэл агуулсан элементэд агуулагдах бүтцүүдийн тухай ойлголтыг өөрчлөх чадвартай нэмэлт мэдээллийг илэрхийлэхэд ашиглаж болно. Хувиргагч элементүүд нь ихэвчлэн үгүйсгэл эсвэл хязгаарлалтыг агуулдаг. Өргөтгөлийн хэрэглээг аюулгүй, зохион байгуулахад дөхөм байлгах үүднээс шинэ өргөтгөл тодорхойлох болон хэрэглэх явдлыг хатуу чанд тодорхойлсон байдаг. Бүх хэрэгжүүлэгч шинэ өргөтгөл тодорхойлж болох боловч өргөтгөлийн тодорхойлолтын хэсэг болон мөрдөгдөх ЁСТОЙ багц шаардлага байдаг. Хэрэглүүрийг боловсруулдаг аппликейшнүүд нь хувиргагч өргөтгөлүүдийг хянаж байх шаардлагатай. 

 Хувиргагч өргөтгөл нь Хэрэглүүр эсвэл ДомейнХэрэглүүр (мөн хувиргагчӨргөтгөлийн утгыг өөрчилж болохгүй) дээрх ямар нэг элементийн утгыг өөрчлөх ЁСГҮЙ.","Өргөтгөлийг ашиглаж эсвэл тодорхойлж буй байгууллага эсвэл хууль эрх зүйн хүрээний байдлаас үл хамааран, ямар ч програм, төсөл, стандартад өргөтгөлийг ашиглахад буруутгах зүйл байх ёсгүй. Өргөтгөлийн хэрэглээ нь FHIR-ийн тодорхойлолтыг хүн бүрийн хэрэгцээнд нийцэхүйц, энгийн түвшинд байх боломжийг олгож буй хүчин зүйл юм.","Хувиргагч өргөтгөл нь хэрэгсэхгүй байж *болохгүй* өргөтгөлүүдийг, хэрэгсэхгүй байж болох өргөтгөлүүдээс тодорхой ялгах боломжийг олгодог. Энэ нь хэрэгжүүлэгчид өргөтгөл байх эсэхийг хязгаарлах хэрэгцээг багасган, цахим систем хоорондын зохицлыг сайжруулдаг. Дэлгэрэнгүй мэдээллийг [хувиргагч өргөтгөлийн тодорхойлолт(extensibility.html#modifierExtension) хэсгээс үзнэ үү.","","","","","","","",,,,,"",,,,"BackboneElement.modifierExtension",0,*,"","ele-1:FHIR-ийн бүх элементүүд @утга эсвэл дэд элементийг агуулах ёстой {hasValue() or (children().count() > id.count())}
ext-1:Өргөтгөл эсвэл утга[x]-ийн аль нэгийг агуулах ёстой, хоёуланг нь агуулж болохгүй {extension.exists() != value.exists()}","N/A"
"Observation.component.code","","","",1,1,"Y","","Y","CodeableConcept {[]} {[]}
","Бүрэлдэхүүн ажиглалтын төрөл (код / төрөл)","Юу ажиглагдсан талаар тайлбарлана. Заримдаа үүнийг ажиглалтын ""код"" гэж нэрлэдэг.","Ажиглалтын утгыг үнэн зөв ойлгохын тулд * Бүх * код-утга болон бүрэлдэхүүн.код-бүрэлдэхүүн.утга хослолыг харгалзан үзэх хэрэгтэй.","Ажиглалтыг ойлгоход ямар ажиглалт хийж байгааг мэдэх зайлшгүй шаардлагатай.","","","","","","","",,"example","Энгийн ажиглалтын нэрийг тодорхойлдог кодууд.","http://hl7.org/fhir/ValueSet/observation-codes","",,,,"Observation.component.code",1,1,"","ele-1:FHIR-ийн бүх элементүүд @утга эсвэл дэд элементийг агуулах ёстой {hasValue() or (children().count() > id.count())}
","< 363787002 |Observable entity| OR < 386053000 |Evaluation procedure|","OBX-3","code","FiveWs.what[x]"
"Observation.component.value[x]","","","",1,1,"Y","","Y","Quantity {[]} {[]}
CodeableConcept {[]} {[]}string {[]} {[]}boolean {[]} {[]}integer {[]} {[]}Range {[]} {[]}Ratio {[]} {[]}SampledData {[]} {[]}time {[]} {[]}dateTime {[]} {[]}Period {[]} {[]}","Бодит, бүрэлдэхүүн үр дүн","Хэрэв мэдээлэл нь энгийн утгатай бол, ажиглалт хийсний үр дүнд тогтоогдсон мэдээлэл.","Ажиглалт нь багц бүрэлдэхүүн ажиглалтыг агуулсан үед ашигладаг. Ажиглалт нь утга (ж.нь Апгарын оноо) болон бүрэлдэхүүн ажиглалтын (Aпгарын оноог бодоход ашигласан ажиглалтууд) аль алиныг агуулж болно. Хэрэв утга байвал, энэ элементийн өгөгдлийн төрөл нь Ажиглалт.код-оор тодорхойлогдоно. Хэрэв талбар нь ихэвчлэн кодлогдсон бол эсвэл Ажиглалт.код-той холбоотой төрөл нь кодчилсон утгыг тодорхойлдог бол тэмдэгтийн цувааны оронд зөвхөн тексттэй CodeableConcepts ашиглана. Нэмэлт удирдамжийг доор байх [Тэмдэглэл хэсэг](StructureDefinition-mng-observation-generic.html/observation.html#notes)-ээс үзнэ үү.","Ажиглалт нь утга агуулахын тулд оршин тогтнодог, гэвч хэрэв энэ нь алдаатай эсвэл бүлэг ажиглалтыг илэрхийлж байвал тийм биш байж болно.","","","","","","","",,,,,"",,,,"Observation.component.value[x]",0,1,"","ele-1:FHIR-ийн бүх элементүүд @утга эсвэл дэд элементийг агуулах ёстой {hasValue() or (children().count() > id.count())}
","363714003 |Interprets| < 441742003 |Evaluation finding|","OBX.2, OBX.5, OBX.6","value","363714003 |Interprets|"
"Observation.component.dataAbsentReason","","","",0,0,"Y","","","CodeableConcept {[]} {[]}
","Яагаад бүрэлдэхүүн үр дүн байхгүй байгааг илэрхийлнэ","Ажиглалт.бүрэлдэхүүн.утга[x] элементэд хүлээгдэж буй утга байхгүй байгаа шалтгааныг зааж өгнө.","""Хоосон"" эсвэл онцгой утгыг FHIR ажиглалт дээр хоёр аргаар илэрхийлж болно. Эхний арга нь тэдгээрийг энгийнээр утгын олонлог дотроо оруулаад онцгой нөхцөлүүдийг утга дээр нь илэрхийлэх юм. Жишээлбэл, серологийн шинжилгээний хэмжилтийн утгууд нь ""илэрсэн"", ""илрээгүй"", ""шийдвэр гаргах боломжгүй"" эсвэл ""шинжилгээ хийгдээгүй"" байж болно. 
 
 Хоёр дахь арга нь тухайн ажиглалтад утга элементийг ашиглах, онцгой утгуудыг бүртгэхдээ өгөгдөлБайхгүйШалтгаан элементийг ашиглах юм. Жишээлбэл, хэмжилтийг хийж дуусаагүй нөхцөлд өгөгдөлБайхгүйШалтгаан ""алдаа"" кодыг ашиглаж болно. Дээрх боломжит сонголтуудын учир, онцгой утгуудын хувьд ерөнхий ажиглалтыг тайлбарлахад, хэрэглээний-тохиолдлууд дээр санал нэгдэх шаардлагатай байдаг.","Олон төрлийн үр дүнгийн хувьд, хэмжилтүүд дээрх онцгой утгыг зохицуулах нь нэн чухал байдаг.","","","","","","","",,"extensible","Үр дүн (`Ажиглалт.утга[x]`) нь яагаад байхгүй болохыг заасан код .","http://hl7.org/fhir/ValueSet/data-absent-reason","",,,,"Observation.component.dataAbsentReason",0,1,"obs-6
","ele-1:FHIR-ийн бүх элементүүд @утга эсвэл дэд элементийг агуулах ёстой {hasValue() or (children().count() > id.count())}
","N/A","value.nullFlavor"
"Observation.component.interpretation","","Abnormal Flag
","",1,1,"Y","","","CodeableConcept {[]} {[]}
","Өндөр, бага, хэвийн гэх мэт.","Ажиглалтын утгыг ангилсан үнэлгээ. Жишээлбэл, өндөр, бага, хэвийн.","Өмнө нь лабораторийн шинжилгээний үр дүн дээр ашиглагддаг байсан ба (өөрөөр мөн ""шинжилгээний өөрчлөлтийг илэрхийлэх туг"" гэнэ), үүний хэрэглээ нь кодчилсон тайлбар ашиглаж болох бусад хэрэглээний тохиолдлууд руу нэвтэрч, өргөжсөн. Ихэвчлэн нэг эсвэл олон тооны энгийн, нягт код байдлаар мэдээлэгддэг энэ элемент нь тайлан болон үр дүнгийн график дээр үр дүнгийн утгын дараа байрлаж, тухайн үр дүнгийн илэрхийлж буй утга болон хэвийн буй эсэхийг зааж өгдөг.","Зарим үр дүн, ялангуяа тоон үр дүнгийн хувьд, үр дүнгийн ач холбогдлыг бүрэн дүүрэн ойлгохын тулд тайлбар хийх шаардлагатай.","","","","","","","",,"extensible","Ажиглалтын тайлбарыг тодорхойлдог кодууд.","http://hl7.org/fhir/ValueSet/observation-interpretation","",,,,"Observation.component.interpretation",0,*,"","ele-1:FHIR-ийн бүх элементүүд @утга эсвэл дэд элементийг агуулах ёстой {hasValue() or (children().count() > id.count())}
","< 260245000 |Findings values|","OBX-8","interpretationCode","363713009 |Has interpretation|"
"Observation.component.referenceRange","","","",0,*,"Y","","","BackboneElement {[]} {[]}
","Бүрэлдэхүүн үр дүнг тайлбарлах арга замыг заана.","Ердийн эсвэл санал болгосон хэмжээтэй харьцуулж, утгыг хэрхэн тайлбарлах тухай заавар.","Ихэнх ажиглалтууд нь зөвхөн нэг ерөнхий лавлах хэмжээтэй байдаг. Систем нь зөвхөн өвчтөний талаарх мэдлэг (жишээлбэл, өвчтөний нас, хүйс, жин болон бусад хүчин зүйлүүд) дээр үндэслэн зөвхөн хамааралтай лавлах хэмжээг хангахаар хязгаарласан сонголт хийж БОЛОХ боловч энэ нь боломжгүй эсвэл тохиромжгүй байж болох юм. Нэгээс илүү лавлах хэмжээ өгөх тохиолдолд тэдгээрийн хоорондын ялгааг лавлах хэмжээ болон/эсвэл насны шинж чанар дээр өгөх ХЭРЭГТЭЙ.","Ямар утгыг ""хэвийн""-д тооцохыг мэдэх нь тодорхой үр дүнгийн ач холбогдлыг үнэлэхэд тусалдаг. Янз бүрийн нөхцөл, хам хүрээнд хэд хэдэн лавлах хэмжээгээр хангах боломжтой байх хэрэгтэй.","","","","","","","",,,,,"",,,,"Observation.component.referenceRange",0,*,"","ele-1:FHIR-ийн бүх элементүүд @утга эсвэл дэд элементийг агуулах ёстой {hasValue() or (children().count() > id.count())}
","OBX.7","outboundRelationship[typeCode=REFV]/target[classCode=OBS, moodCode=EVN]"
"Observation.component.referenceRange.id","","","",0,1,"","","","string {[]} {[]}
","Элемент-хоорондын заалт хийх дахин давтагдашгүй id","Элемент дотооддоо заалт хийх дахин давтагдашгүй id (дотоодын заалт хийхэд зориулагдсан). Энэ нь зай агуулаагүй, ямар ч төрлийн тэмдэгтийн цуваан утга байж болно.","","","","","","","","","",,,,,"",,,,"Element.id",0,1,"","","n/a"
"Observation.component.referenceRange.extension","","extensions
user content","",0,*,"","","","Extension {[]} {[]}
","Is ""by"" same as ""during the implementation""?","Элементийн үндсэн тодорхойлолтод ороогүй, нэмэлт мэдээллийг илэрхийлэхэд ашиглагдаж болно. Өргөтгөлийн хэрэглээг аюулгүй, зохион байгуулахад дөхөм байлгах үүднээс шинэ өргөтгөл тодорхойлох болон хэрэглэх явдлыг хатуу чанд тодорхойлсон байдаг. Бүх хэрэгжүүлэгч шинэ өргөтгөл тодорхойлж болох боловч өргөтгөлийн тодорхойлолтын хэсэг болон мөрдөгдөх ЁСТОЙ багц шаардлага байдаг.","Өргөтгөлийг ашиглаж эсвэл тодорхойлж буй байгууллага эсвэл хууль эрх зүйн хүрээний байдлаас үл хамааран, ямар ч програм, төсөл, стандартад өргөтгөлийг ашиглахад буруутгах зүйл байх ёсгүй. Өргөтгөлийн хэрэглээ нь FHIR-ийн тодорхойлолтыг хүн бүрийн хэрэгцээнд нийцэхүйц, энгийн түвшинд байх боломжийг олгож буй хүчин зүйл юм.","","","","","","","","",,,,,"",,,,"Element.extension",0,*,"","ele-1:FHIR-ийн бүх элементүүд @утга эсвэл дэд элементийг агуулах ёстой {hasValue() or (children().count() > id.count())}
ext-1:Өргөтгөл эсвэл утга[x]-ийн аль нэгийг агуулах ёстой, хоёуланг нь агуулж болохгүй {extension.exists() != value.exists()}","n/a"
"Observation.component.referenceRange.modifierExtension","","extensions
user contentmodifiers","",0,*,"","Y","Y","Extension {[]} {[]}
","Танигдахгүй байсан ч хэрэгсэхгүй байж болохгүй өргөтгөлүүд","Хэрэглүүрийн үндсэн тодорхойлолтын хэсэг биш бөгөөд үүнийг агуулж буй элементийн тухай ойлголтыг болон / эсвэл агуулсан элементэд агуулагдах бүтцүүдийн тухай ойлголтыг өөрчлөх чадвартай нэмэлт мэдээллийг илэрхийлэхэд ашиглаж болно. Хувиргагч элементүүд нь ихэвчлэн үгүйсгэл эсвэл хязгаарлалтыг агуулдаг. Өргөтгөлийн хэрэглээг аюулгүй, зохион байгуулахад дөхөм байлгах үүднээс шинэ өргөтгөл тодорхойлох болон хэрэглэх явдлыг хатуу чанд тодорхойлсон байдаг. Бүх хэрэгжүүлэгч шинэ өргөтгөл тодорхойлж болох боловч өргөтгөлийн тодорхойлолтын хэсэг болон мөрдөгдөх ЁСТОЙ багц шаардлага байдаг. Хэрэглүүрийг боловсруулдаг аппликейшнүүд нь хувиргагч өргөтгөлүүдийг хянаж байх шаардлагатай. 

 Хувиргагч өргөтгөл нь Хэрэглүүр эсвэл ДомейнХэрэглүүр (мөн хувиргагчӨргөтгөлийн утгыг өөрчилж болохгүй) дээрх ямар нэг элементийн утгыг өөрчлөх ЁСГҮЙ.","Өргөтгөлийг ашиглаж эсвэл тодорхойлж буй байгууллага эсвэл хууль эрх зүйн хүрээний байдлаас үл хамааран, ямар ч програм, төсөл, стандартад өргөтгөлийг ашиглахад буруутгах зүйл байх ёсгүй. Өргөтгөлийн хэрэглээ нь FHIR-ийн тодорхойлолтыг хүн бүрийн хэрэгцээнд нийцэхүйц, энгийн түвшинд байх боломжийг олгож буй хүчин зүйл юм.","Хувиргагч өргөтгөл нь хэрэгсэхгүй байж *болохгүй* өргөтгөлүүдийг, хэрэгсэхгүй байж болох өргөтгөлүүдээс тодорхой ялгах боломжийг олгодог. Энэ нь хэрэгжүүлэгчид өргөтгөл байх эсэхийг хязгаарлах хэрэгцээг багасган, цахим систем хоорондын зохицлыг сайжруулдаг. Дэлгэрэнгүй мэдээллийг [хувиргагч өргөтгөлийн тодорхойлолт(extensibility.html#modifierExtension) хэсгээс үзнэ үү.","","","","","","","",,,,,"",,,,"BackboneElement.modifierExtension",0,*,"","ele-1:FHIR-ийн бүх элементүүд @утга эсвэл дэд элементийг агуулах ёстой {hasValue() or (children().count() > id.count())}
ext-1:Өргөтгөл эсвэл утга[x]-ийн аль нэгийг агуулах ёстой, хоёуланг нь агуулж болохгүй {extension.exists() != value.exists()}","N/A"
"Observation.component.referenceRange.low","","","",0,1,"","","","Quantity {[CanonicalType[http://hl7.org/fhir/StructureDefinition/SimpleQuantity]]} {[]}
","Хэрэв шаардлагатай бол, Доод Хэмжээ","Лавлах хэмжээний доод хязгаарын утга. Лавлах хэмжээний төгсгөлийн цэгийн доод хязгаарт утга нь багтсан байна (жишээ нь: лавлах хэмжээ >=5 - <=9). Хэрэв доод хязгаарыг орхигдуулсан бол доод хязгаар нь утга илэрхийлэхгүй гэж үзнэ (жишээ нь, лавлах утга <=2.3).","","","","","","","","","",,,,,"",,,,"Observation.referenceRange.low",0,1,"obs-3
","ele-1:FHIR-ийн бүх элементүүд @утга эсвэл дэд элементийг агуулах ёстой {hasValue() or (children().count() > id.count())}
","OBX-7","value:IVL_PQ.low"
"Observation.component.referenceRange.high","","","",0,1,"","","","Quantity {[CanonicalType[http://hl7.org/fhir/StructureDefinition/SimpleQuantity]]} {[]}
","Хэрэв шаардлагатай бол, Дээд Хэмжээ","Лавлах утгын дээд хязгаарын утга. Лавлах утгын төгсгөлийн өндөр цэг нь утгыг агуулдаг (жишээ нь, лавлах утга>> 5 - <= 9). Хэрэв дээд хязгаарыг орхигдуулсан бол энэ нь утгагүй болно (жишээ нь, лавлах утга> = 2.3).","","","","","","","","","",,,,,"",,,,"Observation.referenceRange.high",0,1,"obs-3
","ele-1:FHIR-ийн бүх элементүүд @утга эсвэл дэд элементийг агуулах ёстой {hasValue() or (children().count() > id.count())}
","OBX-7","value:IVL_PQ.high"
"Observation.component.referenceRange.type","","","",0,0,"Y","","","CodeableConcept {[]} {[]}
","Лавлах хэмжээг тодорхойлогч","Зорилтот лавлагаа хүн амын аль хэсэгт энэ хамаарч буйг илэрхийлэх кодууд. Жишээлбэл, ердийн эсвэл эмчилгээний хэмжээ.","Хэрэв нэгээс олон утга байвал үүн дээр өгөгдөл оруулах ХЭРЭГТЭЙ. Хэрэв энэ элемент байхгүй бол хэвийн хэмжээгээр тооцно.","Зохих ёсоор тайлбарлахын тулд энэ нь - хэвийн, зөвлөж буй, эмчилгээний гэх мэт ямар төрлийн лавлах хэмжээ гэдгийг хэлэх чадвартай байх шаардлагатай.","","","","","","","",,"preferred","Лавлах хэмжээний утгад харгалзах код","http://hl7.org/fhir/ValueSet/referencerange-meaning","",,,,"Observation.referenceRange.type",0,1,"","ele-1:FHIR-ийн бүх элементүүд @утга эсвэл дэд элементийг агуулах ёстой {hasValue() or (children().count() > id.count())}
","< 260245000 |Findings values| OR  < 365860008 |General clinical state finding| OR < 250171008 |Clinical history or observation findings| OR  < 415229000 |Racial group| OR < 365400002 |Finding of puberty stage| OR< 443938003 |Procedure carried out on subject|","OBX-10","interpretationCode"
"Observation.component.referenceRange.appliesTo","","","",0,0,"Y","","","CodeableConcept {[]} {[]}
","Reference range population","Codes to indicate the target population this reference range applies to.  For example, a reference range may be based on the normal population or a particular sex or race.  Multiple `appliesTo`  are interpreted as an ""AND"" of the target populations.  For example, to represent a target population of African American females, both a code of female and a code for African American would be used.","This SHOULD be populated if there is more than one range.  If this element is not present then the normal population is assumed.","Need to be able to identify the target population for proper interpretation.","","","","","","","",,"example","Codes identifying the population the reference range applies to.","http://hl7.org/fhir/ValueSet/referencerange-appliesto","",,,,"Observation.referenceRange.appliesTo",0,*,"","ele-1:All FHIR elements must have a @value or children {hasValue() or (children().count() > id.count())}
","< 260245000 |Findings values| OR  < 365860008 |General clinical state finding| OR < 250171008 |Clinical history or observation findings| OR  < 415229000 |Racial group| OR < 365400002 |Finding of puberty stage| OR< 443938003 |Procedure carried out on subject|","OBX-10","interpretationCode"
"Observation.component.referenceRange.age","","","",0,0,"Y","","","Range {[]} {[]}
","Applicable age range, if relevant","The age at which this reference range is applicable. This is a neonatal age (e.g. number of weeks at term) if the meaning says so.","","Some analytes vary greatly over age.","","","","","","","",,,,,"",,,,"Observation.referenceRange.age",0,1,"","ele-1:All FHIR elements must have a @value or children {hasValue() or (children().count() > id.count())}
","outboundRelationship[typeCode=PRCN].targetObservationCriterion[code=""age""].value"
"Observation.component.referenceRange.text","","","",0,0,"Y","","","string {[]} {[]}
","Ажиглалт дахь текстэн лавлах хэмжээ","Ажиглалтад тоон лавлах хэмжээ тохиромжгүй тохиолдолд ашиглагдах текстэн лавлах хэмжээ. Үүний жишээ нь ""Сөрөг"" лавлах хэмжээ, эсвэл ""Хэвийн"" үзүүлэлтүүдийн жагсаалт эсвэл хүснэгт байж болно.","","","","","","","","","",,,,,"",,,,"Observation.referenceRange.text",0,1,"","ele-1:FHIR-ийн бүх элементүүд @утга эсвэл дэд элементийг агуулах ёстой {hasValue() or (children().count() > id.count())}
","OBX-7","value:ST"
