"Path","Slice Name","Alias(s)","Label","Min","Max","Must Support?","Is Modifier?","Is Summary?","Type(s)","Short","Definition","Comments","Requirements","Default Value","Meaning When Missing","Fixed Value","Pattern","Example","Minimum Value","Maximum Value","Maximum Length","Binding Strength","Binding Description","Binding Value Set","Code","Slicing Discriminator","Slicing Description","Slicing Ordered","Slicing Rules","Base Path","Base Min","Base Max","Condition(s)","Constraint(s)","Mapping: Ажлын урсгалын зураглал","Mapping: RIM дүйцүүлэлт","Mapping: FiveWs Загвар Дүйцүүлэлт","Mapping: HL7 v2 Дүйцүүлэлт","Mapping: яаралтай түргэн тусламжийн энкантур","Mapping: Цахим жорын өгөгдлийн бүтцийн элемент"
"Encounter","","Visit
","",0,*,"","","","","Өвчтөнд үйлчилгээ үзүүлэх үеийн харилцан үйлчлэл","Эрүүл мэндийн тусламж үйлчилгээ үзүүлэх зорилгоор өвчтөн ба эрүүл мэндийн тусламж үйлчилгээ үзүүүлэгчийн хооронд үүссэн харилцан үйлчлэл эсвэл өвчтөний эрүүл мэндийн байдлыг үнэлэх.","","","","","","","","","",,,,,"",,,,"Encounter",0,*,"","dom-2:Хэрвээ хэрэглүүр өөр хэрэглүүрийн дотор агуулагдаж байгаа бол, тэрээр дотроо багтсан хэрэглүүр агуулах ЁСГҮЙ. {contained.contained.empty()}
dom-3:Хэрвээ хэрэглүүр өөр хэрэглүүрийн дотор агуулагдаж байгаа бол, тэрээр хэрэглүүрийн хаа нэгтэйгээс заагдсан байх ЁСТОЙ эсвэл агуулж буй хэрэглүүр рүү заах ЁСТОЙ. {contained.where((('#'+id in (%resource.descendants().reference | %resource.descendants().as(canonical) | %resource.descendants().as(uri) | %resource.descendants().as(url))) or descendants().where(reference = '#').exists() or descendants().where(as(canonical) = '#').exists() or descendants().where(as(canonical) = '#').exists()).not()).trace('unmatched', id).empty()}dom-4:Хэрвээ хэрэглүүр өөр хэрэглүүрийн дотор агуулагдаж байгаа бол тэрээр meta.versionId эсвэл meta.lastUpdated элементтэй байх ЁСГҮЙ. {contained.meta.versionId.empty() and contained.meta.lastUpdated.empty()}dom-5:Хэрвээ хэрэглүүр өөр хэрэглүүрийн дотор агуулагдаж байгаа бол, аюулгүй байдлын шошготой байх ЁСГҮЙ. {contained.meta.security.empty()}dom-6:Зохион байгуулалтыг сайн байлгах үүднээс хэрэглүүрүүдэд хүүрнэл хэсэг байх хэрэгтэй. {text.`div`.exists()}","Event","Entity. Role, or Act","Encounter[@moodCode='EVN']"
"Encounter.id","","","",0,1,"","","Y","string {[]} {[]}
","Энэхүү бүтцийн логик Id","Хэрэглүүрийн URL-д ашиглагдсан, хэрэглүүрийн логик id. Нэгэнт оноогдсон бол энэ утга хэзээ ч өөрчлөгдөхгүй.","Хэрэглүүр id-гүй байх цорын ганц тохиолдол нь түүнийг create үйлдэл ашиглан сервер лүү илгээж байх үе юм.","","","","","","","","",,,,,"",,,,"Resource.id",0,1,"",""
"Encounter.meta","","","",0,1,"","","Y","Meta {[]} {[]}
","Хэрэглүүрийн тухай мета өгөгдөл","Хэрэглүүрийн тухай мета өгөгдөл. Энэ бол дэд бүтцэд хадгалагдаж буй агуулга юм. Агуулгын өөрчлөлт нь хэрэглүүрийн хувилбаруудад гарч буй өөрчлөлттэй үргэлж холбоотой байхгүй байх магадлалтай.","","","","","","","","","",,,,,"",,,,"Resource.meta",0,1,"","ele-1:FHIR-ийн бүх элементүүд @утга эсвэл дэд элементийг агуулах ёстой {hasValue() or (children().count() > id.count())}
"
"Encounter.implicitRules","","","",0,1,"","Y","Y","uri {[]} {[]}
","Энэхүү бүтцийг үүсгэхэд ашигласан дүрмийн багц","Энэхүү бүтцийг үүсгэхэд ашигласан, мөн боловсруулах явцад ойлгогдох ёстой дүрмийн багцыг заасан заалт. Ихэнх тохиолдолд, энэ нь бусад профайл гэх мэтийн хамтаар тусгай дүрмийг тодорхойлсон хэрэгжүүлэлтийн удирдамжийн лавлагаа юм.","Энэхүү дүрмийн багцыг эцэслэн батлах нь тухайн агуулгыг зөвхөн цөөн тооны бизнесийн оролцогчид ойлгох боломжтой болгож хязгаарлаахад хүргэнэ. Үүний үр дүнд, урт хугацаандаа өгөгдлийн ашигтай байдал ч мөн хязгаарлагдана. Гэсэн хэдий ч, одоо буй эрүүл мэндийн эко систем нь нэлээд тархай бутархай бөгөөд өгөгдлийг ерөнхийд нь тооцоолохуйц хэмжээнд тодорхойлох, цуглуулах, солилцоход хараахан бэлэн биш байна. Боломжтой бол хэрэгжүүлэгчид ба/эсвэл тодорхойлолтыг зохиогчид энэ элементийг ашиглахаас зайлсхийх хэрэгтэй. Ихэнхдээ, хэрэглэгдсэн тохиолдолд, URL гэдэг нь дээрх онцгой дүрмүүдийг бусад профайл, утгын олонлог гэх мэтийн хамтаар хүүрнэлийн нэг хэсэг хэмээн тодорхойлсон хэрэгжүүлэлтийн удирдамжийг заасан заалт байна.","","","","","","","","",,,,,"",,,,"Resource.implicitRules",0,1,"","ele-1:FHIR-ийн бүх элементүүд @утга эсвэл дэд элементийг агуулах ёстой {hasValue() or (children().count() > id.count())}
"
"Encounter.language","","","",0,1,"","","","code {[]} {[]}
","Хэрэглүүрийн агуулгын хэл","Хэрэглүүр бичигдсэн үндсэн хэл","Хэл нь индексжүүлэлт болон ашиглахад хүртээмжтэй байдлыг нэмэгдүүлэх зорилгоор (ерөнхийдөө, текстээс яриа үүсгэх гэх мэт үйлчилгээ хэлний шошгыг ашигладаг) ашиглагддаг. Хүүрнэл хэсэгт буй html хэлний шошго нь хүүрнэл хэсэгтээ хамаарна. Хэрэглүүр дэх хэлний шошго нь тухайн хэрэглүүр дэх өгөгдлөөс боловсруулан гаргасан бусад илэрхийллийн хэлийг тодорхойлоход ашиглагдаж болно. Бүх агуулга нь үндсэн хэл дээр байх албагүй. Хэрэглүүр.хэл элементийг хүүрнэл хэсэгт автоматаар хамаарна гэж тооцож болохгүй. Хэрэв хэлийг зааж өгсөн бол түүнийг html дэх div элемент дээр бас зааж өгөх хэрэгтэй (xml:lang ба html lang шинж чанар хоорондын хамаарлын тухай мэдээллийг HTML5-д буй дүрмүүдээс харна уу).","","","","","","","","",,"preferred","Хүний хэл","http://hl7.org/fhir/ValueSet/languages","",,,,"Resource.language",0,1,"","ele-1:FHIR-ийн бүх элементүүд @утга эсвэл дэд элементийг агуулах ёстой {hasValue() or (children().count() > id.count())}
"
"Encounter.text","","narrative
htmlxhtmldisplay","",0,1,"","","","Narrative {[]} {[]}
","Хүн тайлж ойлгоход зориулсан, хэрэглүүрийн текстэн хураангуй","Хэрэглүүрийн хураангуйг дотроо агуулсан бөгөөд тухайн хэрэглүүрийн агуулгыг хүнд илэрхийлэхэд ашиглаж болохоор, хүнд уншигдахуйц хэлбэрээр бичигдсэн хүүрнэл хэсэг. Хүүрнэл хэсэг нь бүтэцлэгдсэн өгөгдлийг бүгдийг нь шифрлэх шаардлагагүй боловч хүн зөвхөн хүүрнэл хэсгийг уншихад ""эмнэлзүйн хувьд аюулгүй"" болгохуйц, хангалттай хэмжээний нарийвчилсан мэдээллийг агуулсан байх шаардлагатай. Хэрэглүүрийн тодорхойлолт нь эмнэл зүйн аюулгүй байдлыг хангахын тулд, хүүрнэл хэсэгт ямар агуулга багтсан байх ёстойг тодорхойлж болно.","Өөр хэрэглүүрийн дотор агуулагдсан хэрэглүүр хүүрнэл хэсгийг агуулдаггүй. Өөр хэрэглүүрийн дотор агуулагдаагүй хэрэглүүр нь хүүрнэл хэсгийг агуулах ЁСТОЙ. Зарим тохиолдолд, хэрэглүүр нь багахан хэмжээний чөлөөт өгөгдөлтэй эсвэл огт чөлөөт өгөгдөлгүй текст агуулж болно (minOccurs=1 элементүүд бүгд хангагдсан тохиолдолд). Энэ нь мэдээллийг ""текстийн товчлол"" болгон хадгалсан эсвэл текстийг нэмэлтээр, боловсруулаагүй хэлбэрээр оруулсан эсвэл хүүрнэсэн, шифрлэсэн мэдээллийг сүүлд нь оруулсан хуучин системүүдийн өгөгдлийн тухайд зайлшгүй чухал байх магадлалтай.","","","","","","","","",,,,,"",,,,"DomainResource.text",0,1,"","ele-1:FHIR-ийн бүх элементүүд @утга эсвэл дэд элементийг агуулах ёстой {hasValue() or (children().count() > id.count())}
","Act.text?"
"Encounter.contained","","inline resources
anonymous resourcescontained resources","",0,*,"","","","Resource {[]} {[]}
","Хэрэглүүрийн дотор агуулагдах Хэрэглүүрүүд","Эдгээр хэрэглүүрүүд нь тэднийг агуулж буй хэрэглүүрээс гадна, бие даан орших боломжгүй - Тэд тусдаа бие даан ялган танигдах боломжгүй, мөн бие даасан өгөгдөл солилцооны цар хүрээтэй байх ч боломжгүй юм.","Ялган танилт нэгэнт алдагдсан тохиолдод, үүнийг дахин сэргээх нь маш хэцүү (бөгөөд хам сэдвээс хамааралтай) байдаг учир, агуулгыг зүй ёсоор ялган таних боломжтой үед үүнийг хэзээ ч хийх ёсгүй. Хэрэглүүрийн дотор агуулагдах хэрэглүүрүүд нь мета элементүүддээ профай болон шошгыг агуулж болно, гэхдээ аюулгүй байдлын шошго агуулах ЁСГҮЙ.","","","","","","","","",,,,,"",,,,"DomainResource.contained",0,*,"","","N/A"
"Encounter.extension","","","",1,*,"","","","Extension {[]} {[]}
","Extension","An Extension","","","","","","","","","",,,,,"","value:url}
","",,"open","DomainResource.extension",0,*,"","ele-1:FHIR-ийн бүх элементүүд @утга эсвэл дэд элементийг агуулах ёстой {hasValue() or (children().count() > id.count())}
ext-1:Өргөтгөл эсвэл утга[x]-ийн аль нэгийг агуулах ёстой, хоёуланг нь агуулж болохгүй {extension.exists() != value.exists()}"
"Encounter.extension","mode-of-arrival","","",1,1,"Y","","","Extension {[CanonicalType[http://hl7.org/fhir/StructureDefinition/encounter-modeOfArrival]]} {[]}
","The method of arrival of the patient into the facility","Identifies whether a patient arrives at the reporting facility via ambulance and the type of ambulance that was used.","","","","","","","","","",,,,,"",,,,"DomainResource.extension",0,*,"ele-1
","ele-1:All FHIR elements must have a @value or children {hasValue() or (children().count() > id.count())}
ext-1:Must have either extensions or value[x], not both {extension.exists() != value.exists()}","N/A","2.5 ЯТТ ирсэн хэлбэр"
"Encounter.extension.id","","","",0,1,"","","","string {[]} {[]}
","Unique id for inter-element referencing","Unique id for the element within a resource (for internal references). This may be any string value that does not contain spaces.","","","","","","","","","",,,,,"",,,,"Element.id",0,1,"","","n/a"
"Encounter.extension.extension","","","",0,0,"","","","Extension {[]} {[]}
","Extension","An Extension","","","","","","","","","",,,,,"","value:url}
","Extensions are always sliced by (at least) url",,"open","Element.extension",0,*,"","ele-1:All FHIR elements must have a @value or children {hasValue() or (children().count() > id.count())}
ext-1:Must have either extensions or value[x], not both {extension.exists() != value.exists()}"
"Encounter.extension.url","","","",1,1,"","","","uri {[]} {[]}
","identifies the meaning of the extension","Source of the definition for the extension code - a logical name or a URL.","The definition may point directly to a computable or human-readable definition of the extensibility codes, or it may be a logical URI as declared in some other specification. The definition SHALL be a URI for the Structure Definition defining the extension.","","","","<valueUri xmlns=""http://hl7.org/fhir"" value=""http://hl7.org/fhir/StructureDefinition/encounter-modeOfArrival""/>","","","","",,,,,"",,,,"Extension.url",1,1,"","","N/A"
"Encounter.extension.value[x]","","","",1,1,"","","","Coding {[]} {[]}
","Value of extension","Value of extension - must be one of a constrained set of the data types (see [Extensibility](http://hl7.org/fhir/extensibility.html) for a list).","","","","","","","","","",,"example","The method that the patient arrived at the facility.","http://terminology.hl7.org/ValueSet/v2-0430","","type:$this}
","",,"closed","Extension.value[x]",0,1,"","ele-1:All FHIR elements must have a @value or children {hasValue() or (children().count() > id.count())}
","N/A"
"Encounter.extension.value[x]","valueCoding","","",1,1,"Y","","","Coding {[]} {[]}
","Value of extension","Value of extension - must be one of a constrained set of the data types (see [Extensibility](http://hl7.org/fhir/extensibility.html) for a list).","","","","","","","","","",,"required","","http://fhir.mn/ValueSet/ModeOfArrivalValueSet","",,,,"Extension.value[x]",0,1,"","ele-1:All FHIR elements must have a @value or children {hasValue() or (children().count() > id.count())}
","N/A"
"Encounter.modifierExtension","","extensions
user content","",0,*,"","Y","","Extension {[]} {[]}
","Хэрэгсэхгүй байж болшгүй өргөтгөлүүд","Хэрэглүүрийн үндсэн тодорхойлолтын хэсэг биш бөгөөд үүнийг агуулж буй элементийн тухай ойлголтыг болон / эсвэл агуулсан элементэд агуулагдах бүтцүүдийн тухай ойлголтыг өөрчлөх чадвартай нэмэлт мэдээллийг илэрхийлэхэд ашиглаж болно. Хувиргагч элементүүд нь ихэвчлэн үгүйсгэл эсвэл хязгаарлалтыг агуулдаг. Өргөтгөлийн хэрэглээг аюулгүй, зохион байгуулахад дөхөм байлгах үүднээс шинэ өргөтгөл тодорхойлох болон хэрэглэх явдлыг хатуу чанд тодорхойлсон байдаг. Бүх хэрэгжүүлэгч шинэ өргөтгөл тодорхойлж болох боловч өргөтгөлийн тодорхойлолтын хэсэг болон мөрдөгдөх ЁСТОЙ багц шаардлага байдаг. Хэрэглүүрийг боловсруулдаг аппликейшнүүд нь хувиргагч өргөтгөлүүдийг хянаж байх шаардлагатай. 

 Хувиргагч өргөтгөл нь Хэрэглүүр эсвэл ДомейнХэрэглүүр (мөн хувиргагчӨргөтгөлийн утгыг өөрчилж болохгүй) дээрх ямар нэг элементийн утгыг өөрчлөх ЁСГҮЙ.","Өргөтгөлийг ашиглаж эсвэл тодорхойлж буй байгууллага эсвэл хууль эрх зүйн хүрээний байдлаас үл хамааран, ямар ч програм, төсөл, стандартад өргөтгөлийг ашиглахад буруутгах зүйл байх ёсгүй. Өргөтгөлийн хэрэглээ нь FHIR-ийн тодорхойлолтыг хүн бүрийн хэрэгцээнд нийцэхүйц, энгийн түвшинд байх боломжийг олгож буй хүчин зүйл юм.","Хувиргагч өргөтгөл нь хэрэгсэхгүй байж *болохгүй* өргөтгөлүүдийг, хэрэгсэхгүй байж болох өргөтгөлүүдээс тодорхой ялгах боломжийг олгодог. Энэ нь хэрэгжүүлэгчид өргөтгөл байх эсэхийг хязгаарлах хэрэгцээг багасган, цахим систем хоорондын зохицлыг сайжруулдаг. Дэлгэрэнгүй мэдээллийг [хувиргагч өргөтгөлийн тодорхойлолт(extensibility.html#modifierExtension) хэсгээс үзнэ үү.","","","","","","","",,,,,"",,,,"DomainResource.modifierExtension",0,*,"","ele-1:FHIR-ийн бүх элементүүд @утга эсвэл дэд элементийг агуулах ёстой {hasValue() or (children().count() > id.count())}
ext-1:Өргөтгөл эсвэл утга[x]-ийн аль нэгийг агуулах ёстой, хоёуланг нь агуулж болохгүй {extension.exists() != value.exists()}","N/A"
"Encounter.identifier","","","",0,*,"","","Y","Identifier {[]} {[]}
","Энэ энкантурын мэдэгдэж буй ялган танигч(ууд).","Энэ энкантурын мэдэгдэж буй ялган танигч(ууд).","","","","","","","","","",,,,,"",,,,"Encounter.identifier",0,*,"","ele-1:FHIR-ийн бүх элементүүд @утга эсвэл дэд элементийг агуулах ёстой {hasValue() or (children().count() > id.count())}
","Event.identifier",".id","FiveWs.identifier","PV1-19"
"Encounter.status","","","",1,1,"","Y","Y","code {[]} {[]}
","төлөвлөсөн | ирсэн | эрэмбэлсэн | хийгдэж буй | түр явсан | дууссан | цуцалсан +.","төлөвлөсөн | ирсэн | эрэмбэлсэн | хийгдэж буй | түр явсан | дууссан | цуцалсан +.","Статус (ба мөн бүлэг) хооронд үүсч болох зохистой шилжилтүүд дотоод бизнес дүрмээр зохицуулагдахыг анхаарна уу. ","","","","","","","","",,"required","Энкантурын одоогийн статус. ","http://hl7.org/fhir/ValueSet/encounter-status|4.0.1","",,,,"Encounter.status",1,1,"","ele-1:FHIR-ийн бүх элементүүд @утга эсвэл дэд элементийг агуулах ёстой {hasValue() or (children().count() > id.count())}
","Event.status",".statusCode","FiveWs.status","No clear equivalent in HL7 v2; active/finished could be inferred from PV1-44, PV1-45, PV2-24; inactive could be inferred from PV2-16"
"Encounter.statusHistory","","","",0,0,"","","","BackboneElement {[]} {[]}
","Өнгөрсөн энкантурын статусуудын жагсаалт","Статусын түүх нь энкантур хэрэглүүрийг хэрэглүүрийн түүхэн хувилбарыг уншилгүй статусын түүхийг агуулахыг эсвэл тэдгээрийг сервер хадгалахыг зөвшөөрдөг. ","Одоогийн статус нь статусын түүхэнд бус хэрэглүүрийн одоогийн хувилбарт байна.","","","","","","","","",,,,,"",,,,"Encounter.statusHistory",0,*,"","ele-1:FHIR-ийн бүх элементүүд @утга эсвэл дэд элементийг агуулах ёстой {hasValue() or (children().count() > id.count())}
","n/a"
"Encounter.statusHistory.id","","","",0,1,"","","","string {[]} {[]}
","Элемент-хоорондын заалт хийх дахин давтагдашгүй id","Элемент дотооддоо заалт хийх дахин давтагдашгүй id (дотоодын заалт хийхэд зориулагдсан). Энэ нь зай агуулаагүй, ямар ч төрлийн тэмдэгтийн цуваан утга байж болно.","","","","","","","","","",,,,,"",,,,"Element.id",0,1,"","","n/a"
"Encounter.statusHistory.extension","","extensions
user content","",0,*,"","","","Extension {[]} {[]}
","Is ""by"" same as ""during the implementation""?","Элементийн үндсэн тодорхойлолтод ороогүй, нэмэлт мэдээллийг илэрхийлэхэд ашиглагдаж болно. Өргөтгөлийн хэрэглээг аюулгүй, зохион байгуулахад дөхөм байлгах үүднээс шинэ өргөтгөл тодорхойлох болон хэрэглэх явдлыг хатуу чанд тодорхойлсон байдаг. Бүх хэрэгжүүлэгч шинэ өргөтгөл тодорхойлж болох боловч өргөтгөлийн тодорхойлолтын хэсэг болон мөрдөгдөх ЁСТОЙ багц шаардлага байдаг.","Өргөтгөлийг ашиглаж эсвэл тодорхойлж буй байгууллага эсвэл хууль эрх зүйн хүрээний байдлаас үл хамааран, ямар ч програм, төсөл, стандартад өргөтгөлийг ашиглахад буруутгах зүйл байх ёсгүй. Өргөтгөлийн хэрэглээ нь FHIR-ийн тодорхойлолтыг хүн бүрийн хэрэгцээнд нийцэхүйц, энгийн түвшинд байх боломжийг олгож буй хүчин зүйл юм.","","","","","","","","",,,,,"",,,,"Element.extension",0,*,"","ele-1:FHIR-ийн бүх элементүүд @утга эсвэл дэд элементийг агуулах ёстой {hasValue() or (children().count() > id.count())}
ext-1:Өргөтгөл эсвэл утга[x]-ийн аль нэгийг агуулах ёстой, хоёуланг нь агуулж болохгүй {extension.exists() != value.exists()}","n/a"
"Encounter.statusHistory.modifierExtension","","extensions
user contentmodifiers","",0,*,"","Y","Y","Extension {[]} {[]}
","Танигдахгүй байсан ч хэрэгсэхгүй байж болохгүй өргөтгөлүүд","Хэрэглүүрийн үндсэн тодорхойлолтын хэсэг биш бөгөөд үүнийг агуулж буй элементийн тухай ойлголтыг болон / эсвэл агуулсан элементэд агуулагдах бүтцүүдийн тухай ойлголтыг өөрчлөх чадвартай нэмэлт мэдээллийг илэрхийлэхэд ашиглаж болно. Хувиргагч элементүүд нь ихэвчлэн үгүйсгэл эсвэл хязгаарлалтыг агуулдаг. Өргөтгөлийн хэрэглээг аюулгүй, зохион байгуулахад дөхөм байлгах үүднээс шинэ өргөтгөл тодорхойлох болон хэрэглэх явдлыг хатуу чанд тодорхойлсон байдаг. Бүх хэрэгжүүлэгч шинэ өргөтгөл тодорхойлж болох боловч өргөтгөлийн тодорхойлолтын хэсэг болон мөрдөгдөх ЁСТОЙ багц шаардлага байдаг. Хэрэглүүрийг боловсруулдаг аппликейшнүүд нь хувиргагч өргөтгөлүүдийг хянаж байх шаардлагатай. 

 Хувиргагч өргөтгөл нь Хэрэглүүр эсвэл ДомейнХэрэглүүр (мөн хувиргагчӨргөтгөлийн утгыг өөрчилж болохгүй) дээрх ямар нэг элементийн утгыг өөрчлөх ЁСГҮЙ.","Өргөтгөлийг ашиглаж эсвэл тодорхойлж буй байгууллага эсвэл хууль эрх зүйн хүрээний байдлаас үл хамааран, ямар ч програм, төсөл, стандартад өргөтгөлийг ашиглахад буруутгах зүйл байх ёсгүй. Өргөтгөлийн хэрэглээ нь FHIR-ийн тодорхойлолтыг хүн бүрийн хэрэгцээнд нийцэхүйц, энгийн түвшинд байх боломжийг олгож буй хүчин зүйл юм.","Хувиргагч өргөтгөл нь хэрэгсэхгүй байж *болохгүй* өргөтгөлүүдийг, хэрэгсэхгүй байж болох өргөтгөлүүдээс тодорхой ялгах боломжийг олгодог. Энэ нь хэрэгжүүлэгчид өргөтгөл байх эсэхийг хязгаарлах хэрэгцээг багасган, цахим систем хоорондын зохицлыг сайжруулдаг. Дэлгэрэнгүй мэдээллийг [хувиргагч өргөтгөлийн тодорхойлолт(extensibility.html#modifierExtension) хэсгээс үзнэ үү.","","","","","","","",,,,,"",,,,"BackboneElement.modifierExtension",0,*,"","ele-1:FHIR-ийн бүх элементүүд @утга эсвэл дэд элементийг агуулах ёстой {hasValue() or (children().count() > id.count())}
ext-1:Өргөтгөл эсвэл утга[x]-ийн аль нэгийг агуулах ёстой, хоёуланг нь агуулж болохгүй {extension.exists() != value.exists()}","N/A"
"Encounter.statusHistory.status","","","",1,1,"","","","code {[]} {[]}
","төлөвлөсөн | ирсэн | эрэмбэлсэн | хийгдэж буй | түр явсан | дууссан | цуцалсан +.","төлөвлөсөн | ирсэн | эрэмбэлсэн | хийгдэж буй | түр явсан | дууссан | цуцалсан +.","","","","","","","","","",,"required","Энкантурын одоогийн статус. ","http://hl7.org/fhir/ValueSet/encounter-status|4.0.1","",,,,"Encounter.statusHistory.status",1,1,"","ele-1:FHIR-ийн бүх элементүүд @утга эсвэл дэд элементийг агуулах ёстой {hasValue() or (children().count() > id.count())}
","n/a"
"Encounter.statusHistory.period","","","",1,1,"","","","Period {[]} {[]}
","Эписод статуст ангилагдсан цаг.","Эписод статуст ангилагдсан цаг.","","","","","","","","","",,,,,"",,,,"Encounter.statusHistory.period",1,1,"","ele-1:FHIR-ийн бүх элементүүд @утга эсвэл дэд элементийг агуулах ёстой {hasValue() or (children().count() > id.count())}
","n/a"
"Encounter.class","","","",1,1,"","","Y","Coding {[]} {[]}
","Өвчтөний энкантурын ангилал","Амбулатори, хэвтэн эмчлүүлэх, яаралтай тусламж, гэрийн асаргаа эсвэл  бусад байршлийн хувилбарууд зэрэг өвчтөн энкантурын ангилалд илэрхийлэгдэх агуулгууд.","","","","","","<valueCoding xmlns=""http://hl7.org/fhir"">
  <code value=""EMER""/>
</valueCoding>","","","",,"extensible","Энкантурын ангилал.","http://terminology.hl7.org/ValueSet/v3-ActEncounterCode","",,,,"Encounter.class",1,1,"","ele-1:FHIR-ийн бүх элементүүд @утга эсвэл дэд элементийг агуулах ёстой {hasValue() or (children().count() > id.count())}
",".inboundRelationship[typeCode=SUBJ].source[classCode=LIST].code","FiveWs.class","PV1-2"
"Encounter.classHistory","","","",0,0,"","","","BackboneElement {[]} {[]}
","Өнгөрсөн энкантурын ангиллуудын жагсаалт","Бүлгийн түүх нь хэрэглүүрийн түүхээр дамжих шаардлагагүй энкантурын шилжилтүүдийг бүртгэхийг зөвшөөрдөг. Энэ нь түргэн тусламжийн энкантураас хандалт эхэлж дараа нь хэвтэн эмчлүүлэх тасагруу шилжиж байгаа тохиолдолд ашиглагдана. Үүнийг хийж шинээр энкантур эхлүүлэхгүй байх нь ямар ч лаб/оношилгооны үр дүнгүүдийг өвчтөнийг даган хялбар гарч түргэн тусламжаас хэвтэн эмчлүүлэхрүү шилжих үед тэдгээрийг алдах эсвэл ахин боловсруулахыг шаардахгүй.","","","","","","","","","",,,,,"",,,,"Encounter.classHistory",0,*,"","ele-1:FHIR-ийн бүх элементүүд @утга эсвэл дэд элементийг агуулах ёстой {hasValue() or (children().count() > id.count())}
","n/a"
"Encounter.classHistory.id","","","",0,1,"","","","string {[]} {[]}
","Элемент-хоорондын заалт хийх дахин давтагдашгүй id","Элемент дотооддоо заалт хийх дахин давтагдашгүй id (дотоодын заалт хийхэд зориулагдсан). Энэ нь зай агуулаагүй, ямар ч төрлийн тэмдэгтийн цуваан утга байж болно.","","","","","","","","","",,,,,"",,,,"Element.id",0,1,"","","n/a"
"Encounter.classHistory.extension","","extensions
user content","",0,*,"","","","Extension {[]} {[]}
","Is ""by"" same as ""during the implementation""?","Элементийн үндсэн тодорхойлолтод ороогүй, нэмэлт мэдээллийг илэрхийлэхэд ашиглагдаж болно. Өргөтгөлийн хэрэглээг аюулгүй, зохион байгуулахад дөхөм байлгах үүднээс шинэ өргөтгөл тодорхойлох болон хэрэглэх явдлыг хатуу чанд тодорхойлсон байдаг. Бүх хэрэгжүүлэгч шинэ өргөтгөл тодорхойлж болох боловч өргөтгөлийн тодорхойлолтын хэсэг болон мөрдөгдөх ЁСТОЙ багц шаардлага байдаг.","Өргөтгөлийг ашиглаж эсвэл тодорхойлж буй байгууллага эсвэл хууль эрх зүйн хүрээний байдлаас үл хамааран, ямар ч програм, төсөл, стандартад өргөтгөлийг ашиглахад буруутгах зүйл байх ёсгүй. Өргөтгөлийн хэрэглээ нь FHIR-ийн тодорхойлолтыг хүн бүрийн хэрэгцээнд нийцэхүйц, энгийн түвшинд байх боломжийг олгож буй хүчин зүйл юм.","","","","","","","","",,,,,"",,,,"Element.extension",0,*,"","ele-1:FHIR-ийн бүх элементүүд @утга эсвэл дэд элементийг агуулах ёстой {hasValue() or (children().count() > id.count())}
ext-1:Өргөтгөл эсвэл утга[x]-ийн аль нэгийг агуулах ёстой, хоёуланг нь агуулж болохгүй {extension.exists() != value.exists()}","n/a"
"Encounter.classHistory.modifierExtension","","extensions
user contentmodifiers","",0,*,"","Y","Y","Extension {[]} {[]}
","Танигдахгүй байсан ч хэрэгсэхгүй байж болохгүй өргөтгөлүүд","Хэрэглүүрийн үндсэн тодорхойлолтын хэсэг биш бөгөөд үүнийг агуулж буй элементийн тухай ойлголтыг болон / эсвэл агуулсан элементэд агуулагдах бүтцүүдийн тухай ойлголтыг өөрчлөх чадвартай нэмэлт мэдээллийг илэрхийлэхэд ашиглаж болно. Хувиргагч элементүүд нь ихэвчлэн үгүйсгэл эсвэл хязгаарлалтыг агуулдаг. Өргөтгөлийн хэрэглээг аюулгүй, зохион байгуулахад дөхөм байлгах үүднээс шинэ өргөтгөл тодорхойлох болон хэрэглэх явдлыг хатуу чанд тодорхойлсон байдаг. Бүх хэрэгжүүлэгч шинэ өргөтгөл тодорхойлж болох боловч өргөтгөлийн тодорхойлолтын хэсэг болон мөрдөгдөх ЁСТОЙ багц шаардлага байдаг. Хэрэглүүрийг боловсруулдаг аппликейшнүүд нь хувиргагч өргөтгөлүүдийг хянаж байх шаардлагатай. 

 Хувиргагч өргөтгөл нь Хэрэглүүр эсвэл ДомейнХэрэглүүр (мөн хувиргагчӨргөтгөлийн утгыг өөрчилж болохгүй) дээрх ямар нэг элементийн утгыг өөрчлөх ЁСГҮЙ.","Өргөтгөлийг ашиглаж эсвэл тодорхойлж буй байгууллага эсвэл хууль эрх зүйн хүрээний байдлаас үл хамааран, ямар ч програм, төсөл, стандартад өргөтгөлийг ашиглахад буруутгах зүйл байх ёсгүй. Өргөтгөлийн хэрэглээ нь FHIR-ийн тодорхойлолтыг хүн бүрийн хэрэгцээнд нийцэхүйц, энгийн түвшинд байх боломжийг олгож буй хүчин зүйл юм.","Хувиргагч өргөтгөл нь хэрэгсэхгүй байж *болохгүй* өргөтгөлүүдийг, хэрэгсэхгүй байж болох өргөтгөлүүдээс тодорхой ялгах боломжийг олгодог. Энэ нь хэрэгжүүлэгчид өргөтгөл байх эсэхийг хязгаарлах хэрэгцээг багасган, цахим систем хоорондын зохицлыг сайжруулдаг. Дэлгэрэнгүй мэдээллийг [хувиргагч өргөтгөлийн тодорхойлолт(extensibility.html#modifierExtension) хэсгээс үзнэ үү.","","","","","","","",,,,,"",,,,"BackboneElement.modifierExtension",0,*,"","ele-1:FHIR-ийн бүх элементүүд @утга эсвэл дэд элементийг агуулах ёстой {hasValue() or (children().count() > id.count())}
ext-1:Өргөтгөл эсвэл утга[x]-ийн аль нэгийг агуулах ёстой, хоёуланг нь агуулж болохгүй {extension.exists() != value.exists()}","N/A"
"Encounter.classHistory.class","","","",1,1,"","","","Coding {[]} {[]}
","хэвтэн эмчлүүлэх | амбулатори | түргэн тусламж | яаралтай тусламж +.","хэвтэн эмчлүүлэх | амбулатори | түргэн тусламж | яаралтай тусламж +.","","","","","","","","","",,"extensible","Энкантурын ангилал.","http://terminology.hl7.org/ValueSet/v3-ActEncounterCode","",,,,"Encounter.classHistory.class",1,1,"","ele-1:FHIR-ийн бүх элементүүд @утга эсвэл дэд элементийг агуулах ёстой {hasValue() or (children().count() > id.count())}
","n/a"
"Encounter.classHistory.period","","","",1,1,"","","","Period {[]} {[]}
","Эписод бүлгүүдэд ангилагдсан хугацаа. ","Эписод бүлгүүдэд ангилагдсан хугацаа. ","","","","","","","","","",,,,,"",,,,"Encounter.classHistory.period",1,1,"","ele-1:FHIR-ийн бүх элементүүд @утга эсвэл дэд элементийг агуулах ёстой {hasValue() or (children().count() > id.count())}
","n/a"
"Encounter.type","","","",0,0,"","","Y","CodeableConcept {[]} {[]}
","Энкантурын тусгай хэлбэр","Энкантурын тусгай хэлбэр  (жишэээ нь:  и-мэйлээр зөвлөгөө өгөх, мэс заслын өдрийн эмчилгээ, төрөлжсөн сувилахуй, сэргээн засах)","Цаашид энкантурыг ангилах олон арга байгаа тул энэ элемент нь 0..*.","","","","","","","","",,"example","Энкантурын хэлбэр","http://hl7.org/fhir/ValueSet/encounter-type","",,,,"Encounter.type",0,*,"","ele-1:FHIR-ийн бүх элементүүд @утга эсвэл дэд элементийг агуулах ёстой {hasValue() or (children().count() > id.count())}
","Event.code",".code","FiveWs.class","PV1-4 / PV1-18"
"Encounter.serviceType","","","",0,0,"Y","","Y","CodeableConcept {[]} {[]}
","Үйлчилгээний тусгай хэлбэр","Үзүүлэх ёстой үйлчилгээний өргөн хүрээний зүйлчлэл (жишээ нь: Зүрх судас).","","","","","","<valueCodeableConcept xmlns=""http://hl7.org/fhir"">
  <coding>
    <code value=""226""/>
    <display value=""Ambulance""/>
  </coding>
</valueCodeableConcept>","","","",,"example","Үзүүлэх ёстой үйлчилгээний өргөн хүрээний зүйлчлэл.","http://hl7.org/fhir/ValueSet/service-type","",,,,"Encounter.serviceType",0,1,"","ele-1:FHIR-ийн бүх элементүүд @утга эсвэл дэд элементийг агуулах ёстой {hasValue() or (children().count() > id.count())}
","Event.code","n/a","PV1-10"
"Encounter.priority","","","",0,0,"","","","CodeableConcept {[]} {[]}
","Энкантурын хэр зэрэг яаралтайг илэрхийлнэ. ","Энкантурын хэр зэрэг яаралтайг илэрхийлнэ. ","","","","","","","","","",,"example","Энкантурын хэр зэрэг яаралтайг илэрхийлнэ. ","http://terminology.hl7.org/ValueSet/v3-ActPriority","",,,,"Encounter.priority",0,1,"","ele-1:FHIR-ийн бүх элементүүд @утга эсвэл дэд элементийг агуулах ёстой {hasValue() or (children().count() > id.count())}
",".priorityCode","FiveWs.grade","PV2-25"
"Encounter.subject","","patient
","",1,1,"Y","","Y","Reference {[]} {[CanonicalType[http://fhir.mn/StructureDefinition/mng-core-patient]]}
","Өвчтөн юмуу бүлэг нь энкантурт байна. ","Өвчтөн юмуу бүлэг нь энкантурт байна. ","Энкантур нь үргэлж өвчтөний тухай байдаг боловч өвчтөнийг хэрэглээний бүх нөхцөл байдалд танихгүй байж болох бөгөөд нэрээ нууцалсан өвчтөнүүдийн бүлэг байж болно (жишээлбэл, нэргүй архинд донтогсдын бүлгийн эмчилгээ гэх мэт. Ийм үед энкантурыг хүн/ажилчдын тоог тооцоход ашиглаж болох бөгөөд энэ нь тодорхой өвчтөний нөхцөл байдалд чухал биш юм).","","","","","","","","",,,,,"",,,,"Encounter.subject",0,1,"","ele-1:FHIR-ийн бүх элементүүд @утга эсвэл дэд элементийг агуулах ёстой {hasValue() or (children().count() > id.count())}
","Event.subject",".participation[typeCode=SBJ]/role[classCode=PAT]","FiveWs.subject[x]","FiveWs.subject","PID-3"
"Encounter.episodeOfCare","","","",0,0,"","","Y","Reference {[]} {[CanonicalType[http://hl7.org/fhir/StructureDefinition/EpisodeOfCare]]}
","Энэ энкантур бүртгэгдэх ёстой тусламж үйлчилгээний эписод","Энэ талбарыг ашигах үед тусгай энкантур тусгай тусоамж үйлчилгээний эписодын хэсэг болон ангилагдана. Энэ холбоотой байдал нь засгийн газрын тайлан, тулгамдсан асуудал илрүүлэх, нийтлэг асуудлаар нь нэгтгэх гэх мэт тусгай зорилгын тулд хамааралтай энкантуруудыг бүлэглэхэд дөхөм болгоно. Ихэвчлэн тусламж үйлчилгээний эписод үүсгэсний дараа эсвэл тусламж үйлчилгээний эписодод өөр энкантур нэмж засахаас илүү оруулахдаа бүлэглэх үед холбоотой байдал нь бүртгэгддэг. (тусламж үйчилгээний эписод нь жилээр сунаж болно).","","","","","","","","","",,,,,"",,,,"Encounter.episodeOfCare",0,*,"","ele-1:FHIR-ийн бүх элементүүд @утга эсвэл дэд элементийг агуулах ёстой {hasValue() or (children().count() > id.count())}
","Event.context","n/a","FiveWs.context","PV1-54, PV1-53"
"Encounter.basedOn","","incomingReferral
","",0,0,"","","","Reference {[]} {[CanonicalType[http://hl7.org/fhir/StructureDefinition/ServiceRequest]]}
","Энэ энкантурыг эхлүүлсэн үйлчилгээний хүсэлт","Энэ энкантурт нийцсэн хүсэлт (жишээ нь: дараагийн шилжүүлэг эсвэл ажилбарын хүсэлт)","","","","","","","","","",,,,,"",,,,"Encounter.basedOn",0,*,"","ele-1:FHIR-ийн бүх элементүүд @утга эсвэл дэд элементийг агуулах ёстой {hasValue() or (children().count() > id.count())}
","Event.basedOn",".reason.ClinicalDocument"
"Encounter.participant","","","",0,*,"Y","","Y","BackboneElement {[]} {[]}
","Энкантурт оролцсон талуудын жагсаалт","Үйлчилгээг үзүүлэхийг хариуцах хүмүүсийн жагсаалт. ","","","","","","","","","",,,,,"","value:type}
","",,"open","Encounter.participant",0,*,"","ele-1:FHIR-ийн бүх элементүүд @утга эсвэл дэд элементийг агуулах ёстой {hasValue() or (children().count() > id.count())}
","Event.performer",".participation[typeCode=PFM]","ROL"
"Encounter.participant.id","","","",0,1,"","","","string {[]} {[]}
","Элемент-хоорондын заалт хийх дахин давтагдашгүй id","Элемент дотооддоо заалт хийх дахин давтагдашгүй id (дотоодын заалт хийхэд зориулагдсан). Энэ нь зай агуулаагүй, ямар ч төрлийн тэмдэгтийн цуваан утга байж болно.","","","","","","","","","",,,,,"",,,,"Element.id",0,1,"","","n/a"
"Encounter.participant.extension","","extensions
user content","",0,*,"","","","Extension {[]} {[]}
","Is ""by"" same as ""during the implementation""?","Элементийн үндсэн тодорхойлолтод ороогүй, нэмэлт мэдээллийг илэрхийлэхэд ашиглагдаж болно. Өргөтгөлийн хэрэглээг аюулгүй, зохион байгуулахад дөхөм байлгах үүднээс шинэ өргөтгөл тодорхойлох болон хэрэглэх явдлыг хатуу чанд тодорхойлсон байдаг. Бүх хэрэгжүүлэгч шинэ өргөтгөл тодорхойлж болох боловч өргөтгөлийн тодорхойлолтын хэсэг болон мөрдөгдөх ЁСТОЙ багц шаардлага байдаг.","Өргөтгөлийг ашиглаж эсвэл тодорхойлж буй байгууллага эсвэл хууль эрх зүйн хүрээний байдлаас үл хамааран, ямар ч програм, төсөл, стандартад өргөтгөлийг ашиглахад буруутгах зүйл байх ёсгүй. Өргөтгөлийн хэрэглээ нь FHIR-ийн тодорхойлолтыг хүн бүрийн хэрэгцээнд нийцэхүйц, энгийн түвшинд байх боломжийг олгож буй хүчин зүйл юм.","","","","","","","","",,,,,"",,,,"Element.extension",0,*,"","ele-1:FHIR-ийн бүх элементүүд @утга эсвэл дэд элементийг агуулах ёстой {hasValue() or (children().count() > id.count())}
ext-1:Өргөтгөл эсвэл утга[x]-ийн аль нэгийг агуулах ёстой, хоёуланг нь агуулж болохгүй {extension.exists() != value.exists()}","n/a"
"Encounter.participant.modifierExtension","","extensions
user contentmodifiers","",0,*,"","Y","Y","Extension {[]} {[]}
","Танигдахгүй байсан ч хэрэгсэхгүй байж болохгүй өргөтгөлүүд","Хэрэглүүрийн үндсэн тодорхойлолтын хэсэг биш бөгөөд үүнийг агуулж буй элементийн тухай ойлголтыг болон / эсвэл агуулсан элементэд агуулагдах бүтцүүдийн тухай ойлголтыг өөрчлөх чадвартай нэмэлт мэдээллийг илэрхийлэхэд ашиглаж болно. Хувиргагч элементүүд нь ихэвчлэн үгүйсгэл эсвэл хязгаарлалтыг агуулдаг. Өргөтгөлийн хэрэглээг аюулгүй, зохион байгуулахад дөхөм байлгах үүднээс шинэ өргөтгөл тодорхойлох болон хэрэглэх явдлыг хатуу чанд тодорхойлсон байдаг. Бүх хэрэгжүүлэгч шинэ өргөтгөл тодорхойлж болох боловч өргөтгөлийн тодорхойлолтын хэсэг болон мөрдөгдөх ЁСТОЙ багц шаардлага байдаг. Хэрэглүүрийг боловсруулдаг аппликейшнүүд нь хувиргагч өргөтгөлүүдийг хянаж байх шаардлагатай. 

 Хувиргагч өргөтгөл нь Хэрэглүүр эсвэл ДомейнХэрэглүүр (мөн хувиргагчӨргөтгөлийн утгыг өөрчилж болохгүй) дээрх ямар нэг элементийн утгыг өөрчлөх ЁСГҮЙ.","Өргөтгөлийг ашиглаж эсвэл тодорхойлж буй байгууллага эсвэл хууль эрх зүйн хүрээний байдлаас үл хамааран, ямар ч програм, төсөл, стандартад өргөтгөлийг ашиглахад буруутгах зүйл байх ёсгүй. Өргөтгөлийн хэрэглээ нь FHIR-ийн тодорхойлолтыг хүн бүрийн хэрэгцээнд нийцэхүйц, энгийн түвшинд байх боломжийг олгож буй хүчин зүйл юм.","Хувиргагч өргөтгөл нь хэрэгсэхгүй байж *болохгүй* өргөтгөлүүдийг, хэрэгсэхгүй байж болох өргөтгөлүүдээс тодорхой ялгах боломжийг олгодог. Энэ нь хэрэгжүүлэгчид өргөтгөл байх эсэхийг хязгаарлах хэрэгцээг багасган, цахим систем хоорондын зохицлыг сайжруулдаг. Дэлгэрэнгүй мэдээллийг [хувиргагч өргөтгөлийн тодорхойлолт(extensibility.html#modifierExtension) хэсгээс үзнэ үү.","","","","","","","",,,,,"",,,,"BackboneElement.modifierExtension",0,*,"","ele-1:FHIR-ийн бүх элементүүд @утга эсвэл дэд элементийг агуулах ёстой {hasValue() or (children().count() > id.count())}
ext-1:Өргөтгөл эсвэл утга[x]-ийн аль нэгийг агуулах ёстой, хоёуланг нь агуулж болохгүй {extension.exists() != value.exists()}","N/A"
"Encounter.participant.type","","","",0,*,"","","Y","CodeableConcept {[]} {[]}
","Энкантурт оролцогчийн үүрэг.","Энкантурт оролцогчийн үүрэг.","Оролцогчийн төрөл нь хувь хүн энкантурт хэрхэн оролцож байгааг илэрхийлнэ. Үүнд эмнэлгийн мэргэжилтнээс бусад оролцогчид хамаарах ба эмнэлгийн мэргэжилтнүүдийн хувьд энэ энкантурын хүрээнд хийж буй үйлдлийн төрлийг (Хариуцсан эмч, Оролцож буй эмч, Орчуулагч, Зөвлөх эмч гэх мэт) тодорхойлно. Гүйцтгэж буй үүрэг, ажил олгогчийн хэрэглэдэг нэр томьёо, боловсрол, лиценз зэргээс хамаарч эмнэлгийн мэргэжилтний үүрэг нь өөр өөр байдаг. ","","","","","","","","",,"extensible","Энкантурт оролцогчийн үүрэг.","http://hl7.org/fhir/ValueSet/encounter-participant-type","",,,,"Encounter.participant.type",0,*,"","ele-1:FHIR-ийн бүх элементүүд @утга эсвэл дэд элементийг агуулах ёстой {hasValue() or (children().count() > id.count())}
","Event.performer.function",".functionCode","ROL-3 (or maybe PRT-4)"
"Encounter.participant.period","","","",0,1,"","","","Period {[]} {[]}
","Энкантурын үед тухайн оролцогчийн оролцсон хугацааны урт","Тусгай оролцогчид энкантурт оролцсон хугацаа. Энэ нь давхардаж болох ба ерөнхий энкантурын хугацааны нэг хэсэг байж болно. ","","","","","","","","","",,,,,"",,,,"Encounter.participant.period",0,1,"","ele-1:FHIR-ийн бүх элементүүд @утга эсвэл дэд элементийг агуулах ёстой {hasValue() or (children().count() > id.count())}
",".time","ROL-5, ROL-6 (or maybe PRT-5)"
"Encounter.participant.individual","","","",0,1,"Y","","Y","Reference {[]} {[CanonicalType[http://fhir.mn/StructureDefinition/mng-related-person], CanonicalType[http://fhir.mn/StructureDefinition/mng-core-practitioner-role]]}
","Өвчтөнөөс гадна энкантурт оролцсон хүмүүс.","Өвчтөнөөс гадна энкантурт оролцсон хүмүүс.","","","","","","","","","",,,,,"",,,,"Encounter.participant.individual",0,1,"","ele-1:FHIR-ийн бүх элементүүд @утга эсвэл дэд элементийг агуулах ёстой {hasValue() or (children().count() > id.count())}
","Event.performer.actor",".role","FiveWs.who","ROL-4"
"Encounter.participant","discharger","","",0,1,"Y","","Y","BackboneElement {[]} {[]}
","Энкантурт оролцсон талуудын жагсаалт","Үйлчилгээг үзүүлэхийг хариуцах хүмүүсийн жагсаалт. ","","","","","","","","","",,,,,"",,,,"Encounter.participant",0,*,"","ele-1:FHIR-ийн бүх элементүүд @утга эсвэл дэд элементийг агуулах ёстой {hasValue() or (children().count() > id.count())}
","Event.performer",".participation[typeCode=PFM]","ROL","2.8 Шийдвэрлэсэн ЯТТ-н эмч"
"Encounter.participant.id","","","",0,1,"","","","string {[]} {[]}
","Элемент-хоорондын заалт хийх дахин давтагдашгүй id","Элемент дотооддоо заалт хийх дахин давтагдашгүй id (дотоодын заалт хийхэд зориулагдсан). Энэ нь зай агуулаагүй, ямар ч төрлийн тэмдэгтийн цуваан утга байж болно.","","","","","","","","","",,,,,"",,,,"Element.id",0,1,"","","n/a"
"Encounter.participant.extension","","extensions
user content","",0,*,"","","","Extension {[]} {[]}
","Is ""by"" same as ""during the implementation""?","Элементийн үндсэн тодорхойлолтод ороогүй, нэмэлт мэдээллийг илэрхийлэхэд ашиглагдаж болно. Өргөтгөлийн хэрэглээг аюулгүй, зохион байгуулахад дөхөм байлгах үүднээс шинэ өргөтгөл тодорхойлох болон хэрэглэх явдлыг хатуу чанд тодорхойлсон байдаг. Бүх хэрэгжүүлэгч шинэ өргөтгөл тодорхойлж болох боловч өргөтгөлийн тодорхойлолтын хэсэг болон мөрдөгдөх ЁСТОЙ багц шаардлага байдаг.","Өргөтгөлийг ашиглаж эсвэл тодорхойлж буй байгууллага эсвэл хууль эрх зүйн хүрээний байдлаас үл хамааран, ямар ч програм, төсөл, стандартад өргөтгөлийг ашиглахад буруутгах зүйл байх ёсгүй. Өргөтгөлийн хэрэглээ нь FHIR-ийн тодорхойлолтыг хүн бүрийн хэрэгцээнд нийцэхүйц, энгийн түвшинд байх боломжийг олгож буй хүчин зүйл юм.","","","","","","","","",,,,,"",,,,"Element.extension",0,*,"","ele-1:FHIR-ийн бүх элементүүд @утга эсвэл дэд элементийг агуулах ёстой {hasValue() or (children().count() > id.count())}
ext-1:Өргөтгөл эсвэл утга[x]-ийн аль нэгийг агуулах ёстой, хоёуланг нь агуулж болохгүй {extension.exists() != value.exists()}","n/a"
"Encounter.participant.modifierExtension","","extensions
user contentmodifiers","",0,*,"","Y","Y","Extension {[]} {[]}
","Танигдахгүй байсан ч хэрэгсэхгүй байж болохгүй өргөтгөлүүд","Хэрэглүүрийн үндсэн тодорхойлолтын хэсэг биш бөгөөд үүнийг агуулж буй элементийн тухай ойлголтыг болон / эсвэл агуулсан элементэд агуулагдах бүтцүүдийн тухай ойлголтыг өөрчлөх чадвартай нэмэлт мэдээллийг илэрхийлэхэд ашиглаж болно. Хувиргагч элементүүд нь ихэвчлэн үгүйсгэл эсвэл хязгаарлалтыг агуулдаг. Өргөтгөлийн хэрэглээг аюулгүй, зохион байгуулахад дөхөм байлгах үүднээс шинэ өргөтгөл тодорхойлох болон хэрэглэх явдлыг хатуу чанд тодорхойлсон байдаг. Бүх хэрэгжүүлэгч шинэ өргөтгөл тодорхойлж болох боловч өргөтгөлийн тодорхойлолтын хэсэг болон мөрдөгдөх ЁСТОЙ багц шаардлага байдаг. Хэрэглүүрийг боловсруулдаг аппликейшнүүд нь хувиргагч өргөтгөлүүдийг хянаж байх шаардлагатай. 

 Хувиргагч өргөтгөл нь Хэрэглүүр эсвэл ДомейнХэрэглүүр (мөн хувиргагчӨргөтгөлийн утгыг өөрчилж болохгүй) дээрх ямар нэг элементийн утгыг өөрчлөх ЁСГҮЙ.","Өргөтгөлийг ашиглаж эсвэл тодорхойлж буй байгууллага эсвэл хууль эрх зүйн хүрээний байдлаас үл хамааран, ямар ч програм, төсөл, стандартад өргөтгөлийг ашиглахад буруутгах зүйл байх ёсгүй. Өргөтгөлийн хэрэглээ нь FHIR-ийн тодорхойлолтыг хүн бүрийн хэрэгцээнд нийцэхүйц, энгийн түвшинд байх боломжийг олгож буй хүчин зүйл юм.","Хувиргагч өргөтгөл нь хэрэгсэхгүй байж *болохгүй* өргөтгөлүүдийг, хэрэгсэхгүй байж болох өргөтгөлүүдээс тодорхой ялгах боломжийг олгодог. Энэ нь хэрэгжүүлэгчид өргөтгөл байх эсэхийг хязгаарлах хэрэгцээг багасган, цахим систем хоорондын зохицлыг сайжруулдаг. Дэлгэрэнгүй мэдээллийг [хувиргагч өргөтгөлийн тодорхойлолт(extensibility.html#modifierExtension) хэсгээс үзнэ үү.","","","","","","","",,,,,"",,,,"BackboneElement.modifierExtension",0,*,"","ele-1:FHIR-ийн бүх элементүүд @утга эсвэл дэд элементийг агуулах ёстой {hasValue() or (children().count() > id.count())}
ext-1:Өргөтгөл эсвэл утга[x]-ийн аль нэгийг агуулах ёстой, хоёуланг нь агуулж болохгүй {extension.exists() != value.exists()}","N/A"
"Encounter.participant.type","","","",1,*,"","","Y","CodeableConcept {[]} {[]}
","Энкантурт оролцогчийн үүрэг.","Энкантурт оролцогчийн үүрэг.","Оролцогчийн төрөл нь хувь хүн энкантурт хэрхэн оролцож байгааг илэрхийлнэ. Үүнд эмнэлгийн мэргэжилтнээс бусад оролцогчид хамаарах ба эмнэлгийн мэргэжилтнүүдийн хувьд энэ энкантурын хүрээнд хийж буй үйлдлийн төрлийг (Хариуцсан эмч, Оролцож буй эмч, Орчуулагч, Зөвлөх эмч гэх мэт) тодорхойлно. Гүйцтгэж буй үүрэг, ажил олгогчийн хэрэглэдэг нэр томьёо, боловсрол, лиценз зэргээс хамаарч эмнэлгийн мэргэжилтний үүрэг нь өөр өөр байдаг. ","","","","","<valueCodeableConcept xmlns=""http://hl7.org/fhir"">
  <coding>
    <code value=""DIS""/>
  </coding>
</valueCodeableConcept>","","","",,"extensible","Энкантурт оролцогчийн үүрэг.","http://hl7.org/fhir/ValueSet/encounter-participant-type","",,,,"Encounter.participant.type",0,*,"","ele-1:FHIR-ийн бүх элементүүд @утга эсвэл дэд элементийг агуулах ёстой {hasValue() or (children().count() > id.count())}
","Event.performer.function",".functionCode","ROL-3 (or maybe PRT-4)"
"Encounter.participant.period","","","",0,1,"","","","Period {[]} {[]}
","Энкантурын үед тухайн оролцогчийн оролцсон хугацааны урт","Тусгай оролцогчид энкантурт оролцсон хугацаа. Энэ нь давхардаж болох ба ерөнхий энкантурын хугацааны нэг хэсэг байж болно. ","","","","","","","","","",,,,,"",,,,"Encounter.participant.period",0,1,"","ele-1:FHIR-ийн бүх элементүүд @утга эсвэл дэд элементийг агуулах ёстой {hasValue() or (children().count() > id.count())}
",".time","ROL-5, ROL-6 (or maybe PRT-5)"
"Encounter.participant.individual","","","",0,1,"Y","","Y","Reference {[]} {[CanonicalType[http://fhir.mn/StructureDefinition/mng-core-practitioner], CanonicalType[http://fhir.mn/StructureDefinition/mng-core-practitioner-role], CanonicalType[http://fhir.mn/StructureDefinition/mng-related-person]]}
","Өвчтөнөөс гадна энкантурт оролцсон хүмүүс.","Өвчтөнөөс гадна энкантурт оролцсон хүмүүс.","","","","","","","","","",,,,,"",,,,"Encounter.participant.individual",0,1,"","ele-1:FHIR-ийн бүх элементүүд @утга эсвэл дэд элементийг агуулах ёстой {hasValue() or (children().count() > id.count())}
","Event.performer.actor",".role","FiveWs.who","ROL-4"
"Encounter.participant","admitter","","",0,1,"Y","","Y","BackboneElement {[]} {[]}
","Энкантурт оролцсон талуудын жагсаалт","Үйлчилгээг үзүүлэхийг хариуцах хүмүүсийн жагсаалт. ","","","","","","","","","",,,,,"",,,,"Encounter.participant",0,*,"","ele-1:FHIR-ийн бүх элементүүд @утга эсвэл дэд элементийг агуулах ёстой {hasValue() or (children().count() > id.count())}
","Event.performer",".participation[typeCode=PFM]","ROL","2.6 Хэн авчирсан"
"Encounter.participant.id","","","",0,1,"","","","string {[]} {[]}
","Элемент-хоорондын заалт хийх дахин давтагдашгүй id","Элемент дотооддоо заалт хийх дахин давтагдашгүй id (дотоодын заалт хийхэд зориулагдсан). Энэ нь зай агуулаагүй, ямар ч төрлийн тэмдэгтийн цуваан утга байж болно.","","","","","","","","","",,,,,"",,,,"Element.id",0,1,"","","n/a"
"Encounter.participant.extension","","extensions
user content","",0,*,"","","","Extension {[]} {[]}
","Is ""by"" same as ""during the implementation""?","Элементийн үндсэн тодорхойлолтод ороогүй, нэмэлт мэдээллийг илэрхийлэхэд ашиглагдаж болно. Өргөтгөлийн хэрэглээг аюулгүй, зохион байгуулахад дөхөм байлгах үүднээс шинэ өргөтгөл тодорхойлох болон хэрэглэх явдлыг хатуу чанд тодорхойлсон байдаг. Бүх хэрэгжүүлэгч шинэ өргөтгөл тодорхойлж болох боловч өргөтгөлийн тодорхойлолтын хэсэг болон мөрдөгдөх ЁСТОЙ багц шаардлага байдаг.","Өргөтгөлийг ашиглаж эсвэл тодорхойлж буй байгууллага эсвэл хууль эрх зүйн хүрээний байдлаас үл хамааран, ямар ч програм, төсөл, стандартад өргөтгөлийг ашиглахад буруутгах зүйл байх ёсгүй. Өргөтгөлийн хэрэглээ нь FHIR-ийн тодорхойлолтыг хүн бүрийн хэрэгцээнд нийцэхүйц, энгийн түвшинд байх боломжийг олгож буй хүчин зүйл юм.","","","","","","","","",,,,,"",,,,"Element.extension",0,*,"","ele-1:FHIR-ийн бүх элементүүд @утга эсвэл дэд элементийг агуулах ёстой {hasValue() or (children().count() > id.count())}
ext-1:Өргөтгөл эсвэл утга[x]-ийн аль нэгийг агуулах ёстой, хоёуланг нь агуулж болохгүй {extension.exists() != value.exists()}","n/a"
"Encounter.participant.modifierExtension","","extensions
user contentmodifiers","",0,*,"","Y","Y","Extension {[]} {[]}
","Танигдахгүй байсан ч хэрэгсэхгүй байж болохгүй өргөтгөлүүд","Хэрэглүүрийн үндсэн тодорхойлолтын хэсэг биш бөгөөд үүнийг агуулж буй элементийн тухай ойлголтыг болон / эсвэл агуулсан элементэд агуулагдах бүтцүүдийн тухай ойлголтыг өөрчлөх чадвартай нэмэлт мэдээллийг илэрхийлэхэд ашиглаж болно. Хувиргагч элементүүд нь ихэвчлэн үгүйсгэл эсвэл хязгаарлалтыг агуулдаг. Өргөтгөлийн хэрэглээг аюулгүй, зохион байгуулахад дөхөм байлгах үүднээс шинэ өргөтгөл тодорхойлох болон хэрэглэх явдлыг хатуу чанд тодорхойлсон байдаг. Бүх хэрэгжүүлэгч шинэ өргөтгөл тодорхойлж болох боловч өргөтгөлийн тодорхойлолтын хэсэг болон мөрдөгдөх ЁСТОЙ багц шаардлага байдаг. Хэрэглүүрийг боловсруулдаг аппликейшнүүд нь хувиргагч өргөтгөлүүдийг хянаж байх шаардлагатай. 

 Хувиргагч өргөтгөл нь Хэрэглүүр эсвэл ДомейнХэрэглүүр (мөн хувиргагчӨргөтгөлийн утгыг өөрчилж болохгүй) дээрх ямар нэг элементийн утгыг өөрчлөх ЁСГҮЙ.","Өргөтгөлийг ашиглаж эсвэл тодорхойлж буй байгууллага эсвэл хууль эрх зүйн хүрээний байдлаас үл хамааран, ямар ч програм, төсөл, стандартад өргөтгөлийг ашиглахад буруутгах зүйл байх ёсгүй. Өргөтгөлийн хэрэглээ нь FHIR-ийн тодорхойлолтыг хүн бүрийн хэрэгцээнд нийцэхүйц, энгийн түвшинд байх боломжийг олгож буй хүчин зүйл юм.","Хувиргагч өргөтгөл нь хэрэгсэхгүй байж *болохгүй* өргөтгөлүүдийг, хэрэгсэхгүй байж болох өргөтгөлүүдээс тодорхой ялгах боломжийг олгодог. Энэ нь хэрэгжүүлэгчид өргөтгөл байх эсэхийг хязгаарлах хэрэгцээг багасган, цахим систем хоорондын зохицлыг сайжруулдаг. Дэлгэрэнгүй мэдээллийг [хувиргагч өргөтгөлийн тодорхойлолт(extensibility.html#modifierExtension) хэсгээс үзнэ үү.","","","","","","","",,,,,"",,,,"BackboneElement.modifierExtension",0,*,"","ele-1:FHIR-ийн бүх элементүүд @утга эсвэл дэд элементийг агуулах ёстой {hasValue() or (children().count() > id.count())}
ext-1:Өргөтгөл эсвэл утга[x]-ийн аль нэгийг агуулах ёстой, хоёуланг нь агуулж болохгүй {extension.exists() != value.exists()}","N/A"
"Encounter.participant.type","","","",1,*,"","","Y","CodeableConcept {[]} {[]}
","Энкантурт оролцогчийн үүрэг.","Энкантурт оролцогчийн үүрэг.","Оролцогчийн төрөл нь хувь хүн энкантурт хэрхэн оролцож байгааг илэрхийлнэ. Үүнд эмнэлгийн мэргэжилтнээс бусад оролцогчид хамаарах ба эмнэлгийн мэргэжилтнүүдийн хувьд энэ энкантурын хүрээнд хийж буй үйлдлийн төрлийг (Хариуцсан эмч, Оролцож буй эмч, Орчуулагч, Зөвлөх эмч гэх мэт) тодорхойлно. Гүйцтгэж буй үүрэг, ажил олгогчийн хэрэглэдэг нэр томьёо, боловсрол, лиценз зэргээс хамаарч эмнэлгийн мэргэжилтний үүрэг нь өөр өөр байдаг. ","","","","","<valueCodeableConcept xmlns=""http://hl7.org/fhir"">
  <coding>
    <code value=""ADM""/>
  </coding>
</valueCodeableConcept>","","","",,"extensible","Энкантурт оролцогчийн үүрэг.","http://hl7.org/fhir/ValueSet/encounter-participant-type","",,,,"Encounter.participant.type",0,*,"","ele-1:FHIR-ийн бүх элементүүд @утга эсвэл дэд элементийг агуулах ёстой {hasValue() or (children().count() > id.count())}
","Event.performer.function",".functionCode","ROL-3 (or maybe PRT-4)"
"Encounter.participant.period","","","",0,1,"","","","Period {[]} {[]}
","Энкантурын үед тухайн оролцогчийн оролцсон хугацааны урт","Тусгай оролцогчид энкантурт оролцсон хугацаа. Энэ нь давхардаж болох ба ерөнхий энкантурын хугацааны нэг хэсэг байж болно. ","","","","","","","","","",,,,,"",,,,"Encounter.participant.period",0,1,"","ele-1:FHIR-ийн бүх элементүүд @утга эсвэл дэд элементийг агуулах ёстой {hasValue() or (children().count() > id.count())}
",".time","ROL-5, ROL-6 (or maybe PRT-5)"
"Encounter.participant.individual","","","",0,1,"Y","","Y","Reference {[]} {[CanonicalType[http://fhir.mn/StructureDefinition/mng-core-practitioner], CanonicalType[http://fhir.mn/StructureDefinition/mng-core-practitioner-role], CanonicalType[http://fhir.mn/StructureDefinition/mng-related-person]]}
","Өвчтөнөөс гадна энкантурт оролцсон хүмүүс.","Өвчтөнөөс гадна энкантурт оролцсон хүмүүс.","","","","","","","","","",,,,,"",,,,"Encounter.participant.individual",0,1,"","ele-1:FHIR-ийн бүх элементүүд @утга эсвэл дэд элементийг агуулах ёстой {hasValue() or (children().count() > id.count())}
","Event.performer.actor",".role","FiveWs.who","ROL-4"
"Encounter.appointment","","","",0,0,"","","Y","Reference {[]} {[CanonicalType[http://hl7.org/fhir/StructureDefinition/Appointment]]}
","Энэ энкантурыг товлосон цаг товлолт. ","Энэ энкантурыг товлосон цаг товлолт. ","","","","","","","","","",,,,,"",,,,"Encounter.appointment",0,*,"","ele-1:FHIR-ийн бүх элементүүд @утга эсвэл дэд элементийг агуулах ёстой {hasValue() or (children().count() > id.count())}
","Event.basedOn",".outboundRelationship[typeCode=FLFS].target[classCode=ENC, moodCode=APT]","SCH-1 / SCH-2"
"Encounter.period","","","",1,1,"Y","","","Period {[]} {[]}
","Энкантурын эхэлсэн ба дууссан цаг. ","Энкантурын эхэлсэн ба дууссан цаг. ","Хэрэв (одоогоор) мэдэгдэхгүй байгаа бол Хугацаа тасалдсан байх магадлалтай. ","","","","","","","","",,,,,"",,,,"Encounter.period",0,1,"","ele-1:FHIR-ийн бүх элементүүд @утга эсвэл дэд элементийг агуулах ёстой {hasValue() or (children().count() > id.count())}
","Event.occurrence[x]",".effectiveTime (low & high)","FiveWs.done[x]","PV1-44, PV1-45"
"Encounter.period.id","","","",0,1,"","","","string {[]} {[]}
","Unique id for inter-element referencing","Unique id for the element within a resource (for internal references). This may be any string value that does not contain spaces.","","","","","","","","","",,,,,"",,,,"Element.id",0,1,"","","n/a"
"Encounter.period.extension","","extensions
user content","",0,*,"","","","Extension {[]} {[]}
","Additional content defined by implementations","May be used to represent additional information that is not part of the basic definition of the element. To make the use of extensions safe and manageable, there is a strict set of governance  applied to the definition and use of extensions. Though any implementer can define an extension, there is a set of requirements that SHALL be met as part of the definition of the extension.","There can be no stigma associated with the use of extensions by any application, project, or standard - regardless of the institution or jurisdiction that uses or defines the extensions.  The use of extensions is what allows the FHIR specification to retain a core level of simplicity for everyone.","","","","","","","","",,,,,"","value:url}
","Extensions are always sliced by (at least) url",,"open","Element.extension",0,*,"","ele-1:All FHIR elements must have a @value or children {hasValue() or (children().count() > id.count())}
ext-1:Must have either extensions or value[x], not both {extension.exists() != value.exists()}","n/a"
"Encounter.period.start","","","",1,1,"Y","","Y","dateTime {[]} {[]}
","Starting time with inclusive boundary","The start of the period. The boundary is inclusive.","If the low element is missing, the meaning is that the low boundary is not known.","","","","","","","","",,,,,"",,,,"Period.start",0,1,"per-1
","ele-1:All FHIR elements must have a @value or children {hasValue() or (children().count() > id.count())}
","./low","DR.1","2.1 ЯТТ-т ирсэн он сар өдөр цаг минут"
"Encounter.period.end","","","",1,1,"Y","","Y","dateTime {[]} {[]}
","End time with inclusive boundary, if not ongoing","The end of the period. If the end of the period is missing, it means no end was known or planned at the time the instance was created. The start may be in the past, and the end date in the future, which means that period is expected/planned to end at that time.","The high value includes any matching date/time. i.e. 2012-02-03T10:00:00 is in a period that has an end value of 2012-02-03.","","","If the end of the period is missing, it means that the period is ongoing","","","","","",,,,,"",,,,"Period.end",0,1,"per-1
","ele-1:All FHIR elements must have a @value or children {hasValue() or (children().count() > id.count())}
","./high","DR.2","2.2 ЯТТ-аас гарсан он сар өдөр цаг минут"
"Encounter.length","","","",1,1,"Y","","","Duration {[]} {[]}
","Энкантур үргэлжилсэн хугацааны тоо (бага цаг үгүй)","Энкантур үргэлжилсэн хугацааны тоо. Энэ хугацаанд байхгүй орхисон үеийг хасна.","Энкантур.үе дууссан цаг нь түр орхиж гарснаас болж өөр байж болно. ","","","","","","","","",,,,,"",,,,"Encounter.length",0,1,"","ele-1:FHIR-ийн бүх элементүүд @утга эсвэл дэд элементийг агуулах ёстой {hasValue() or (children().count() > id.count())}
","Event.occurrence[x]",".lengthOfStayQuantity","(PV1-45 less PV1-44) iff ( (PV1-44 not empty) and (PV1-45 not empty) ); units in minutes","2.3 ЯТТ-т байсан нийт цаг минут"
"Encounter.reasonCode","","Indication
Admission diagnosis","",0,*,"Y","","Y","CodeableConcept {[]} {[]}
","Энкантурын кодолсон шалтгаан","Энкантур болсон шалтгааныг кодоор илэрхийлсэн байдал. Хэвтэх үед энэхүү кодолсон оношийг ашиглаж болно. ","Системүүдийн хувьд аль нь эхний онош байсныг мэдэх хэрэгтэй бөгөөд энэ нь анхдагчОнош хэмээх стандарт өргөтгөлтэй хамт тэмдэглэгдэнэ. (Энэ нь туг гэхээс илүү дараалсан утга юм, 1 = эхний онош )","","","","","","","","",,"preferred","Энкантур яагаад болсон шалтгаан.","http://hl7.org/fhir/ValueSet/encounter-reason","",,,,"Encounter.reasonCode",0,*,"","ele-1:FHIR-ийн бүх элементүүд @утга эсвэл дэд элементийг агуулах ёстой {hasValue() or (children().count() > id.count())}
","Event.reasonCode",".reasonCode","FiveWs.why[x]","EVN-4 / PV2-3 (note: PV2-3 is nominally constrained to inpatient admissions; HL7 v2 makes no vocabulary suggestions for PV2-3; would not expect PV2 segment or PV2-3 to be in use in all implementations )","3.2 Эмнэлэгт хандах болсон шалтгаан"
"Encounter.reasonReference","","Indication
Admission diagnosis","",0,*,"Y","","Y","Reference {[]} {[CanonicalType[http://fhir.mn/StructureDefinition/mng-condition-trauma]]}
","Энкантур болсон шалтгаан (Заалт)","Энкантур болсон шалтгааныг кодоор илэрхийлсэн байдал. Хэвтэх үед энэхүү кодолсон оношийг ашиглаж болно. ","Системүүдийн хувьд аль нь эхний онош байсныг мэдэх хэрэгтэй бөгөөд энэ нь анхдагчОнош хэмээх стандарт өргөтгөлтэй хамт тэмдэглэгдэнэ. (Энэ нь туг гэхээс илүү дараалсан утга юм, 1 = эхний онош )","","","","","","","","",,,,,"",,,,"Encounter.reasonReference",0,*,"","ele-1:FHIR-ийн бүх элементүүд @утга эсвэл дэд элементийг агуулах ёстой {hasValue() or (children().count() > id.count())}
","Event.reasonCode",".reasonCode","FiveWs.why[x]","EVN-4 / PV2-3 (note: PV2-3 is nominally constrained to inpatient admissions; HL7 v2 makes no vocabulary suggestions for PV2-3; would not expect PV2 segment or PV2-3 to be in use in all implementations )","3.3 Гэмтэл"
"Encounter.diagnosis","","","",0,*,"Y","","Y","BackboneElement {[]} {[]}
","Энэ энкантуртай холбоотой оношийн жагсаалт.","Энэ энкантуртай холбоотой оношийн жагсаалт.","","","","","","","","","",,,,,"","value:use}
","",,"open","Encounter.diagnosis",0,*,"","ele-1:FHIR-ийн бүх элементүүд @утга эсвэл дэд элементийг агуулах ёстой {hasValue() or (children().count() > id.count())}
",".outboundRelationship[typeCode=RSON]","10 Оношийн талаарх мэдээлэл"
"Encounter.diagnosis.id","","","",0,1,"","","","string {[]} {[]}
","Элемент-хоорондын заалт хийх дахин давтагдашгүй id","Элемент дотооддоо заалт хийх дахин давтагдашгүй id (дотоодын заалт хийхэд зориулагдсан). Энэ нь зай агуулаагүй, ямар ч төрлийн тэмдэгтийн цуваан утга байж болно.","","","","","","","","","",,,,,"",,,,"Element.id",0,1,"","","n/a"
"Encounter.diagnosis.extension","","extensions
user content","",0,*,"","","","Extension {[]} {[]}
","Is ""by"" same as ""during the implementation""?","Элементийн үндсэн тодорхойлолтод ороогүй, нэмэлт мэдээллийг илэрхийлэхэд ашиглагдаж болно. Өргөтгөлийн хэрэглээг аюулгүй, зохион байгуулахад дөхөм байлгах үүднээс шинэ өргөтгөл тодорхойлох болон хэрэглэх явдлыг хатуу чанд тодорхойлсон байдаг. Бүх хэрэгжүүлэгч шинэ өргөтгөл тодорхойлж болох боловч өргөтгөлийн тодорхойлолтын хэсэг болон мөрдөгдөх ЁСТОЙ багц шаардлага байдаг.","Өргөтгөлийг ашиглаж эсвэл тодорхойлж буй байгууллага эсвэл хууль эрх зүйн хүрээний байдлаас үл хамааран, ямар ч програм, төсөл, стандартад өргөтгөлийг ашиглахад буруутгах зүйл байх ёсгүй. Өргөтгөлийн хэрэглээ нь FHIR-ийн тодорхойлолтыг хүн бүрийн хэрэгцээнд нийцэхүйц, энгийн түвшинд байх боломжийг олгож буй хүчин зүйл юм.","","","","","","","","",,,,,"",,,,"Element.extension",0,*,"","ele-1:FHIR-ийн бүх элементүүд @утга эсвэл дэд элементийг агуулах ёстой {hasValue() or (children().count() > id.count())}
ext-1:Өргөтгөл эсвэл утга[x]-ийн аль нэгийг агуулах ёстой, хоёуланг нь агуулж болохгүй {extension.exists() != value.exists()}","n/a"
"Encounter.diagnosis.modifierExtension","","extensions
user contentmodifiers","",0,*,"","Y","Y","Extension {[]} {[]}
","Танигдахгүй байсан ч хэрэгсэхгүй байж болохгүй өргөтгөлүүд","Хэрэглүүрийн үндсэн тодорхойлолтын хэсэг биш бөгөөд үүнийг агуулж буй элементийн тухай ойлголтыг болон / эсвэл агуулсан элементэд агуулагдах бүтцүүдийн тухай ойлголтыг өөрчлөх чадвартай нэмэлт мэдээллийг илэрхийлэхэд ашиглаж болно. Хувиргагч элементүүд нь ихэвчлэн үгүйсгэл эсвэл хязгаарлалтыг агуулдаг. Өргөтгөлийн хэрэглээг аюулгүй, зохион байгуулахад дөхөм байлгах үүднээс шинэ өргөтгөл тодорхойлох болон хэрэглэх явдлыг хатуу чанд тодорхойлсон байдаг. Бүх хэрэгжүүлэгч шинэ өргөтгөл тодорхойлж болох боловч өргөтгөлийн тодорхойлолтын хэсэг болон мөрдөгдөх ЁСТОЙ багц шаардлага байдаг. Хэрэглүүрийг боловсруулдаг аппликейшнүүд нь хувиргагч өргөтгөлүүдийг хянаж байх шаардлагатай. 

 Хувиргагч өргөтгөл нь Хэрэглүүр эсвэл ДомейнХэрэглүүр (мөн хувиргагчӨргөтгөлийн утгыг өөрчилж болохгүй) дээрх ямар нэг элементийн утгыг өөрчлөх ЁСГҮЙ.","Өргөтгөлийг ашиглаж эсвэл тодорхойлж буй байгууллага эсвэл хууль эрх зүйн хүрээний байдлаас үл хамааран, ямар ч програм, төсөл, стандартад өргөтгөлийг ашиглахад буруутгах зүйл байх ёсгүй. Өргөтгөлийн хэрэглээ нь FHIR-ийн тодорхойлолтыг хүн бүрийн хэрэгцээнд нийцэхүйц, энгийн түвшинд байх боломжийг олгож буй хүчин зүйл юм.","Хувиргагч өргөтгөл нь хэрэгсэхгүй байж *болохгүй* өргөтгөлүүдийг, хэрэгсэхгүй байж болох өргөтгөлүүдээс тодорхой ялгах боломжийг олгодог. Энэ нь хэрэгжүүлэгчид өргөтгөл байх эсэхийг хязгаарлах хэрэгцээг багасган, цахим систем хоорондын зохицлыг сайжруулдаг. Дэлгэрэнгүй мэдээллийг [хувиргагч өргөтгөлийн тодорхойлолт(extensibility.html#modifierExtension) хэсгээс үзнэ үү.","","","","","","","",,,,,"",,,,"BackboneElement.modifierExtension",0,*,"","ele-1:FHIR-ийн бүх элементүүд @утга эсвэл дэд элементийг агуулах ёстой {hasValue() or (children().count() > id.count())}
ext-1:Өргөтгөл эсвэл утга[x]-ийн аль нэгийг агуулах ёстой, хоёуланг нь агуулж болохгүй {extension.exists() != value.exists()}","N/A"
"Encounter.diagnosis.condition","","Admission diagnosis
discharge diagnosisindication","",1,1,"","","Y","Reference {[]} {[CanonicalType[http://hl7.org/fhir/StructureDefinition/Condition], CanonicalType[http://hl7.org/fhir/StructureDefinition/Procedure]]}
","Энкантуртай холбоотой онош эсвэл ажилбар","Энкантур болсон шалтгаан: бусад эх сурвалжаас ирсэн мэдээллийг ашиглан тодорхойлсон. Хэвтэх үед энэ нь хэвтэх үеийн онош байна. Энэ үзүүлэлт нь голдуу Эрүүл мэндийн байдал (бусад хэрэглүүрийн evidence.detail хэсэгт заагдана) юмуу Ажилбар байна. ","Системүүдийн хувьд аль нь эхний онош байсныг мэдэх хэрэгтэй бөгөөд энэ нь анхдагчОнош хэмээх стандарт өргөтгөлтэй хамт тэмдэглэгдэнэ. (Энэ нь туг гэхээс илүү дараалсан утга юм, 1 = эхний онош )","","","","","","","","",,,,,"",,,,"Encounter.diagnosis.condition",1,1,"","ele-1:FHIR-ийн бүх элементүүд @утга эсвэл дэд элементийг агуулах ёстой {hasValue() or (children().count() > id.count())}
","Event.reasonReference",".outboundRelationship[typeCode=RSON].target","FiveWs.why[x]","Resources that would commonly referenced at Encounter.indication would be Condition and/or Procedure. These most closely align with DG1/PRB and PR1 respectively.","10.2 Онош"
"Encounter.diagnosis.use","","","",0,1,"","","","CodeableConcept {[]} {[]}
","Энкантурт тухайн оношийн гүйцэтгэх үүрэг. (жишээ нь: эмнэлэгт хэвтэх, төлбөр тооцоо, эмнэлгээс гарах үеийн).","Энкантурт тухайн оношийн гүйцэтгэх үүрэг. (жишээ нь: эмнэлэгт хэвтэх, төлбөр тооцоо, эмнэлгээс гарах үеийн).","","","","","","","","","",,"preferred","Эрүүл мэндийн байдлыг илэрхийлэх оношийн төрөл.","http://hl7.org/fhir/ValueSet/diagnosis-role","",,,,"Encounter.diagnosis.use",0,1,"","ele-1:FHIR-ийн бүх элементүүд @утга эсвэл дэд элементийг агуулах ёстой {hasValue() or (children().count() > id.count())}
","n/a","10.1 1-урьдчилсан онош, 2-үндсэн онош, 3-хавсарсан онош, 4-хүндрэлийн онош, 5-ялгах онош"
"Encounter.diagnosis.rank","","","",0,1,"","","","positiveInt {[]} {[]}
","Оношийн эрэмбэ. (үүргийн төрөл бүрт)","Оношийн эрэмбэ. (үүргийн төрөл бүрт)","","","","","","","","","",,,,,"",,,,"Encounter.diagnosis.rank",0,1,"","ele-1:FHIR-ийн бүх элементүүд @утга эсвэл дэд элементийг агуулах ёстой {hasValue() or (children().count() > id.count())}
",".outboundRelationship[typeCode=RSON].priority"
"Encounter.diagnosis","complaint","","",0,1,"","","Y","BackboneElement {[]} {[]}
","Энэ энкантуртай холбоотой оношийн жагсаалт.","Энэ энкантуртай холбоотой оношийн жагсаалт.","","","","","","","","","",,,,,"",,,,"Encounter.diagnosis",0,*,"","ele-1:FHIR-ийн бүх элементүүд @утга эсвэл дэд элементийг агуулах ёстой {hasValue() or (children().count() > id.count())}
",".outboundRelationship[typeCode=RSON]","3.4 Үйлчлүүлэгчийн одоогийн зовиур"
"Encounter.diagnosis.id","","","",0,1,"","","","string {[]} {[]}
","Элемент-хоорондын заалт хийх дахин давтагдашгүй id","Элемент дотооддоо заалт хийх дахин давтагдашгүй id (дотоодын заалт хийхэд зориулагдсан). Энэ нь зай агуулаагүй, ямар ч төрлийн тэмдэгтийн цуваан утга байж болно.","","","","","","","","","",,,,,"",,,,"Element.id",0,1,"","","n/a"
"Encounter.diagnosis.extension","","extensions
user content","",0,*,"","","","Extension {[]} {[]}
","Is ""by"" same as ""during the implementation""?","Элементийн үндсэн тодорхойлолтод ороогүй, нэмэлт мэдээллийг илэрхийлэхэд ашиглагдаж болно. Өргөтгөлийн хэрэглээг аюулгүй, зохион байгуулахад дөхөм байлгах үүднээс шинэ өргөтгөл тодорхойлох болон хэрэглэх явдлыг хатуу чанд тодорхойлсон байдаг. Бүх хэрэгжүүлэгч шинэ өргөтгөл тодорхойлж болох боловч өргөтгөлийн тодорхойлолтын хэсэг болон мөрдөгдөх ЁСТОЙ багц шаардлага байдаг.","Өргөтгөлийг ашиглаж эсвэл тодорхойлж буй байгууллага эсвэл хууль эрх зүйн хүрээний байдлаас үл хамааран, ямар ч програм, төсөл, стандартад өргөтгөлийг ашиглахад буруутгах зүйл байх ёсгүй. Өргөтгөлийн хэрэглээ нь FHIR-ийн тодорхойлолтыг хүн бүрийн хэрэгцээнд нийцэхүйц, энгийн түвшинд байх боломжийг олгож буй хүчин зүйл юм.","","","","","","","","",,,,,"",,,,"Element.extension",0,*,"","ele-1:FHIR-ийн бүх элементүүд @утга эсвэл дэд элементийг агуулах ёстой {hasValue() or (children().count() > id.count())}
ext-1:Өргөтгөл эсвэл утга[x]-ийн аль нэгийг агуулах ёстой, хоёуланг нь агуулж болохгүй {extension.exists() != value.exists()}","n/a"
"Encounter.diagnosis.modifierExtension","","extensions
user contentmodifiers","",0,*,"","Y","Y","Extension {[]} {[]}
","Танигдахгүй байсан ч хэрэгсэхгүй байж болохгүй өргөтгөлүүд","Хэрэглүүрийн үндсэн тодорхойлолтын хэсэг биш бөгөөд үүнийг агуулж буй элементийн тухай ойлголтыг болон / эсвэл агуулсан элементэд агуулагдах бүтцүүдийн тухай ойлголтыг өөрчлөх чадвартай нэмэлт мэдээллийг илэрхийлэхэд ашиглаж болно. Хувиргагч элементүүд нь ихэвчлэн үгүйсгэл эсвэл хязгаарлалтыг агуулдаг. Өргөтгөлийн хэрэглээг аюулгүй, зохион байгуулахад дөхөм байлгах үүднээс шинэ өргөтгөл тодорхойлох болон хэрэглэх явдлыг хатуу чанд тодорхойлсон байдаг. Бүх хэрэгжүүлэгч шинэ өргөтгөл тодорхойлж болох боловч өргөтгөлийн тодорхойлолтын хэсэг болон мөрдөгдөх ЁСТОЙ багц шаардлага байдаг. Хэрэглүүрийг боловсруулдаг аппликейшнүүд нь хувиргагч өргөтгөлүүдийг хянаж байх шаардлагатай. 

 Хувиргагч өргөтгөл нь Хэрэглүүр эсвэл ДомейнХэрэглүүр (мөн хувиргагчӨргөтгөлийн утгыг өөрчилж болохгүй) дээрх ямар нэг элементийн утгыг өөрчлөх ЁСГҮЙ.","Өргөтгөлийг ашиглаж эсвэл тодорхойлж буй байгууллага эсвэл хууль эрх зүйн хүрээний байдлаас үл хамааран, ямар ч програм, төсөл, стандартад өргөтгөлийг ашиглахад буруутгах зүйл байх ёсгүй. Өргөтгөлийн хэрэглээ нь FHIR-ийн тодорхойлолтыг хүн бүрийн хэрэгцээнд нийцэхүйц, энгийн түвшинд байх боломжийг олгож буй хүчин зүйл юм.","Хувиргагч өргөтгөл нь хэрэгсэхгүй байж *болохгүй* өргөтгөлүүдийг, хэрэгсэхгүй байж болох өргөтгөлүүдээс тодорхой ялгах боломжийг олгодог. Энэ нь хэрэгжүүлэгчид өргөтгөл байх эсэхийг хязгаарлах хэрэгцээг багасган, цахим систем хоорондын зохицлыг сайжруулдаг. Дэлгэрэнгүй мэдээллийг [хувиргагч өргөтгөлийн тодорхойлолт(extensibility.html#modifierExtension) хэсгээс үзнэ үү.","","","","","","","",,,,,"",,,,"BackboneElement.modifierExtension",0,*,"","ele-1:FHIR-ийн бүх элементүүд @утга эсвэл дэд элементийг агуулах ёстой {hasValue() or (children().count() > id.count())}
ext-1:Өргөтгөл эсвэл утга[x]-ийн аль нэгийг агуулах ёстой, хоёуланг нь агуулж болохгүй {extension.exists() != value.exists()}","N/A"
"Encounter.diagnosis.condition","","Admission diagnosis
discharge diagnosisindication","",1,1,"","","Y","Reference {[]} {[CanonicalType[http://hl7.org/fhir/StructureDefinition/Condition], CanonicalType[http://hl7.org/fhir/StructureDefinition/Procedure]]}
","Энкантуртай холбоотой онош эсвэл ажилбар","Энкантур болсон шалтгаан: бусад эх сурвалжаас ирсэн мэдээллийг ашиглан тодорхойлсон. Хэвтэх үед энэ нь хэвтэх үеийн онош байна. Энэ үзүүлэлт нь голдуу Эрүүл мэндийн байдал (бусад хэрэглүүрийн evidence.detail хэсэгт заагдана) юмуу Ажилбар байна. ","Системүүдийн хувьд аль нь эхний онош байсныг мэдэх хэрэгтэй бөгөөд энэ нь анхдагчОнош хэмээх стандарт өргөтгөлтэй хамт тэмдэглэгдэнэ. (Энэ нь туг гэхээс илүү дараалсан утга юм, 1 = эхний онош )","","","","","","","","",,,,,"",,,,"Encounter.diagnosis.condition",1,1,"","ele-1:FHIR-ийн бүх элементүүд @утга эсвэл дэд элементийг агуулах ёстой {hasValue() or (children().count() > id.count())}
","Event.reasonReference",".outboundRelationship[typeCode=RSON].target","FiveWs.why[x]","Resources that would commonly referenced at Encounter.indication would be Condition and/or Procedure. These most closely align with DG1/PRB and PR1 respectively."
"Encounter.diagnosis.use","","","",1,1,"","","","CodeableConcept {[]} {[]}
","Энкантурт тухайн оношийн гүйцэтгэх үүрэг. (жишээ нь: эмнэлэгт хэвтэх, төлбөр тооцоо, эмнэлгээс гарах үеийн).","Энкантурт тухайн оношийн гүйцэтгэх үүрэг. (жишээ нь: эмнэлэгт хэвтэх, төлбөр тооцоо, эмнэлгээс гарах үеийн).","","","","","","<valueCodeableConcept xmlns=""http://hl7.org/fhir"">
  <coding>
    <code value=""CC""/>
  </coding>
</valueCodeableConcept>","","","",,"preferred","Эрүүл мэндийн байдлыг илэрхийлэх оношийн төрөл.","http://hl7.org/fhir/ValueSet/diagnosis-role","",,,,"Encounter.diagnosis.use",0,1,"","ele-1:FHIR-ийн бүх элементүүд @утга эсвэл дэд элементийг агуулах ёстой {hasValue() or (children().count() > id.count())}
","n/a"
"Encounter.diagnosis.rank","","","",0,1,"","","","positiveInt {[]} {[]}
","Оношийн эрэмбэ. (үүргийн төрөл бүрт)","Оношийн эрэмбэ. (үүргийн төрөл бүрт)","","","","","","","","","",,,,,"",,,,"Encounter.diagnosis.rank",0,1,"","ele-1:FHIR-ийн бүх элементүүд @утга эсвэл дэд элементийг агуулах ёстой {hasValue() or (children().count() > id.count())}
",".outboundRelationship[typeCode=RSON].priority"
"Encounter.diagnosis","discharge","","",0,1,"","","Y","BackboneElement {[]} {[]}
","Энэ энкантуртай холбоотой оношийн жагсаалт.","Энэ энкантуртай холбоотой оношийн жагсаалт.","","","","","","","","","",,,,,"",,,,"Encounter.diagnosis",0,*,"","ele-1:FHIR-ийн бүх элементүүд @утга эсвэл дэд элементийг агуулах ёстой {hasValue() or (children().count() > id.count())}
",".outboundRelationship[typeCode=RSON]"
"Encounter.diagnosis.id","","","",0,1,"","","","string {[]} {[]}
","Элемент-хоорондын заалт хийх дахин давтагдашгүй id","Элемент дотооддоо заалт хийх дахин давтагдашгүй id (дотоодын заалт хийхэд зориулагдсан). Энэ нь зай агуулаагүй, ямар ч төрлийн тэмдэгтийн цуваан утга байж болно.","","","","","","","","","",,,,,"",,,,"Element.id",0,1,"","","n/a"
"Encounter.diagnosis.extension","","extensions
user content","",0,*,"","","","Extension {[]} {[]}
","Is ""by"" same as ""during the implementation""?","Элементийн үндсэн тодорхойлолтод ороогүй, нэмэлт мэдээллийг илэрхийлэхэд ашиглагдаж болно. Өргөтгөлийн хэрэглээг аюулгүй, зохион байгуулахад дөхөм байлгах үүднээс шинэ өргөтгөл тодорхойлох болон хэрэглэх явдлыг хатуу чанд тодорхойлсон байдаг. Бүх хэрэгжүүлэгч шинэ өргөтгөл тодорхойлж болох боловч өргөтгөлийн тодорхойлолтын хэсэг болон мөрдөгдөх ЁСТОЙ багц шаардлага байдаг.","Өргөтгөлийг ашиглаж эсвэл тодорхойлж буй байгууллага эсвэл хууль эрх зүйн хүрээний байдлаас үл хамааран, ямар ч програм, төсөл, стандартад өргөтгөлийг ашиглахад буруутгах зүйл байх ёсгүй. Өргөтгөлийн хэрэглээ нь FHIR-ийн тодорхойлолтыг хүн бүрийн хэрэгцээнд нийцэхүйц, энгийн түвшинд байх боломжийг олгож буй хүчин зүйл юм.","","","","","","","","",,,,,"",,,,"Element.extension",0,*,"","ele-1:FHIR-ийн бүх элементүүд @утга эсвэл дэд элементийг агуулах ёстой {hasValue() or (children().count() > id.count())}
ext-1:Өргөтгөл эсвэл утга[x]-ийн аль нэгийг агуулах ёстой, хоёуланг нь агуулж болохгүй {extension.exists() != value.exists()}","n/a"
"Encounter.diagnosis.modifierExtension","","extensions
user contentmodifiers","",0,*,"","Y","Y","Extension {[]} {[]}
","Танигдахгүй байсан ч хэрэгсэхгүй байж болохгүй өргөтгөлүүд","Хэрэглүүрийн үндсэн тодорхойлолтын хэсэг биш бөгөөд үүнийг агуулж буй элементийн тухай ойлголтыг болон / эсвэл агуулсан элементэд агуулагдах бүтцүүдийн тухай ойлголтыг өөрчлөх чадвартай нэмэлт мэдээллийг илэрхийлэхэд ашиглаж болно. Хувиргагч элементүүд нь ихэвчлэн үгүйсгэл эсвэл хязгаарлалтыг агуулдаг. Өргөтгөлийн хэрэглээг аюулгүй, зохион байгуулахад дөхөм байлгах үүднээс шинэ өргөтгөл тодорхойлох болон хэрэглэх явдлыг хатуу чанд тодорхойлсон байдаг. Бүх хэрэгжүүлэгч шинэ өргөтгөл тодорхойлж болох боловч өргөтгөлийн тодорхойлолтын хэсэг болон мөрдөгдөх ЁСТОЙ багц шаардлага байдаг. Хэрэглүүрийг боловсруулдаг аппликейшнүүд нь хувиргагч өргөтгөлүүдийг хянаж байх шаардлагатай. 

 Хувиргагч өргөтгөл нь Хэрэглүүр эсвэл ДомейнХэрэглүүр (мөн хувиргагчӨргөтгөлийн утгыг өөрчилж болохгүй) дээрх ямар нэг элементийн утгыг өөрчлөх ЁСГҮЙ.","Өргөтгөлийг ашиглаж эсвэл тодорхойлж буй байгууллага эсвэл хууль эрх зүйн хүрээний байдлаас үл хамааран, ямар ч програм, төсөл, стандартад өргөтгөлийг ашиглахад буруутгах зүйл байх ёсгүй. Өргөтгөлийн хэрэглээ нь FHIR-ийн тодорхойлолтыг хүн бүрийн хэрэгцээнд нийцэхүйц, энгийн түвшинд байх боломжийг олгож буй хүчин зүйл юм.","Хувиргагч өргөтгөл нь хэрэгсэхгүй байж *болохгүй* өргөтгөлүүдийг, хэрэгсэхгүй байж болох өргөтгөлүүдээс тодорхой ялгах боломжийг олгодог. Энэ нь хэрэгжүүлэгчид өргөтгөл байх эсэхийг хязгаарлах хэрэгцээг багасган, цахим систем хоорондын зохицлыг сайжруулдаг. Дэлгэрэнгүй мэдээллийг [хувиргагч өргөтгөлийн тодорхойлолт(extensibility.html#modifierExtension) хэсгээс үзнэ үү.","","","","","","","",,,,,"",,,,"BackboneElement.modifierExtension",0,*,"","ele-1:FHIR-ийн бүх элементүүд @утга эсвэл дэд элементийг агуулах ёстой {hasValue() or (children().count() > id.count())}
ext-1:Өргөтгөл эсвэл утга[x]-ийн аль нэгийг агуулах ёстой, хоёуланг нь агуулж болохгүй {extension.exists() != value.exists()}","N/A"
"Encounter.diagnosis.condition","","Admission diagnosis
discharge diagnosisindication","",1,1,"","","Y","Reference {[]} {[CanonicalType[http://hl7.org/fhir/StructureDefinition/Condition], CanonicalType[http://hl7.org/fhir/StructureDefinition/Procedure]]}
","Энкантуртай холбоотой онош эсвэл ажилбар","Энкантур болсон шалтгаан: бусад эх сурвалжаас ирсэн мэдээллийг ашиглан тодорхойлсон. Хэвтэх үед энэ нь хэвтэх үеийн онош байна. Энэ үзүүлэлт нь голдуу Эрүүл мэндийн байдал (бусад хэрэглүүрийн evidence.detail хэсэгт заагдана) юмуу Ажилбар байна. ","Системүүдийн хувьд аль нь эхний онош байсныг мэдэх хэрэгтэй бөгөөд энэ нь анхдагчОнош хэмээх стандарт өргөтгөлтэй хамт тэмдэглэгдэнэ. (Энэ нь туг гэхээс илүү дараалсан утга юм, 1 = эхний онош )","","","","","","","","",,,,,"",,,,"Encounter.diagnosis.condition",1,1,"","ele-1:FHIR-ийн бүх элементүүд @утга эсвэл дэд элементийг агуулах ёстой {hasValue() or (children().count() > id.count())}
","Event.reasonReference",".outboundRelationship[typeCode=RSON].target","FiveWs.why[x]","Resources that would commonly referenced at Encounter.indication would be Condition and/or Procedure. These most closely align with DG1/PRB and PR1 respectively."
"Encounter.diagnosis.use","","","",1,1,"","","","CodeableConcept {[]} {[]}
","Энкантурт тухайн оношийн гүйцэтгэх үүрэг. (жишээ нь: эмнэлэгт хэвтэх, төлбөр тооцоо, эмнэлгээс гарах үеийн).","Энкантурт тухайн оношийн гүйцэтгэх үүрэг. (жишээ нь: эмнэлэгт хэвтэх, төлбөр тооцоо, эмнэлгээс гарах үеийн).","","","","","","<valueCodeableConcept xmlns=""http://hl7.org/fhir"">
  <coding>
    <code value=""DD""/>
  </coding>
</valueCodeableConcept>","","","",,"preferred","Эрүүл мэндийн байдлыг илэрхийлэх оношийн төрөл.","http://hl7.org/fhir/ValueSet/diagnosis-role","",,,,"Encounter.diagnosis.use",0,1,"","ele-1:FHIR-ийн бүх элементүүд @утга эсвэл дэд элементийг агуулах ёстой {hasValue() or (children().count() > id.count())}
","n/a"
"Encounter.diagnosis.rank","","","",0,1,"","","","positiveInt {[]} {[]}
","Оношийн эрэмбэ. (үүргийн төрөл бүрт)","Оношийн эрэмбэ. (үүргийн төрөл бүрт)","","","","","","","","","",,,,,"",,,,"Encounter.diagnosis.rank",0,1,"","ele-1:FHIR-ийн бүх элементүүд @утга эсвэл дэд элементийг агуулах ёстой {hasValue() or (children().count() > id.count())}
",".outboundRelationship[typeCode=RSON].priority"
"Encounter.account","","","",0,0,"","","","Reference {[]} {[CanonicalType[http://hl7.org/fhir/StructureDefinition/Account]]}
","Энэ Энкантурын төлбөрийг бодоход хэрэглэгдэж болох тооцоонуудын багц.","Энэ Энкантурын төлбөрийг бодоход хэрэглэгдэж болох тооцоонуудын багц.","Төлбөр тооцооны систем нь дотоод бизнес дүрмүүдэд суурьлан өөр Аккоунтруу зааж Энкантуртай холбоотой төлбөр тооцоо хийхэд зориулагдсан хэсгүүдийг сонгодог байж болно. ","","","","","","","","",,,,,"",,,,"Encounter.account",0,*,"","ele-1:FHIR-ийн бүх элементүүд @утга эсвэл дэд элементийг агуулах ёстой {hasValue() or (children().count() > id.count())}
",".pertains.A_Account"
"Encounter.hospitalization","","","",1,1,"Y","","","BackboneElement {[]} {[]}
","Эмнэлгийн тусламж үйлчилгээ авахтай (эмнэлэгт хэвтэх) холбоотой тайлбарууд. ","Эмнэлгийн тусламж үйлчилгээ авахтай (эмнэлэгт хэвтэх) холбоотой тайлбарууд. ","Энкантурын хамрах хүрээ нь зөвхөн эмнэлэгт хэвтэх үеээр хязгаарлагдахгүй. Амбулатори, олон нийтийн клиник, асрамжийн газар зэрэг хам сэдвүүд ч хамаарагдана. ","","","","","","","","",,,,,"",,,,"Encounter.hospitalization",0,1,"","ele-1:FHIR-ийн бүх элементүүд @утга эсвэл дэд элементийг агуулах ёстой {hasValue() or (children().count() > id.count())}
",".outboundRelationship[typeCode=COMP].target[classCode=ENC, moodCode=EVN]","15 Яаралтай тусламж үзүүлсэн үйлчлүүлэгчийг хүлээлцсэн тухай мэдээлэл"
"Encounter.hospitalization.id","","","",0,1,"","","","string {[]} {[]}
","Элемент-хоорондын заалт хийх дахин давтагдашгүй id","Элемент дотооддоо заалт хийх дахин давтагдашгүй id (дотоодын заалт хийхэд зориулагдсан). Энэ нь зай агуулаагүй, ямар ч төрлийн тэмдэгтийн цуваан утга байж болно.","","","","","","","","","",,,,,"",,,,"Element.id",0,1,"","","n/a"
"Encounter.hospitalization.extension","","","",0,*,"","","","Extension {[]} {[]}
","Extension","An Extension","","","","","","","","","",,,,,"","value:url}
","",,"open","Element.extension",0,*,"","ele-1:FHIR-ийн бүх элементүүд @утга эсвэл дэд элементийг агуулах ёстой {hasValue() or (children().count() > id.count())}
ext-1:Өргөтгөл эсвэл утга[x]-ийн аль нэгийг агуулах ёстой, хоёуланг нь агуулж болохгүй {extension.exists() != value.exists()}"
"Encounter.hospitalization.extension","handover-requested","","",0,1,"Y","","","Extension {[CanonicalType[http://fhir.mn/StructureDefinition/handover-requested]]} {[]}
","Сонголтоор авах Өргөтгөл Элемент","Сонголтоор авах Өргөтгөл Элемент - бүх хэрэглүүрт агуулагдана","","","","","","","","","",,,,,"",,,,"Element.extension",0,*,"ele-1
","ele-1:FHIR-ийн бүх элементүүд @утга эсвэл дэд элементийг агуулах ёстой {hasValue() or (children().count() > id.count())}
ext-1:Өргөтгөл эсвэл утга[x]-ийн аль нэгийг агуулах ёстой, хоёуланг нь агуулж болохгүй {extension.exists() != value.exists()}","n/a","N/A","15.1 Хэвтүүлэн эмчлүүлэх тасагт хүлээлгэн өгсөн он, сар, өдөр, цаг, минут"
"Encounter.hospitalization.extension","handover-performed","","",0,1,"Y","","","Extension {[CanonicalType[http://fhir.mn/StructureDefinition/handover-performed]]} {[]}
","Сонголтоор авах Өргөтгөл Элемент","Сонголтоор авах Өргөтгөл Элемент - бүх хэрэглүүрт агуулагдана","","","","","","","","","",,,,,"",,,,"Element.extension",0,*,"ele-1
","ele-1:FHIR-ийн бүх элементүүд @утга эсвэл дэд элементийг агуулах ёстой {hasValue() or (children().count() > id.count())}
ext-1:Өргөтгөл эсвэл утга[x]-ийн аль нэгийг агуулах ёстой, хоёуланг нь агуулж болохгүй {extension.exists() != value.exists()}","n/a","N/A","15.2 Хэвтүүлэн эмчлүүлэх тасагт хүлээн авсан он сар, өдөр, цаг, минут"
"Encounter.hospitalization.extension","handover-person","","",0,1,"Y","","","Extension {[CanonicalType[http://fhir.mn/StructureDefinition/handover-person]]} {[]}
","Сонголтоор авах Өргөтгөл Элемент","Сонголтоор авах Өргөтгөл Элемент - бүх хэрэглүүрт агуулагдана","","","","","","","","","",,,,,"",,,,"Element.extension",0,*,"ele-1
","ele-1:FHIR-ийн бүх элементүүд @утга эсвэл дэд элементийг агуулах ёстой {hasValue() or (children().count() > id.count())}
ext-1:Өргөтгөл эсвэл утга[x]-ийн аль нэгийг агуулах ёстой, хоёуланг нь агуулж болохгүй {extension.exists() != value.exists()}","n/a","N/A","15.4 Хүлээлгэн өгсөн эмч, эмнэлгийн мэргэжилтэн нэр"
"Encounter.hospitalization.extension","receiving-person","","",0,1,"Y","","","Extension {[CanonicalType[http://fhir.mn/StructureDefinition/receiving-person]]} {[]}
","Сонголтоор авах Өргөтгөл Элемент","Сонголтоор авах Өргөтгөл Элемент - бүх хэрэглүүрт агуулагдана","","","","","","","","","",,,,,"",,,,"Element.extension",0,*,"ele-1
","ele-1:FHIR-ийн бүх элементүүд @утга эсвэл дэд элементийг агуулах ёстой {hasValue() or (children().count() > id.count())}
ext-1:Өргөтгөл эсвэл утга[x]-ийн аль нэгийг агуулах ёстой, хоёуланг нь агуулж болохгүй {extension.exists() != value.exists()}","n/a","N/A","15.5 Хүлээн авсан өгсөн эмч, эмнэлгийн мэргэжилтэн нэр"
"Encounter.hospitalization.modifierExtension","","extensions
user contentmodifiers","",0,*,"","Y","Y","Extension {[]} {[]}
","Танигдахгүй байсан ч хэрэгсэхгүй байж болохгүй өргөтгөлүүд","Хэрэглүүрийн үндсэн тодорхойлолтын хэсэг биш бөгөөд үүнийг агуулж буй элементийн тухай ойлголтыг болон / эсвэл агуулсан элементэд агуулагдах бүтцүүдийн тухай ойлголтыг өөрчлөх чадвартай нэмэлт мэдээллийг илэрхийлэхэд ашиглаж болно. Хувиргагч элементүүд нь ихэвчлэн үгүйсгэл эсвэл хязгаарлалтыг агуулдаг. Өргөтгөлийн хэрэглээг аюулгүй, зохион байгуулахад дөхөм байлгах үүднээс шинэ өргөтгөл тодорхойлох болон хэрэглэх явдлыг хатуу чанд тодорхойлсон байдаг. Бүх хэрэгжүүлэгч шинэ өргөтгөл тодорхойлж болох боловч өргөтгөлийн тодорхойлолтын хэсэг болон мөрдөгдөх ЁСТОЙ багц шаардлага байдаг. Хэрэглүүрийг боловсруулдаг аппликейшнүүд нь хувиргагч өргөтгөлүүдийг хянаж байх шаардлагатай. 

 Хувиргагч өргөтгөл нь Хэрэглүүр эсвэл ДомейнХэрэглүүр (мөн хувиргагчӨргөтгөлийн утгыг өөрчилж болохгүй) дээрх ямар нэг элементийн утгыг өөрчлөх ЁСГҮЙ.","Өргөтгөлийг ашиглаж эсвэл тодорхойлж буй байгууллага эсвэл хууль эрх зүйн хүрээний байдлаас үл хамааран, ямар ч програм, төсөл, стандартад өргөтгөлийг ашиглахад буруутгах зүйл байх ёсгүй. Өргөтгөлийн хэрэглээ нь FHIR-ийн тодорхойлолтыг хүн бүрийн хэрэгцээнд нийцэхүйц, энгийн түвшинд байх боломжийг олгож буй хүчин зүйл юм.","Хувиргагч өргөтгөл нь хэрэгсэхгүй байж *болохгүй* өргөтгөлүүдийг, хэрэгсэхгүй байж болох өргөтгөлүүдээс тодорхой ялгах боломжийг олгодог. Энэ нь хэрэгжүүлэгчид өргөтгөл байх эсэхийг хязгаарлах хэрэгцээг багасган, цахим систем хоорондын зохицлыг сайжруулдаг. Дэлгэрэнгүй мэдээллийг [хувиргагч өргөтгөлийн тодорхойлолт(extensibility.html#modifierExtension) хэсгээс үзнэ үү.","","","","","","","",,,,,"",,,,"BackboneElement.modifierExtension",0,*,"","ele-1:FHIR-ийн бүх элементүүд @утга эсвэл дэд элементийг агуулах ёстой {hasValue() or (children().count() > id.count())}
ext-1:Өргөтгөл эсвэл утга[x]-ийн аль нэгийг агуулах ёстой, хоёуланг нь агуулж болохгүй {extension.exists() != value.exists()}","N/A"
"Encounter.hospitalization.preAdmissionIdentifier","","","",0,0,"","","","Identifier {[]} {[]}
","Хэвтэхийн өмнөх ялган танигч","Хэвтэхийн өмнөх ялган танигч","","","","","","","","","",,,,,"",,,,"Encounter.hospitalization.preAdmissionIdentifier",0,1,"","ele-1:FHIR-ийн бүх элементүүд @утга эсвэл дэд элементийг агуулах ёстой {hasValue() or (children().count() > id.count())}
",".id","PV1-5"
"Encounter.hospitalization.origin","","","",0,0,"","","","Reference {[]} {[CanonicalType[http://hl7.org/fhir/StructureDefinition/Location], CanonicalType[http://hl7.org/fhir/StructureDefinition/Organization]]}
","Өвчтөн эмнэлэгт хэвтэхийн өмнө байсан байрлал/байгууллага.","Өвчтөн эмнэлэгт хэвтэхийн өмнө байсан байрлал/байгууллага.","","","","","","","","","",,,,,"",,,,"Encounter.hospitalization.origin",0,1,"","ele-1:FHIR-ийн бүх элементүүд @утга эсвэл дэд элементийг агуулах ёстой {hasValue() or (children().count() > id.count())}
",".participation[typeCode=ORG].role"
"Encounter.hospitalization.admitSource","","","",0,0,"","","","CodeableConcept {[]} {[]}
","Хаанаас өвчтөн хэвтсэн болох (эмчийн шилжүүлэг, шилжүүлэг)","Хаанаас өвчтөн хэвтсэн болох (эмчийн шилжүүлэг, шилжүүлэг)","","","","","","","","","",,"preferred","Хаанаас өвчтөн хэвтсэн болох.","http://hl7.org/fhir/ValueSet/encounter-admit-source","",,,,"Encounter.hospitalization.admitSource",0,1,"","ele-1:FHIR-ийн бүх элементүүд @утга эсвэл дэд элементийг агуулах ёстой {hasValue() or (children().count() > id.count())}
",".admissionReferralSourceCode","PV1-14"
"Encounter.hospitalization.reAdmission","","","",0,0,"","","","CodeableConcept {[]} {[]}
","Эмнэлэгт дахин хэвтсэн төрөл(Хэрэв дахин хэвтсэн бол). Хэрэв энэ утга нь байхгүй байвал энэ нь дахин хэвтэлт биш гэж тодорхойлогдоно.  ","Эмнэлэгт хэвтэл нь дахин хэвтэл эсэх, хэрэв тийм бол яагаад.","","","","","","","","","",,"example","Энэ энкантурын үед  дахин хэвтэх болсон шалтгаан. ","http://terminology.hl7.org/ValueSet/v2-0092","",,,,"Encounter.hospitalization.reAdmission",0,1,"","ele-1:FHIR-ийн бүх элементүүд @утга эсвэл дэд элементийг агуулах ёстой {hasValue() or (children().count() > id.count())}
","n/a","PV1-13"
"Encounter.hospitalization.dietPreference","","","",0,0,"","","","CodeableConcept {[]} {[]}
","Өвчтний мэдээлсэн илүүд үзэх хоолны дэглэм. ","Өвчтний мэдээлсэн илүүд үзэх хоолны дэглэм. ","Жишээлбэл: Өвчтөн сүү болон самар агуулаагүй хүнсний аль алинийг хүсэж болно. (хамтад нь оруулахгүй байх)","Өвчтний хэрэглэдэггүй болон илүүд үзэх хүнсийг бүртгэхэд ашиглана. Өвчтнийг хэвтэх үед шаардлагатай хоол хүнсний хэрэгцээг бүрэн тайлбарлахын тулд Энкантуртай холбоотой хүнснийЗахиалга - г хэрэглэх ёстой.","","","","","","","",,"example","Хүнсний хангамжийн шаардлагад тус болох анагаах ухааны, соёлын болон ёс зүйн талаас илүүд үзэх хүнс. ","http://hl7.org/fhir/ValueSet/encounter-diet","",,,,"Encounter.hospitalization.dietPreference",0,*,"","ele-1:FHIR-ийн бүх элементүүд @утга эсвэл дэд элементийг агуулах ёстой {hasValue() or (children().count() > id.count())}
",".outboundRelationship[typeCode=COMP].target[classCode=SBADM, moodCode=EVN, code=""diet""]","PV1-38"
"Encounter.hospitalization.specialCourtesy","","","",0,0,"","","","CodeableConcept {[]} {[]}
","Тусгай анхаарамж (VIP, зөвлөлийн гишүүн)","Тусгай анхаарамж (VIP, зөвлөлийн гишүүн)","","","","","","","","","",,"preferred","Тусгай анхаарамжууд.","http://hl7.org/fhir/ValueSet/encounter-special-courtesy","",,,,"Encounter.hospitalization.specialCourtesy",0,*,"","ele-1:FHIR-ийн бүх элементүүд @утга эсвэл дэд элементийг агуулах ёстой {hasValue() or (children().count() > id.count())}
",".specialCourtesiesCode","PV1-16"
"Encounter.hospitalization.specialArrangement","","","",0,0,"","","","CodeableConcept {[]} {[]}
","Зөөлөн сандал, орчуулагч, дамнуурга гэх мэт.","Тусгай багаж хэрэгсэл эсвэл бусад хангамж зэрэг эмнэлэгт хэвтэх энкантурын үед тавигдсан ямар нэгэн тусгай хүсэлт.","","","","","","","","","",,"preferred","Тусгай зохицуулалтууд","http://hl7.org/fhir/ValueSet/encounter-special-arrangements","",,,,"Encounter.hospitalization.specialArrangement",0,*,"","ele-1:FHIR-ийн бүх элементүүд @утга эсвэл дэд элементийг агуулах ёстой {hasValue() or (children().count() > id.count())}
",".specialArrangementCode","PV1-15 / OBR-30 / OBR-43"
"Encounter.hospitalization.destination","","","",0,1,"Y","","","Reference {[]} {[CanonicalType[http://fhir.mn/StructureDefinition/mng-core-organization-department]]}
","Өвчтөнийг гаргасан байрлал/байгууллага. ","Өвчтөнийг гаргасан байрлал/байгууллага. ","","","","","","","","","",,,,,"",,,,"Encounter.hospitalization.destination",0,1,"","ele-1:FHIR-ийн бүх элементүүд @утга эсвэл дэд элементийг агуулах ёстой {hasValue() or (children().count() > id.count())}
",".participation[typeCode=DST]","PV1-37","15.3 Хэвтүүлэн эмчлэх тасаг нэр, байршил"
"Encounter.hospitalization.dischargeDisposition","","","",1,1,"Y","","","CodeableConcept {[]} {[]}
","Гарсны дараах газрын төрөл эсвэл ангилал. ","Гарсны дараах газрын төрөл эсвэл ангилал. ","","","","","","","","","",,"required","","http://fhir.mn/ValueSet/DischargeDispositionValueSet","",,,,"Encounter.hospitalization.dischargeDisposition",0,1,"","ele-1:FHIR-ийн бүх элементүүд @утга эсвэл дэд элементийг агуулах ёстой {hasValue() or (children().count() > id.count())}
",".dischargeDispositionCode","PV1-36","2.7 ЯТТ-аас гарсан хэлбэр/шийдвэрлэсэн байдал"
"Encounter.location","","","",0,0,"","","","BackboneElement {[]} {[]}
","Өвчтний байсан газруудын жагсаалт","Энэ энкантурын үед өвчтний байсан газруудын жагсаалт. ","Виртуал энкантурууд нь Энкантурын байрлалын төрөлд ""үйлчлүүлэгчийн гэрт"" болон энкантур.бүлэг=""виртуал"" гэх мэтээр тусгайлан заасан хэсэгт бүртгэгдэнэ. ","","","","","","","","",,,,,"",,,,"Encounter.location",0,*,"","ele-1:FHIR-ийн бүх элементүүд @утга эсвэл дэд элементийг агуулах ёстой {hasValue() or (children().count() > id.count())}
",".participation[typeCode=LOC]","2.6 Тусламж үйлчилгээ үзүүлсэн үзлэгийн кабинетийн байршил"
"Encounter.location.id","","","",0,1,"","","","string {[]} {[]}
","Элемент-хоорондын заалт хийх дахин давтагдашгүй id","Элемент дотооддоо заалт хийх дахин давтагдашгүй id (дотоодын заалт хийхэд зориулагдсан). Энэ нь зай агуулаагүй, ямар ч төрлийн тэмдэгтийн цуваан утга байж болно.","","","","","","","","","",,,,,"",,,,"Element.id",0,1,"","","n/a"
"Encounter.location.extension","","extensions
user content","",0,*,"","","","Extension {[]} {[]}
","Is ""by"" same as ""during the implementation""?","Элементийн үндсэн тодорхойлолтод ороогүй, нэмэлт мэдээллийг илэрхийлэхэд ашиглагдаж болно. Өргөтгөлийн хэрэглээг аюулгүй, зохион байгуулахад дөхөм байлгах үүднээс шинэ өргөтгөл тодорхойлох болон хэрэглэх явдлыг хатуу чанд тодорхойлсон байдаг. Бүх хэрэгжүүлэгч шинэ өргөтгөл тодорхойлж болох боловч өргөтгөлийн тодорхойлолтын хэсэг болон мөрдөгдөх ЁСТОЙ багц шаардлага байдаг.","Өргөтгөлийг ашиглаж эсвэл тодорхойлж буй байгууллага эсвэл хууль эрх зүйн хүрээний байдлаас үл хамааран, ямар ч програм, төсөл, стандартад өргөтгөлийг ашиглахад буруутгах зүйл байх ёсгүй. Өргөтгөлийн хэрэглээ нь FHIR-ийн тодорхойлолтыг хүн бүрийн хэрэгцээнд нийцэхүйц, энгийн түвшинд байх боломжийг олгож буй хүчин зүйл юм.","","","","","","","","",,,,,"",,,,"Element.extension",0,*,"","ele-1:FHIR-ийн бүх элементүүд @утга эсвэл дэд элементийг агуулах ёстой {hasValue() or (children().count() > id.count())}
ext-1:Өргөтгөл эсвэл утга[x]-ийн аль нэгийг агуулах ёстой, хоёуланг нь агуулж болохгүй {extension.exists() != value.exists()}","n/a"
"Encounter.location.modifierExtension","","extensions
user contentmodifiers","",0,*,"","Y","Y","Extension {[]} {[]}
","Танигдахгүй байсан ч хэрэгсэхгүй байж болохгүй өргөтгөлүүд","Хэрэглүүрийн үндсэн тодорхойлолтын хэсэг биш бөгөөд үүнийг агуулж буй элементийн тухай ойлголтыг болон / эсвэл агуулсан элементэд агуулагдах бүтцүүдийн тухай ойлголтыг өөрчлөх чадвартай нэмэлт мэдээллийг илэрхийлэхэд ашиглаж болно. Хувиргагч элементүүд нь ихэвчлэн үгүйсгэл эсвэл хязгаарлалтыг агуулдаг. Өргөтгөлийн хэрэглээг аюулгүй, зохион байгуулахад дөхөм байлгах үүднээс шинэ өргөтгөл тодорхойлох болон хэрэглэх явдлыг хатуу чанд тодорхойлсон байдаг. Бүх хэрэгжүүлэгч шинэ өргөтгөл тодорхойлж болох боловч өргөтгөлийн тодорхойлолтын хэсэг болон мөрдөгдөх ЁСТОЙ багц шаардлага байдаг. Хэрэглүүрийг боловсруулдаг аппликейшнүүд нь хувиргагч өргөтгөлүүдийг хянаж байх шаардлагатай. 

 Хувиргагч өргөтгөл нь Хэрэглүүр эсвэл ДомейнХэрэглүүр (мөн хувиргагчӨргөтгөлийн утгыг өөрчилж болохгүй) дээрх ямар нэг элементийн утгыг өөрчлөх ЁСГҮЙ.","Өргөтгөлийг ашиглаж эсвэл тодорхойлж буй байгууллага эсвэл хууль эрх зүйн хүрээний байдлаас үл хамааран, ямар ч програм, төсөл, стандартад өргөтгөлийг ашиглахад буруутгах зүйл байх ёсгүй. Өргөтгөлийн хэрэглээ нь FHIR-ийн тодорхойлолтыг хүн бүрийн хэрэгцээнд нийцэхүйц, энгийн түвшинд байх боломжийг олгож буй хүчин зүйл юм.","Хувиргагч өргөтгөл нь хэрэгсэхгүй байж *болохгүй* өргөтгөлүүдийг, хэрэгсэхгүй байж болох өргөтгөлүүдээс тодорхой ялгах боломжийг олгодог. Энэ нь хэрэгжүүлэгчид өргөтгөл байх эсэхийг хязгаарлах хэрэгцээг багасган, цахим систем хоорондын зохицлыг сайжруулдаг. Дэлгэрэнгүй мэдээллийг [хувиргагч өргөтгөлийн тодорхойлолт(extensibility.html#modifierExtension) хэсгээс үзнэ үү.","","","","","","","",,,,,"",,,,"BackboneElement.modifierExtension",0,*,"","ele-1:FHIR-ийн бүх элементүүд @утга эсвэл дэд элементийг агуулах ёстой {hasValue() or (children().count() > id.count())}
ext-1:Өргөтгөл эсвэл утга[x]-ийн аль нэгийг агуулах ёстой, хоёуланг нь агуулж болохгүй {extension.exists() != value.exists()}","N/A"
"Encounter.location.location","","","",1,1,"","","","Reference {[]} {[CanonicalType[http://hl7.org/fhir/StructureDefinition/Location]]}
","Энкантур болсон байрлал","Энкантур болсон байрлал хаана болох.","","","","","","","","","",,,,,"",,,,"Encounter.location.location",1,1,"","ele-1:FHIR-ийн бүх элементүүд @утга эсвэл дэд элементийг агуулах ёстой {hasValue() or (children().count() > id.count())}
","Event.location",".role","FiveWs.where[x]","PV1-3 / PV1-6 / PV1-11 / PV1-42 / PV1-43"
"Encounter.location.status","","","",0,1,"","","","code {[]} {[]}
","төлөвлөгдсөн | идэвхитэй | захиалагдсан | дууссан","Тодорхой үед тодорхой байрлалд оролцогчдын өөрийн биеээр оролцох статус. Хэрэв оролцогч тэр байрлалд байхгүй бол тухайн огноо цагт энкантурын үе дуусна. ","Өвчтөн тухайн байрлалд идэвхитэй байхгүй тохиолдолд энкантурын үе дуусах цаг орж статус нь дууссан болж солигдож болно. ","","","","","","","","",,"required","Байрлалын статус. ","http://hl7.org/fhir/ValueSet/encounter-location-status|4.0.1","",,,,"Encounter.location.status",0,1,"","ele-1:FHIR-ийн бүх элементүүд @утга эсвэл дэд элементийг агуулах ёстой {hasValue() or (children().count() > id.count())}
",".role.statusCode"
"Encounter.location.physicalType","","","",0,1,"","","","CodeableConcept {[]} {[]}
","Байрлалын бодит төрөл. (ихэвчлэн тухайн хэсгийн шатлалаар - тасгийн унтлагын өрөө гэх мэт)","Энэ нь шаардлагатай түвшнүүдийг тусгайлан тодорхойлсноор лавлах мэдээллэх үйл явцыг хялбарчилан бүртгэхэд ашиглагдана. ","Энэ мэдээлэл нь лавлах мэдээлэх үйл явцыг болон Энкантур хэрэглүүрийг илүү хялбар ойлгуулахын тулд Байрлал хэрэглүүрээс бүрэн стандартчилагдсан. 

Шатлалын олон түвшин байж болох ба энэ нь зөвхөн тусгай хэрэглээнд шаардагддаг зураг өвөрмөц түвшин байж болно.  ","","","","","","","","",,"example","Байрлалын бодит хэлбэр. ","http://hl7.org/fhir/ValueSet/location-physical-type","",,,,"Encounter.location.physicalType",0,1,"","ele-1:FHIR-ийн бүх элементүүд @утга эсвэл дэд элементийг агуулах ёстой {hasValue() or (children().count() > id.count())}
"
"Encounter.location.period","","","",0,1,"","","","Period {[]} {[]}
","Өвчтөн тухайн байрлалд байсан хугацааны үе.","Өвчтөн тухайн байрлалд байсан хугацааны үе.","","","","","","","","","",,,,,"",,,,"Encounter.location.period",0,1,"","ele-1:FHIR-ийн бүх элементүүд @утга эсвэл дэд элементийг агуулах ёстой {hasValue() or (children().count() > id.count())}
",".time"
"Encounter.serviceProvider","","","",0,1,"Y","","","Reference {[]} {[CanonicalType[http://fhir.mn/StructureDefinition/mng-core-organization]]}
","Энэ энкантурыг хариуцах байгууллага (тасаг)","Энэ энкантурын үйлчилгээнд анхдагч хариуцлага хүлээх байгууллага. Энэ нь өвчтөний бүртгэл дэх байгууллагатай адилхан байж БОЛНО, өөр ч байж болно жишээ нь: хэрвээ үйлчилгээг үзүүлэгч зөвлөгөө өгөхөөр гадны (төлбөр нь тусдаа бодогдох) байгууллагаас ирсэн байх. Жишээний холбоосруу шилжвэл бүдүүн гэдэсний дурангийн Энкантуруудын хураангуйлсан багцыг үзэж болно.","","","","","","","","","",,,,,"",,,,"Encounter.serviceProvider",0,1,"","ele-1:FHIR-ийн бүх элементүүд @утга эсвэл дэд элементийг агуулах ёстой {hasValue() or (children().count() > id.count())}
","Event.performer.actor",".particiaption[typeCode=PFM].role","PL.6  & PL.1"
"Encounter.partOf","","","",0,1,"Y","","","Reference {[]} {[CanonicalType[http://fhir.mn/StructureDefinition/mng-encounter]]}
","Энэ энкантур түүний хэсэг болох өөр энкантур ","Энэ энкантур түүний хэсэг болох өөр энкантур (Захиргааны эсвэл цаг хугацааны хувьд)","Энэ хэсэг нь мөн хүүхдийн энкантуртай холбогдон ээжийнх нь энкантурлуу буцахад хэрэглэгдэнэ.

Нэмэлт тайлбар үзэхийн тулд Өвчтөн хэрэглүүрийн Тэмдэглэлрүү шилжинэ үү. ","","","","","","","","",,,,,"",,,,"Encounter.partOf",0,1,"","ele-1:FHIR-ийн бүх элементүүд @утга эсвэл дэд элементийг агуулах ёстой {hasValue() or (children().count() > id.count())}
","Event.partOf",".inboundRelationship[typeCode=COMP].source[classCode=COMP, moodCode=EVN]"
