"Path","Slice Name","Alias(s)","Label","Min","Max","Must Support?","Is Modifier?","Is Summary?","Type(s)","Short","Definition","Comments","Requirements","Default Value","Meaning When Missing","Fixed Value","Pattern","Example","Minimum Value","Maximum Value","Maximum Length","Binding Strength","Binding Description","Binding Value Set","Code","Slicing Discriminator","Slicing Description","Slicing Ordered","Slicing Rules","Base Path","Base Min","Base Max","Condition(s)","Constraint(s)","Mapping: Ажлын урсгалын зураглал","Mapping: HL7 v2 Дүйцүүлэлт","Mapping: RIM дүйцүүлэлт","Mapping: FiveWs Загвар Дүйцүүлэлт","Mapping: Эмнэлзүйн Мэдлэг ба Чанарын Сайжруулалт (ЧСЭМ)","Mapping: эмчийн цахим захиалга","Mapping: Цахим шилжүүлэг"
"ServiceRequest","","diagnostic request
referralreferral requesttransfer of care request","",0,*,"","","","","Хийгдэх үйлчилгээний хүсэлт","Оношилгоо, эмчилгээ эсвэл мэс засал гэх мэт хийгдэх үйлчилгээний хүсэлтийн бүртгэл.","","","","","","","","","",,,,,"",,,,"ServiceRequest",0,*,"","dom-2:Хэрвээ хэрэглүүр өөр хэрэглүүрийн дотор агуулагдаж байгаа бол, тэрээр дотроо багтсан хэрэглүүр агуулах ЁСГҮЙ. {contained.contained.empty()}
dom-3:Хэрвээ хэрэглүүр өөр хэрэглүүрийн дотор агуулагдаж байгаа бол, тэрээр хэрэглүүрийн хаа нэгтэйгээс заагдсан байх ЁСТОЙ эсвэл агуулж буй хэрэглүүр рүү заах ЁСТОЙ. {contained.where((('#'+id in (%resource.descendants().reference | %resource.descendants().as(canonical) | %resource.descendants().as(uri) | %resource.descendants().as(url))) or descendants().where(reference = '#').exists() or descendants().where(as(canonical) = '#').exists() or descendants().where(as(canonical) = '#').exists()).not()).trace('unmatched', id).empty()}dom-4:Хэрвээ хэрэглүүр өөр хэрэглүүрийн дотор агуулагдаж байгаа бол тэрээр meta.versionId эсвэл meta.lastUpdated элементтэй байх ЁСГҮЙ. {contained.meta.versionId.empty() and contained.meta.lastUpdated.empty()}dom-5:Хэрвээ хэрэглүүр өөр хэрэглүүрийн дотор агуулагдаж байгаа бол, аюулгүй байдлын шошготой байх ЁСГҮЙ. {contained.meta.security.empty()}dom-6:Зохион байгуулалтыг сайн байлгах үүднээс хэрэглүүрүүдэд хүүрнэл хэсэг байх хэрэгтэй. {text.`div`.exists()}prr-1:зөвхөн код байгаа үед л захиалгынХэсгүүд байна {orderDetail.empty() or code.exists()}","Request","ORC","Entity. Role, or Act","Act[moodCode<=INT]"
"ServiceRequest.id","","","",0,1,"","","Y","string {[]} {[]}
","Энэхүү бүтцийн логик Id","Хэрэглүүрийн URL-д ашиглагдсан, хэрэглүүрийн логик id. Нэгэнт оноогдсон бол энэ утга хэзээ ч өөрчлөгдөхгүй.","Хэрэглүүр id-гүй байх цорын ганц тохиолдол нь түүнийг create үйлдэл ашиглан сервер лүү илгээж байх үе юм.","","","","","","","","",,,,,"",,,,"Resource.id",0,1,"",""
"ServiceRequest.meta","","","",0,1,"","","Y","Meta {[]} {[]}
","Хэрэглүүрийн тухай мета өгөгдөл","Хэрэглүүрийн тухай мета өгөгдөл. Энэ бол дэд бүтцэд хадгалагдаж буй агуулга юм. Агуулгын өөрчлөлт нь хэрэглүүрийн хувилбаруудад гарч буй өөрчлөлттэй үргэлж холбоотой байхгүй байх магадлалтай.","","","","","","","","","",,,,,"",,,,"Resource.meta",0,1,"","ele-1:FHIR-ийн бүх элементүүд @утга эсвэл дэд элементийг агуулах ёстой {hasValue() or (children().count() > id.count())}
"
"ServiceRequest.implicitRules","","","",0,1,"","Y","Y","uri {[]} {[]}
","Энэхүү бүтцийг үүсгэхэд ашигласан дүрмийн багц","Энэхүү бүтцийг үүсгэхэд ашигласан, мөн боловсруулах явцад ойлгогдох ёстой дүрмийн багцыг заасан заалт. Ихэнх тохиолдолд, энэ нь бусад профайл гэх мэтийн хамтаар тусгай дүрмийг тодорхойлсон хэрэгжүүлэлтийн удирдамжийн лавлагаа юм.","Энэхүү дүрмийн багцыг эцэслэн батлах нь тухайн агуулгыг зөвхөн цөөн тооны бизнесийн оролцогчид ойлгох боломжтой болгож хязгаарлаахад хүргэнэ. Үүний үр дүнд, урт хугацаандаа өгөгдлийн ашигтай байдал ч мөн хязгаарлагдана. Гэсэн хэдий ч, одоо буй эрүүл мэндийн эко систем нь нэлээд тархай бутархай бөгөөд өгөгдлийг ерөнхийд нь тооцоолохуйц хэмжээнд тодорхойлох, цуглуулах, солилцоход хараахан бэлэн биш байна. Боломжтой бол хэрэгжүүлэгчид ба/эсвэл тодорхойлолтыг зохиогчид энэ элементийг ашиглахаас зайлсхийх хэрэгтэй. Ихэнхдээ, хэрэглэгдсэн тохиолдолд, URL гэдэг нь дээрх онцгой дүрмүүдийг бусад профайл, утгын олонлог гэх мэтийн хамтаар хүүрнэлийн нэг хэсэг хэмээн тодорхойлсон хэрэгжүүлэлтийн удирдамжийг заасан заалт байна.","","","","","","","","",,,,,"",,,,"Resource.implicitRules",0,1,"","ele-1:FHIR-ийн бүх элементүүд @утга эсвэл дэд элементийг агуулах ёстой {hasValue() or (children().count() > id.count())}
"
"ServiceRequest.language","","","",0,1,"","","","code {[]} {[]}
","Хэрэглүүрийн агуулгын хэл","Хэрэглүүр бичигдсэн үндсэн хэл","Хэл нь индексжүүлэлт болон ашиглахад хүртээмжтэй байдлыг нэмэгдүүлэх зорилгоор (ерөнхийдөө, текстээс яриа үүсгэх гэх мэт үйлчилгээ хэлний шошгыг ашигладаг) ашиглагддаг. Хүүрнэл хэсэгт буй html хэлний шошго нь хүүрнэл хэсэгтээ хамаарна. Хэрэглүүр дэх хэлний шошго нь тухайн хэрэглүүр дэх өгөгдлөөс боловсруулан гаргасан бусад илэрхийллийн хэлийг тодорхойлоход ашиглагдаж болно. Бүх агуулга нь үндсэн хэл дээр байх албагүй. Хэрэглүүр.хэл элементийг хүүрнэл хэсэгт автоматаар хамаарна гэж тооцож болохгүй. Хэрэв хэлийг зааж өгсөн бол түүнийг html дэх div элемент дээр бас зааж өгөх хэрэгтэй (xml:lang ба html lang шинж чанар хоорондын хамаарлын тухай мэдээллийг HTML5-д буй дүрмүүдээс харна уу).","","","","","","","","",,"preferred","Хүний хэл","http://hl7.org/fhir/ValueSet/languages","",,,,"Resource.language",0,1,"","ele-1:FHIR-ийн бүх элементүүд @утга эсвэл дэд элементийг агуулах ёстой {hasValue() or (children().count() > id.count())}
"
"ServiceRequest.text","","narrative
htmlxhtmldisplay","",0,1,"","","","Narrative {[]} {[]}
","Хүн тайлж ойлгоход зориулсан, хэрэглүүрийн текстэн хураангуй","Хэрэглүүрийн хураангуйг дотроо агуулсан бөгөөд тухайн хэрэглүүрийн агуулгыг хүнд илэрхийлэхэд ашиглаж болохоор, хүнд уншигдахуйц хэлбэрээр бичигдсэн хүүрнэл хэсэг. Хүүрнэл хэсэг нь бүтэцлэгдсэн өгөгдлийг бүгдийг нь шифрлэх шаардлагагүй боловч хүн зөвхөн хүүрнэл хэсгийг уншихад ""эмнэлзүйн хувьд аюулгүй"" болгохуйц, хангалттай хэмжээний нарийвчилсан мэдээллийг агуулсан байх шаардлагатай. Хэрэглүүрийн тодорхойлолт нь эмнэл зүйн аюулгүй байдлыг хангахын тулд, хүүрнэл хэсэгт ямар агуулга багтсан байх ёстойг тодорхойлж болно.","Өөр хэрэглүүрийн дотор агуулагдсан хэрэглүүр хүүрнэл хэсгийг агуулдаггүй. Өөр хэрэглүүрийн дотор агуулагдаагүй хэрэглүүр нь хүүрнэл хэсгийг агуулах ЁСТОЙ. Зарим тохиолдолд, хэрэглүүр нь багахан хэмжээний чөлөөт өгөгдөлтэй эсвэл огт чөлөөт өгөгдөлгүй текст агуулж болно (minOccurs=1 элементүүд бүгд хангагдсан тохиолдолд). Энэ нь мэдээллийг ""текстийн товчлол"" болгон хадгалсан эсвэл текстийг нэмэлтээр, боловсруулаагүй хэлбэрээр оруулсан эсвэл хүүрнэсэн, шифрлэсэн мэдээллийг сүүлд нь оруулсан хуучин системүүдийн өгөгдлийн тухайд зайлшгүй чухал байх магадлалтай.","","","","","","","","",,,,,"",,,,"DomainResource.text",0,1,"","ele-1:FHIR-ийн бүх элементүүд @утга эсвэл дэд элементийг агуулах ёстой {hasValue() or (children().count() > id.count())}
","Act.text?"
"ServiceRequest.contained","","inline resources
anonymous resourcescontained resources","",0,*,"","","","Resource {[]} {[]}
","Хэрэглүүрийн дотор агуулагдах Хэрэглүүрүүд","Эдгээр хэрэглүүрүүд нь тэднийг агуулж буй хэрэглүүрээс гадна, бие даан орших боломжгүй - Тэд тусдаа бие даан ялган танигдах боломжгүй, мөн бие даасан өгөгдөл солилцооны цар хүрээтэй байх ч боломжгүй юм.","Ялган танилт нэгэнт алдагдсан тохиолдод, үүнийг дахин сэргээх нь маш хэцүү (бөгөөд хам сэдвээс хамааралтай) байдаг учир, агуулгыг зүй ёсоор ялган таних боломжтой үед үүнийг хэзээ ч хийх ёсгүй. Хэрэглүүрийн дотор агуулагдах хэрэглүүрүүд нь мета элементүүддээ профай болон шошгыг агуулж болно, гэхдээ аюулгүй байдлын шошго агуулах ЁСГҮЙ.","","","","","","","","",,,,,"",,,,"DomainResource.contained",0,*,"","","N/A"
"ServiceRequest.extension","","","",1,*,"","","","Extension {[]} {[]}
","Extension","An Extension","","","","","","","","","",,,,,"","value:url}
","",,"open","DomainResource.extension",0,*,"","ele-1:FHIR-ийн бүх элементүүд @утга эсвэл дэд элементийг агуулах ёстой {hasValue() or (children().count() > id.count())}
ext-1:Өргөтгөл эсвэл утга[x]-ийн аль нэгийг агуулах ёстой, хоёуланг нь агуулж болохгүй {extension.exists() != value.exists()}"
"ServiceRequest.extension","hc-id","","",0,1,"Y","","","Extension {[]} {[]}
","Extension","An Extension","","","","","","","","","",,,,,"",,,,"DomainResource.extension",0,*,"","ele-1:FHIR-ийн бүх элементүүд @утга эсвэл дэд элементийг агуулах ёстой {hasValue() or (children().count() > id.count())}
ext-1:Өргөтгөл эсвэл утга[x]-ийн аль нэгийг агуулах ёстой, хоёуланг нь агуулж болохгүй {extension.exists() != value.exists()}","N/A","2.1 холбоосын дугаар"
"ServiceRequest.extension.id","","","",0,1,"","","","string {[]} {[]}
","Элемент-хоорондын заалт хийх дахин давтагдашгүй id","Элемент дотооддоо заалт хийх дахин давтагдашгүй id (дотоодын заалт хийхэд зориулагдсан). Энэ нь зай агуулаагүй, ямар ч төрлийн тэмдэгтийн цуваан утга байж болно.","","","","","","","","","",,,,,"",,,,"Element.id",0,1,"","","n/a"
"ServiceRequest.extension.extension","","extensions
user content","",0,0,"","","","Extension {[]} {[]}
","Additional content defined by implementations","May be used to represent additional information that is not part of the basic definition of the element. To make the use of extensions safe and manageable, there is a strict set of governance  applied to the definition and use of extensions. Though any implementer can define an extension, there is a set of requirements that SHALL be met as part of the definition of the extension.","There can be no stigma associated with the use of extensions by any application, project, or standard - regardless of the institution or jurisdiction that uses or defines the extensions.  The use of extensions is what allows the FHIR specification to retain a core level of simplicity for everyone.","","","","","","","","",,,,,"","value:url}
","Extensions are always sliced by (at least) url",,"open","Element.extension",0,*,"","ele-1:All FHIR elements must have a @value or children {hasValue() or (children().count() > id.count())}
ext-1:Must have either extensions or value[x], not both {extension.exists() != value.exists()}","n/a"
"ServiceRequest.extension.url","","","",1,1,"","","","uri {[]} {[]}
","Өргөтгөлийн утгыг тодорхойлно.","Өргөтгөлийн кодын тодорхойлолтын эх сурвалж - логик нэр эсвэл URL.","Энэ тодорхойлолт нь тооцоолох боломжтой эсвэл хүнд уншигдахуйц хэлбэрээр бичигдсэн тодорхойлолт руу шууд зааж болно, эсвэл өөр бусад тодорхойлолтод заагдсан логик URI байж болно. Тодорхойлолт нь өргөтгөлийг тодорхойлсон бүтцийн тодорхойлолтын URI байх ЁСТОЙ.","","","","<valueUri xmlns=""http://hl7.org/fhir"" value=""hc-id""/>","","","","",,,,,"",,,,"Extension.url",1,1,"","","N/A"
"ServiceRequest.extension.value[x]","","","",1,1,"","","","string {[]} {[]}
","Өргөтгөлийн утга","Өргөтгөлийн утга - хязгаарласан багцалсан өгөгдлийн төрлүүдийн аль нэг нь байх ёстой. ( [Extensibility](StructureDefinition-mng-referral.html/extensibility.html) хэсгээс жагсаалтыг харна уу).","","","","","","","","","",,,,,"","type:$this}
","",,"open","Extension.value[x]",0,1,"","ele-1:FHIR-ийн бүх элементүүд @утга эсвэл дэд элементийг агуулах ёстой {hasValue() or (children().count() > id.count())}
","N/A"
"ServiceRequest.extension.value[x]","valueString","","",1,1,"Y","","","string {[]} {[]}
","холбоосын дугаар","Шилжүүлэг хийсэн тусламж үйлчилгээний холбоосын дугаар (PS)(DS, OCN, EN)","","","","","","","","","",,,,,"",,,,"Extension.value[x]",0,1,"","ele-1:FHIR-ийн бүх элементүүд @утга эсвэл дэд элементийг агуулах ёстой {hasValue() or (children().count() > id.count())}
","N/A"
"ServiceRequest.extension","healthcare-service","","",1,*,"Y","","","Extension {[CanonicalType[http://fhir.mn/StructureDefinition/healthcare-service]]} {[]}
","Сонголтоор авах Өргөтгөл Элемент","Сонголтоор авах Өргөтгөл Элемент - бүх хэрэглүүрт агуулагдана","","","","","","","","","",,,,,"",,,,"DomainResource.extension",0,*,"","ele-1:FHIR-ийн бүх элементүүд @утга эсвэл дэд элементийг агуулах ёстой {hasValue() or (children().count() > id.count())}
ext-1:Өргөтгөл эсвэл утга[x]-ийн аль нэгийг агуулах ёстой, хоёуланг нь агуулж болохгүй {extension.exists() != value.exists()}","n/a","N/A"
"ServiceRequest.modifierExtension","","extensions
user content","",0,*,"","Y","","Extension {[]} {[]}
","Хэрэгсэхгүй байж болшгүй өргөтгөлүүд","Хэрэглүүрийн үндсэн тодорхойлолтын хэсэг биш бөгөөд үүнийг агуулж буй элементийн тухай ойлголтыг болон / эсвэл агуулсан элементэд агуулагдах бүтцүүдийн тухай ойлголтыг өөрчлөх чадвартай нэмэлт мэдээллийг илэрхийлэхэд ашиглаж болно. Хувиргагч элементүүд нь ихэвчлэн үгүйсгэл эсвэл хязгаарлалтыг агуулдаг. Өргөтгөлийн хэрэглээг аюулгүй, зохион байгуулахад дөхөм байлгах үүднээс шинэ өргөтгөл тодорхойлох болон хэрэглэх явдлыг хатуу чанд тодорхойлсон байдаг. Бүх хэрэгжүүлэгч шинэ өргөтгөл тодорхойлж болох боловч өргөтгөлийн тодорхойлолтын хэсэг болон мөрдөгдөх ЁСТОЙ багц шаардлага байдаг. Хэрэглүүрийг боловсруулдаг аппликейшнүүд нь хувиргагч өргөтгөлүүдийг хянаж байх шаардлагатай. 

 Хувиргагч өргөтгөл нь Хэрэглүүр эсвэл ДомейнХэрэглүүр (мөн хувиргагчӨргөтгөлийн утгыг өөрчилж болохгүй) дээрх ямар нэг элементийн утгыг өөрчлөх ЁСГҮЙ.","Өргөтгөлийг ашиглаж эсвэл тодорхойлж буй байгууллага эсвэл хууль эрх зүйн хүрээний байдлаас үл хамааран, ямар ч програм, төсөл, стандартад өргөтгөлийг ашиглахад буруутгах зүйл байх ёсгүй. Өргөтгөлийн хэрэглээ нь FHIR-ийн тодорхойлолтыг хүн бүрийн хэрэгцээнд нийцэхүйц, энгийн түвшинд байх боломжийг олгож буй хүчин зүйл юм.","Хувиргагч өргөтгөл нь хэрэгсэхгүй байж *болохгүй* өргөтгөлүүдийг, хэрэгсэхгүй байж болох өргөтгөлүүдээс тодорхой ялгах боломжийг олгодог. Энэ нь хэрэгжүүлэгчид өргөтгөл байх эсэхийг хязгаарлах хэрэгцээг багасган, цахим систем хоорондын зохицлыг сайжруулдаг. Дэлгэрэнгүй мэдээллийг [хувиргагч өргөтгөлийн тодорхойлолт(extensibility.html#modifierExtension) хэсгээс үзнэ үү.","","","","","","","",,,,,"",,,,"DomainResource.modifierExtension",0,*,"","ele-1:FHIR-ийн бүх элементүүд @утга эсвэл дэд элементийг агуулах ёстой {hasValue() or (children().count() > id.count())}
ext-1:Өргөтгөл эсвэл утга[x]-ийн аль нэгийг агуулах ёстой, хоёуланг нь агуулж болохгүй {extension.exists() != value.exists()}","N/A"
"ServiceRequest.identifier","","","",1,*,"Y","","Y","Identifier {[]} {[]}
","Энэ захиалгад олгосон ялган танигчууд","Энэ захиалгад олгосон ялган танигчууд, жишээ нь захиалагч ба/эсвэл хүлээн авагч ба/эсвэл захиалга гүйцэтгэгч.  ","ЯлганТанигчТөрөл элемент нь захиалагч ба захиалгын хариу Ажиглалт үүсгэгч зэрэгт оноосон ялган танигчуудыг хооронд нь зааглахад хэрэглэгдэнэ. ","","","","","","","","",,,,,"","value:system}
","",,"open","ServiceRequest.identifier",0,*,"","ele-1:FHIR-ийн бүх элементүүд @утга эсвэл дэд элементийг агуулах ёстой {hasValue() or (children().count() > id.count())}
","Request.identifier","ORC.2, ORC.3, RF1-6 / RF1-11,",".identifier","FiveWs.identifier","ClinicalStatement.identifier","1.1 Захиалгын ялган таних дугаар","1 Шилжүүлгийн ялган таних дугаар"
"ServiceRequest.identifier","e-refeferral-number","","",1,1,"Y","","Y","Identifier {[]} {[]}
","Энэ захиалгад олгосон ялган танигчууд","Энэ захиалгад олгосон ялган танигчууд, жишээ нь захиалагч ба/эсвэл хүлээн авагч ба/эсвэл захиалга гүйцэтгэгч.  ","ЯлганТанигчТөрөл элемент нь захиалагч ба захиалгын хариу Ажиглалт үүсгэгч зэрэгт оноосон ялган танигчуудыг хооронд нь зааглахад хэрэглэгдэнэ. ","","","","","","","","",,,,,"",,,,"ServiceRequest.identifier",0,*,"","ele-1:FHIR-ийн бүх элементүүд @утга эсвэл дэд элементийг агуулах ёстой {hasValue() or (children().count() > id.count())}
","Request.identifier","ORC.2, ORC.3, RF1-6 / RF1-11,",".identifier","FiveWs.identifier","ClinicalStatement.identifier"
"ServiceRequest.identifier.id","","","",0,1,"","","","string {[]} {[]}
","Элемент-хоорондын заалт хийх дахин давтагдашгүй id","Элемент дотооддоо заалт хийх дахин давтагдашгүй id (дотоодын заалт хийхэд зориулагдсан). Энэ нь зай агуулаагүй, ямар ч төрлийн тэмдэгтийн цуваан утга байж болно.","","","","","","","","","",,,,,"",,,,"Element.id",0,1,"","","n/a"
"ServiceRequest.identifier.extension","","extensions
user content","",0,*,"","","","Extension {[]} {[]}
","Is ""by"" same as ""during the implementation""?","Элементийн үндсэн тодорхойлолтод ороогүй, нэмэлт мэдээллийг илэрхийлэхэд ашиглагдаж болно. Өргөтгөлийн хэрэглээг аюулгүй, зохион байгуулахад дөхөм байлгах үүднээс шинэ өргөтгөл тодорхойлох болон хэрэглэх явдлыг хатуу чанд тодорхойлсон байдаг. Бүх хэрэгжүүлэгч шинэ өргөтгөл тодорхойлж болох боловч өргөтгөлийн тодорхойлолтын хэсэг болон мөрдөгдөх ЁСТОЙ багц шаардлага байдаг.","Өргөтгөлийг ашиглаж эсвэл тодорхойлж буй байгууллага эсвэл хууль эрх зүйн хүрээний байдлаас үл хамааран, ямар ч програм, төсөл, стандартад өргөтгөлийг ашиглахад буруутгах зүйл байх ёсгүй. Өргөтгөлийн хэрэглээ нь FHIR-ийн тодорхойлолтыг хүн бүрийн хэрэгцээнд нийцэхүйц, энгийн түвшинд байх боломжийг олгож буй хүчин зүйл юм.","","","","","","","","",,,,,"","value:url}
","Өргөтгөл нь үргэлж (дор хаяж) url-аар хэрчигдсэн байна",,"open","Element.extension",0,*,"","ele-1:FHIR-ийн бүх элементүүд @утга эсвэл дэд элементийг агуулах ёстой {hasValue() or (children().count() > id.count())}
ext-1:Өргөтгөл эсвэл утга[x]-ийн аль нэгийг агуулах ёстой, хоёуланг нь агуулж болохгүй {extension.exists() != value.exists()}","n/a"
"ServiceRequest.identifier.use","","","",0,1,"","Y","Y","code {[]} {[]}
","ердийн | албан ёсны | түр | хоёрдогч | хуучин (Мэдэж байгаа бол)","Энэ ялган танигчийн зорилго.","Түр зуурынх хэмээн мэдэгдээгүй тохиолдолд програм нь ялган танигчийг байнгын гэж тооцож болно.","Ялган танигчдийн багцаас тодорхой агуулгын хэрэглээнд тохирох ялган танигчийг сонгох боломжтой болгох.","","","","","","","",,"required","Мэдэж байгаа тохиолдолд энэ ялган танигчийн зорилгыг тодорхойлох","http://hl7.org/fhir/ValueSet/identifier-use|4.0.1","",,,,"Identifier.use",0,1,"","ele-1:FHIR-ийн бүх элементүүд @утга эсвэл дэд элементийг агуулах ёстой {hasValue() or (children().count() > id.count())}
","N/A","Role.code or implied by context"
"ServiceRequest.identifier.type","","","",1,1,"Y","","Y","CodeableConcept {[]} {[]}
","Ялган танигчийн тайлбар","Тусгай зориулалтаар ямар ялган танигч ашиглахыг тодорхойлох ялган танигчийн кодчилсон төрөл","Энэ элемент нь зөвхөн ялган танигчдын ерөнхий ангилалтай холбоотой. Энэ нь ЯлганТанигч.систем-тэй 1..1-тэй тохирох кодуудад ашиглагдах ЁСГҮЙ. Нийтлэг хэрэглээний улмаас зарим ялган танигч олон ангилалд багтаж болно. Системд танигдсан тохиолдолд, төрөл нь үргэлж системийн тодорхойлолтын хэсэгт байдаг тул шаардлагагүй болно. Гэсэн хэдий ч систем нь танигдаагүй ялган танигчийг үргэлж тохируулж байх хэрэгтэй. Олон өөр систем ижил төрөлтэй байдаг тул төрөл ба системийн харьцаа 1:1 байдаггүй.","Ялган танигч систем нь тодорхойгүй байгаа үед ялган танигчийг ашиглах боломжийг хэрэглэгчдэд боломжтой болгох.","","","","","","","",,"extensible","Тодорхой зориулалтаар ямар танигчийг ашиглахыг тодорхойлоход ашиглаж болох ялгантанигчийн кодчилсон төрөл.","http://hl7.org/fhir/ValueSet/identifier-type","",,,,"Identifier.type",0,1,"","ele-1:FHIR-ийн бүх элементүүд @утга эсвэл дэд элементийг агуулах ёстой {hasValue() or (children().count() > id.count())}
","CX.5","Role.code or implied by context"
"ServiceRequest.identifier.type.id","","","",0,1,"","","","string {[]} {[]}
","Элемент-хоорондын заалт хийх дахин давтагдашгүй id","Элемент дотооддоо заалт хийх дахин давтагдашгүй id (дотоодын заалт хийхэд зориулагдсан). Энэ нь зай агуулаагүй, ямар ч төрлийн тэмдэгтийн цуваан утга байж болно.","","","","","","","","","",,,,,"",,,,"Element.id",0,1,"","","n/a"
"ServiceRequest.identifier.type.extension","","extensions
user content","",0,*,"","","","Extension {[]} {[]}
","Is ""by"" same as ""during the implementation""?","Элементийн үндсэн тодорхойлолтод ороогүй, нэмэлт мэдээллийг илэрхийлэхэд ашиглагдаж болно. Өргөтгөлийн хэрэглээг аюулгүй, зохион байгуулахад дөхөм байлгах үүднээс шинэ өргөтгөл тодорхойлох болон хэрэглэх явдлыг хатуу чанд тодорхойлсон байдаг. Бүх хэрэгжүүлэгч шинэ өргөтгөл тодорхойлж болох боловч өргөтгөлийн тодорхойлолтын хэсэг болон мөрдөгдөх ЁСТОЙ багц шаардлага байдаг.","Өргөтгөлийг ашиглаж эсвэл тодорхойлж буй байгууллага эсвэл хууль эрх зүйн хүрээний байдлаас үл хамааран, ямар ч програм, төсөл, стандартад өргөтгөлийг ашиглахад буруутгах зүйл байх ёсгүй. Өргөтгөлийн хэрэглээ нь FHIR-ийн тодорхойлолтыг хүн бүрийн хэрэгцээнд нийцэхүйц, энгийн түвшинд байх боломжийг олгож буй хүчин зүйл юм.","","","","","","","","",,,,,"","value:url}
","Өргөтгөл нь үргэлж (дор хаяж) url-аар хэрчигдсэн байна",,"open","Element.extension",0,*,"","ele-1:FHIR-ийн бүх элементүүд @утга эсвэл дэд элементийг агуулах ёстой {hasValue() or (children().count() > id.count())}
ext-1:Өргөтгөл эсвэл утга[x]-ийн аль нэгийг агуулах ёстой, хоёуланг нь агуулж болохгүй {extension.exists() != value.exists()}","n/a"
"ServiceRequest.identifier.type.coding","","","",0,*,"","","Y","Coding {[]} {[]}
","Нэр томъёоны системээр тодорхойлогдсон код","Нэр томъёоны системээр тодорхойлогдсон кодын заалт","Кодууд нь маш санамсаргүйгээр жагсаалт эсвэл кодын жагсаалтнаас эхлээд SNOMED CT гэх мэт маш албан ёсны тодорхойлолтуудад тодорхойлогдох боломжтой - илүү мэдээллийг HL7 v3 Core -н зарчмуудаас харна уу. Коджуулалтын эрэмбэ тодорхойлогдоогүй ба утгыг дүгнэхэд хэрэглэгдэх ЁСГҮЙ. Ерөнхийдөө, хамгийн ихдээ коджуулах утгын зөвхөн нэг нь ХэрэглэгчСонгосон = үнэн гэж тэмдэглэгдэнэ.","Бусад кодын системээр шифрлэх, мөн бусад кодын системрүү орчуулгуудыг боломжтой болгох","","","","","","","",,,,,"",,,,"CodeableConcept.coding",0,*,"","ele-1:FHIR-ийн бүх элементүүд @утга эсвэл дэд элементийг агуулах ёстой {hasValue() or (children().count() > id.count())}
","C*E.1-8, C*E.10-22","union(., ./translation)"
"ServiceRequest.identifier.type.coding.id","","","",0,1,"","","","string {[]} {[]}
","Элемент-хоорондын заалт хийх дахин давтагдашгүй id","Элемент дотооддоо заалт хийх дахин давтагдашгүй id (дотоодын заалт хийхэд зориулагдсан). Энэ нь зай агуулаагүй, ямар ч төрлийн тэмдэгтийн цуваан утга байж болно.","","","","","","","","","",,,,,"",,,,"Element.id",0,1,"","","n/a"
"ServiceRequest.identifier.type.coding.extension","","extensions
user content","",0,*,"","","","Extension {[]} {[]}
","Is ""by"" same as ""during the implementation""?","Элементийн үндсэн тодорхойлолтод ороогүй, нэмэлт мэдээллийг илэрхийлэхэд ашиглагдаж болно. Өргөтгөлийн хэрэглээг аюулгүй, зохион байгуулахад дөхөм байлгах үүднээс шинэ өргөтгөл тодорхойлох болон хэрэглэх явдлыг хатуу чанд тодорхойлсон байдаг. Бүх хэрэгжүүлэгч шинэ өргөтгөл тодорхойлж болох боловч өргөтгөлийн тодорхойлолтын хэсэг болон мөрдөгдөх ЁСТОЙ багц шаардлага байдаг.","Өргөтгөлийг ашиглаж эсвэл тодорхойлж буй байгууллага эсвэл хууль эрх зүйн хүрээний байдлаас үл хамааран, ямар ч програм, төсөл, стандартад өргөтгөлийг ашиглахад буруутгах зүйл байх ёсгүй. Өргөтгөлийн хэрэглээ нь FHIR-ийн тодорхойлолтыг хүн бүрийн хэрэгцээнд нийцэхүйц, энгийн түвшинд байх боломжийг олгож буй хүчин зүйл юм.","","","","","","","","",,,,,"","value:url}
","Өргөтгөл нь үргэлж (дор хаяж) url-аар хэрчигдсэн байна",,"open","Element.extension",0,*,"","ele-1:FHIR-ийн бүх элементүүд @утга эсвэл дэд элементийг агуулах ёстой {hasValue() or (children().count() > id.count())}
ext-1:Өргөтгөл эсвэл утга[x]-ийн аль нэгийг агуулах ёстой, хоёуланг нь агуулж болохгүй {extension.exists() != value.exists()}","n/a"
"ServiceRequest.identifier.type.coding.system","","","",0,1,"","","Y","uri {[]} {[]}
","Нэр томьёоны системийн ялган танигдах байдал.","Кодон дундах тэмдэгтийн утгыг тодорхойлж буй код системийн тодорхойлолт.","The URI may be an OID (urn:oid:...) or a UUID (urn:uuid:...).  OIDs and UUIDs SHALL be references to the HL7 OID registry. Otherwise, the URI should come from HL7's list of FHIR defined special URIs or it should reference to some definition that establishes the system clearly and unambiguously.","Тэмдэгтийн тодорхойлолтын эх сурвалжийн тухайд хоёдмол утгагүй байх хэрэгтэй.","","","","","","","",,,,,"",,,,"Coding.system",0,1,"","ele-1:FHIR-ийн бүх элементүүд @утга эсвэл дэд элементийг агуулах ёстой {hasValue() or (children().count() > id.count())}
","C*E.3","./codeSystem"
"ServiceRequest.identifier.type.coding.version","","","",0,1,"","","Y","string {[]} {[]}
","Хэрвээ хамааралтай бол - Системийн хувилбар ","Энэ кодыг сонгоход хэрэглэгдсэн код системийн хувилбар. Коднуудын утга нь хувилбар солигдсон ч тогтвортой хэвээр байдаг тул сайн хийгдсэн код системийн хувилбарыг мэдээлэх шаардлагагүй байдаг. Гэсэн ч үүнийг тогтвортойгоор илэрхийлж чадахгүй, утга нь тогтвортой баталгаажаагүй бол тухайн хувилбар өөрчлөгдөх ЁСТОЙ. ","Нэр томьёо нь код системийн хувилбарыг ямар стринг тодорхойлохыг ойлгомжтой байдлаар тодорхойлоогүй бол тухайн хувилбарыг албан ёсоор нийтэлсэн хувилбарын огноог хэрэглэхийг санал болгоно. ","","","","","","","","",,,,,"",,,,"Coding.version",0,1,"","ele-1:FHIR-ийн бүх элементүүд @утга эсвэл дэд элементийг агуулах ёстой {hasValue() or (children().count() > id.count())}
","C*E.7","./codeSystemVersion"
"ServiceRequest.identifier.type.coding.code","","","",0,1,"","","Y","code {[]} {[]}
","Өгүүлбэр дэх системээр тодорхойлогдсон тэмдэгт"," 
 		

Өгүүлбэр дэх системээр тодорхойлогдсон тэмдэгт. Энэхүү тэмдэгт нь урьдчилан тодорхойлсон код юм уу код системээр тодорхойлогдсон өгүүлбэр дэх илэрхийлэл байж болно.
","","Систем дэх хэсэгчилсэн кодруу шилжүүлэх хэрэгтэй. ","","","","<valueCode xmlns=""http://hl7.org/fhir"" value=""EREFNO""/>","","","",,,,,"",,,,"Coding.code",0,1,"","ele-1:FHIR-ийн бүх элементүүд @утга эсвэл дэд элементийг агуулах ёстой {hasValue() or (children().count() > id.count())}
","C*E.1","./code"
"ServiceRequest.identifier.type.coding.display","","","",0,1,"","","Y","string {[]} {[]}
","Системээр тодорхойлогдсон илэрхийлэл","Системийн дүрэмд тохирсон, систем дэх кодын утгын илэрхийлэл. ","","Тухайн системийг танихгүй уншигчдад зориулж кодын хүнд уншигдахуйц утгыг агуулах чадвартай байх.","","","","<valueString xmlns=""http://hl7.org/fhir"" value=""&#x426;&#x430;&#x445;&#x438;&#x43C; &#x448;&#x438;&#x43B;&#x436;&#x4AF;&#x4AF;&#x43B;&#x44D;&#x433; &#x2116;""/>","","","",,,,,"",,,,"Coding.display",0,1,"","ele-1:FHIR-ийн бүх элементүүд @утга эсвэл дэд элементийг агуулах ёстой {hasValue() or (children().count() > id.count())}
","C*E.2 - but note this is not well followed","CV.displayName"
"ServiceRequest.identifier.type.coding.userSelected","","","",0,1,"","","Y","boolean {[]} {[]}
","Хэрэв хэрэглэгч энэ кодчилолыг хэрэглэгч шууд сонгосон бол","Энэ кодчилолыг хэрэглэгч шууд сонгосоныг илтгэнэ - жишээ нь: боломжит сонголтуудын жагсаалтаас сонгох юмуу үзүүлэх","Хувилбаруудын багцын дундаас шууд сонгосон код нь шинэ орчуулга эхлэх хамгийн тохирмжтой цэг байдаг. Яг аль хэсгийг шууд сонгосон нь бага зэрэг тодорхой бус байдаг ба энэ элементийн хэрэглээ болон оч холбогдлыг бүрэн дүүрэн тодруулахад худалдааны хамтрагчийн тохиролцоо шаардагдаж болно. ","Энэ нь эмнэлзүйн аяулгүй байдлын шалгуур үзүүлэлт хэмээн янган танигдсан - зарим дүрэм ба хэлний үйл явцад суурилан заасан системээс илүү тодорхой, шууд сонгогдсон систем/кодын хослол ","","","","","","","",,,,,"",,,,"Coding.userSelected",0,1,"","ele-1:FHIR-ийн бүх элементүүд @утга эсвэл дэд элементийг агуулах ёстой {hasValue() or (children().count() > id.count())}
","Sometimes implied by being first","CD.codingRationale"
"ServiceRequest.identifier.type.text","","","",0,1,"","","Y","string {[]} {[]}
","Агуулгын энгийн текстэн илэрхийлэл","Өгөгдлийг оруулсан хэрэглэгчийн харсан / сонгосон / үгээр илэрхийлснээр болон/эсвэл хэрэглэгчийн гаргах гэсэн санааг илэрхийлсэн, тухайн ойлголтын талаарх хүний хэлээр бичигдсэн илэрхийлэл","Ихэнх текстүүд нь коджуулалтын нэг DisplayName-тэй адил байна.","Нэр томъёоноос авсан кодууд нь хүмүүсийн тэдгээрийг хэрэглэж буй бүх өнгө аястай нийцсэн зөв утгыг үргэлж авдаггүй, эсвэл заримдаа огт тохиромжгүй код байдаг. Энэ тохиолдолдуудад, текст нь эх үүсвэрийн бүрэн утгыг авдаг.","","","","","","","",,,,,"",,,,"CodeableConcept.text",0,1,"","ele-1:FHIR-ийн бүх элементүүд @утга эсвэл дэд элементийг агуулах ёстой {hasValue() or (children().count() > id.count())}
","C*E.9. But note many systems use C*E.2 for this","./originalText[mediaType/code=""text/plain""]/data"
"ServiceRequest.identifier.system","","","",0,1,"","","Y","uri {[]} {[]}
","Ялган танигчийн утгад зориулсан нэрийн муж","Утгад зориулсан нэрийн мужийг тодорхойлдог - өөрөөр хэлбэл, дахин давтагдашгүй багц утгуудыг тодорхойлсон URL гэсэн үг юм.","ЯлганТанигч.систем нь том, жижиг үсгийг үргэлж ялгаатайд тооцдог.","Ялган танигчийн багц олон байдаг. Хоёр ялган танигчийг хооронд тохируулахын тулд, бид ямар багцтай нь нүүр тулж буйгаа мэдэх хэрэгтэй. Систем нь дахин давтагдашгүй ялган танигчуудын тодорхой багцыг тодорхойлдог.","","","","","<valueUri xmlns=""http://hl7.org/fhir"" value=""http://www.acme.com/identifiers/patient""/>","","",,,,,"",,,,"Identifier.system",0,1,"","ele-1:FHIR-ийн бүх элементүүд @утга эсвэл дэд элементийг агуулах ёстой {hasValue() or (children().count() > id.count())}
","CX.4 / EI-2-4","II.root or Role.id.root"
"ServiceRequest.identifier.value","","","",1,1,"Y","","Y","string {[]} {[]}
","Дахин давтагдашгүй утга","Ихэвчлэн хэрэглэгчдэд хамааралтай байдаг, ялган танигчийн хэсэг ба системийн хүрээндээ дахин давтагдашгүй байна.","Хэрэв утга нь бүрэн URI байвал, систем uret: ietf: rfc: 3986 байх ЁСТОЙ. Утгын үндсэн зорилго нь тооцооллын дүйцүүлэлт юм. Үүний үр дүнд үүнийг харьцуулах зорилгоор тохируулж болно (жишээ нь. ач холбогдолгүй хоосон цагаан зай, зураасыг устгах гэх мэт). Хүнд харуулахад зориулж хэлбэржүүлсэн утгыг [Үзүүлсэн Утга өргөтгөл](StructureDefinition-mng-referral.html/extension-rendered-value.html) ашиглан дамжуулах боломжтой. ЯлганТанигч.систем-ийн тухай мэдэж буй зүйлс нь боловсруулагч том жижиг ялгаатайд тооцохгүйгээр боловсруулалт хийхэд аюулгүй гэсэн баталгаа олгоогүй л бол ялганТанигч.утга-ыг том, жижиг үсгийг ялгаатайд тооцдог гэж үзнэ.","","","","","","<valueString xmlns=""http://hl7.org/fhir"" value=""123456""/>","","",,,,,"",,,,"Identifier.value",0,1,"","ele-1:FHIR-ийн бүх элементүүд @утга эсвэл дэд элементийг агуулах ёстой {hasValue() or (children().count() > id.count())}
","CX.1 / EI.1","II.extension or II.root if system indicates OID or GUID (Or Role.id.extension or root)"
"ServiceRequest.identifier.period","","","",0,1,"","","Y","Period {[]} {[]}
","id нь ашиглахад хүчинтэй байх/байсан хугацаа","Ялган танигч нь ашиглахад хүчинтэй байх/байсан хугацаа","","","","","","","","","",,,,,"",,,,"Identifier.period",0,1,"","ele-1:FHIR-ийн бүх элементүүд @утга эсвэл дэд элементийг агуулах ёстой {hasValue() or (children().count() > id.count())}
","CX.7 + CX.8","Role.effectiveTime or implied by context"
"ServiceRequest.identifier.assigner","","","",0,1,"","","Y","Reference {[]} {[CanonicalType[http://hl7.org/fhir/StructureDefinition/Organization]]}
","id-г олгосон байгууллага (зөвхөн текст байж болно)","Ялган танигчийг олгосон/удирдан зохион байгуулсан байгууллага.","ЯлганТанигч.олгогч нь .заалт элементийг орхиж болох бөгөөд зөвхөн ялган танигч олгосон байгууллагын нэр эсвэл бусад текстэн мэдээллийг тусгасан .харуулах элементийг агуулж болно.","","","","","","","","",,,,,"",,,,"Identifier.assigner",0,1,"","ele-1:FHIR-ийн бүх элементүүд @утга эсвэл дэд элементийг агуулах ёстой {hasValue() or (children().count() > id.count())}
","CX.4 / (CX.4,CX.9,CX.10)","II.assigningAuthorityName but note that this is an improper use by the definition of the field.  Also Role.scoper"
"ServiceRequest.instantiatesCanonical","","","",0,0,"Y","","Y","canonical {[]} {[CanonicalType[http://hl7.org/fhir/StructureDefinition/ActivityDefinition], CanonicalType[http://hl7.org/fhir/StructureDefinition/PlanDefinition]]}
","Instantiates FHIR protocol or definition","The URL pointing to a FHIR-defined protocol, guideline, orderset or other definition that is adhered to in whole or in part by this ServiceRequest.","Note: This is a business identifier, not a resource identifier (see [discussion](StructureDefinition-mng-referral.html/resource.html#identifiers)).  It is best practice for the identifier to only appear on a single resource instance, however business practices may occasionally dictate that multiple resource instances with the same identifier can exist - possibly even with different resource types.  For example, multiple Patient and a Person resource instance might share the same social insurance number.","","","","","","","","",,,,,"",,,,"ServiceRequest.instantiatesCanonical",0,*,"","ele-1:All FHIR elements must have a @value or children {hasValue() or (children().count() > id.count())}
","Request.instantiatesCanonical","Varies by domain",".outboundRelationship[typeCode=DEFN].target"
"ServiceRequest.instantiatesUri","","","",0,0,"Y","","Y","uri {[]} {[]}
","Instantiates external protocol or definition","The URL pointing to an externally maintained protocol, guideline, orderset or other definition that is adhered to in whole or in part by this ServiceRequest.","This might be an HTML page, PDF, etc. or could just be a non-resolvable URI identifier.","","","","","","","","",,,,,"",,,,"ServiceRequest.instantiatesUri",0,*,"","ele-1:All FHIR elements must have a @value or children {hasValue() or (children().count() > id.count())}
","Request.instantiatesUri","Varies by domain",".outboundRelationship[typeCode=DEFN].target"
"ServiceRequest.basedOn","","fulfills
","",0,0,"Y","","Y","Reference {[]} {[CanonicalType[http://hl7.org/fhir/StructureDefinition/CarePlan], CanonicalType[http://hl7.org/fhir/StructureDefinition/ServiceRequest], CanonicalType[http://hl7.org/fhir/StructureDefinition/MedicationRequest]]}
","What request fulfills","Plan/proposal/order fulfilled by this request.","","","","","","","","","",,,,,"",,,,"ServiceRequest.basedOn",0,*,"","ele-1:All FHIR elements must have a @value or children {hasValue() or (children().count() > id.count())}
","Request.basedOn","ORC.8 (plus others)",".outboundRelationship[typeCode=FLFS].target"
"ServiceRequest.replaces","","supersedes
priorrenewed order","",0,0,"Y","","Y","Reference {[]} {[CanonicalType[http://hl7.org/fhir/StructureDefinition/ServiceRequest]]}
","What request replaces","The request takes the place of the referenced completed or terminated request(s).","","","","","","","","","",,,,,"",,,,"ServiceRequest.replaces",0,*,"","ele-1:All FHIR elements must have a @value or children {hasValue() or (children().count() > id.count())}
","Request.replaces","Handled by message location of ORC (ORC.1=RO or RU)",".outboundRelationship[typeCode=RPLC].target"
"ServiceRequest.requisition","","grouperId
groupIdentifier","",0,0,"Y","","Y","Identifier {[]} {[]}
","Composite Request ID","A shared identifier common to all service requests that were authorized more or less simultaneously by a single author, representing the composite or group identifier.","Requests are linked either by a ""basedOn"" relationship (i.e. one request is fulfilling another) or by having a common requisition. Requests that are part of the same requisition are generally treated independently from the perspective of changing their state or maintaining them after initial creation.","Some business processes need to know if multiple items were ordered as part of the same ""requisition"" for billing or other purposes.","","","","","","","",,,,,"",,,,"ServiceRequest.requisition",0,1,"","ele-1:All FHIR elements must have a @value or children {hasValue() or (children().count() > id.count())}
","Request.groupIdentifier","ORC.4",".inboundRelationship(typeCode=COMP].source[moodCode=INT].identifier"
"ServiceRequest.status","","","",1,1,"Y","Y","Y","code {[]} {[]}
","ноорог | идэвхитэй | цуцлагдсан | дууссан","Захиалгын статус","Захиалга нь ерөнхийдөө захиалагчийн бүрэн хяналтанд байна - захиалга ноорог эсвэл идэвхитэй дараа нь энэ нь идэвхижсэн, дууссан, цуцлагдсан эсвэл түр зогссон эсэхийг тэд тодорхойлно. Гүйцэтгэгчийн үйл ажиллагаатай холбоотой байдлууд нь хамааралтай үйл явдал (see [Event Pattern](StructureDefinition-mng-referral.html/event.html) эсвэл [Task](StructureDefinition-mng-referral.html/task.html) хэрэглүүрийн ашиглалтын аль алинд тусгагдан орж болно. ","","","","","","","","",,"required","","http://fhir.mn/ValueSet/e-referral-status","",,,,"ServiceRequest.status",1,1,"","ele-1:FHIR-ийн бүх элементүүд @утга эсвэл дэд элементийг агуулах ёстой {hasValue() or (children().count() > id.count())}
","Request.status","ORC.5,RF1-1",".status","FiveWs.status","Action.currentStatus","1.2 Захиалгын төлөв: идэвхгүй | илгээгдсэн | цуцлагдсан | хүлээн авсан | буцаагдсан","2 Status"
"ServiceRequest.intent","","","",1,1,"","Y","Y","code {[]} {[]}
","санал | төлөвлөгөө | заавар | захиалга | жинхэнэ-захиалга | нөхцөлт-захиалга | гүйцэлдүүлэх-захиалга | загвар-захиалга | сонголт","Хүсэлт нь санал, төлөвлөгөө, жинхэнэ эсвэл нөхцөлт захиалгын аль нь болох.","Хэрэглүүр хэзээ хэрхэн ашиглагдах нь зориулалтаар өөрчлөгдөх тул энэ элементийг хувиргагч хэмээн тэмдэглэсэн. ","","","","","","","","",,"required","Үйлчилгээний хүсэлтийн төрөл.","http://hl7.org/fhir/ValueSet/request-intent|4.0.1","",,,,"ServiceRequest.intent",1,1,"","ele-1:FHIR-ийн бүх элементүүд @утга эсвэл дэд элементийг агуулах ёстой {hasValue() or (children().count() > id.count())}
","Request.intent","N/A",".moodCode (nuances beyond PRP/PLAN/RQO would need to be elsewhere)","FiveWs.class"
"ServiceRequest.category","","","",1,*,"Y","","Y","CodeableConcept {[]} {[]}
","Үйлчилгээний ангилал","Үйлчилгээг хайх, ангилах ба үзүүлэх зэрэгт зориулан ангилах код (жишээ нь ""Мэс заслын ажилбар"")","Хам утга эсвэл хэрэглүүрийг хайх ба дэлгэцэнд харуулах хэрэглээний тохиолдол зэргээс хамаарч олон төрлийн ангилах өнцөг байж болно. Нарийвчлалын түвшин нь утгын олонлог дахь ангилалын агуулгаар тодорхойлогдоно.","Ямар хүсэлтүүдийг эргэн санаж үзүүлж байгааг шүүж үзэхэд ашиглана.","","","","","","","",,"required","","http://fhir.mn/ValueSet/e-referral-category","",,,,"ServiceRequest.category",0,*,"","ele-1:FHIR-ийн бүх элементүүд @утга эсвэл дэд элементийг агуулах ёстой {hasValue() or (children().count() > id.count())}
","RF1-5",".outboundRelationship[typeCode=""COMP].target[classCode=""LIST"", moodCode=""INT""].code","FiveWs.class","1.5 Шинжилгээний төрөл: гематологи, иммунологи, биохими, бактериологи, Дүрс оношилгоо: КТ, рентген, MRI","3.1 Шалтгааны төрөл"
"ServiceRequest.category.id","","","",0,1,"","","","string {[]} {[]}
","Элемент-хоорондын заалт хийх дахин давтагдашгүй id","Элемент дотооддоо заалт хийх дахин давтагдашгүй id (дотоодын заалт хийхэд зориулагдсан). Энэ нь зай агуулаагүй, ямар ч төрлийн тэмдэгтийн цуваан утга байж болно.","","","","","","","","","",,,,,"",,,,"Element.id",0,1,"","","n/a"
"ServiceRequest.category.extension","","extensions
user content","",1,*,"","","","Extension {[]} {[]}
","Is ""by"" same as ""during the implementation""?","Элементийн үндсэн тодорхойлолтод ороогүй, нэмэлт мэдээллийг илэрхийлэхэд ашиглагдаж болно. Өргөтгөлийн хэрэглээг аюулгүй, зохион байгуулахад дөхөм байлгах үүднээс шинэ өргөтгөл тодорхойлох болон хэрэглэх явдлыг хатуу чанд тодорхойлсон байдаг. Бүх хэрэгжүүлэгч шинэ өргөтгөл тодорхойлж болох боловч өргөтгөлийн тодорхойлолтын хэсэг болон мөрдөгдөх ЁСТОЙ багц шаардлага байдаг.","Өргөтгөлийг ашиглаж эсвэл тодорхойлж буй байгууллага эсвэл хууль эрх зүйн хүрээний байдлаас үл хамааран, ямар ч програм, төсөл, стандартад өргөтгөлийг ашиглахад буруутгах зүйл байх ёсгүй. Өргөтгөлийн хэрэглээ нь FHIR-ийн тодорхойлолтыг хүн бүрийн хэрэгцээнд нийцэхүйц, энгийн түвшинд байх боломжийг олгож буй хүчин зүйл юм.","","","","","","","","",,,,,"","value:url}
","Өргөтгөл нь үргэлж (дор хаяж) url-аар хэрчигдсэн байна",,"open","Element.extension",0,*,"","ele-1:FHIR-ийн бүх элементүүд @утга эсвэл дэд элементийг агуулах ёстой {hasValue() or (children().count() > id.count())}
ext-1:Өргөтгөл эсвэл утга[x]-ийн аль нэгийг агуулах ёстой, хоёуланг нь агуулж болохгүй {extension.exists() != value.exists()}","n/a"
"ServiceRequest.category.extension","category-details","extensions
user content","",1,1,"Y","","","Extension {[CanonicalType[http://fhir.mn/StructureDefinition/category-details]]} {[]}
","Is ""by"" same as ""during the implementation""?","Элементийн үндсэн тодорхойлолтод ороогүй, нэмэлт мэдээллийг илэрхийлэхэд ашиглагдаж болно. Өргөтгөлийн хэрэглээг аюулгүй, зохион байгуулахад дөхөм байлгах үүднээс шинэ өргөтгөл тодорхойлох болон хэрэглэх явдлыг хатуу чанд тодорхойлсон байдаг. Бүх хэрэгжүүлэгч шинэ өргөтгөл тодорхойлж болох боловч өргөтгөлийн тодорхойлолтын хэсэг болон мөрдөгдөх ЁСТОЙ багц шаардлага байдаг.","Өргөтгөлийг ашиглаж эсвэл тодорхойлж буй байгууллага эсвэл хууль эрх зүйн хүрээний байдлаас үл хамааран, ямар ч програм, төсөл, стандартад өргөтгөлийг ашиглахад буруутгах зүйл байх ёсгүй. Өргөтгөлийн хэрэглээ нь FHIR-ийн тодорхойлолтыг хүн бүрийн хэрэгцээнд нийцэхүйц, энгийн түвшинд байх боломжийг олгож буй хүчин зүйл юм.","","","","","","","","",,,,,"",,,,"Element.extension",0,*,"","ele-1:FHIR-ийн бүх элементүүд @утга эсвэл дэд элементийг агуулах ёстой {hasValue() or (children().count() > id.count())}
ext-1:Өргөтгөл эсвэл утга[x]-ийн аль нэгийг агуулах ёстой, хоёуланг нь агуулж болохгүй {extension.exists() != value.exists()}","n/a"
"ServiceRequest.category.extension.id","","","",0,0,"Y","","","string {[]} {[]}
","Unique id for inter-element referencing","Unique id for the element within a resource (for internal references). This may be any string value that does not contain spaces.","","","","","","","","","",,,,,"",,,,"Element.id",0,1,"","","n/a"
"ServiceRequest.category.extension.extension","","extensions
user content","",2,2,"Y","","","Extension {[]} {[]}
","Is ""by"" same as ""during the implementation""?","Элементийн үндсэн тодорхойлолтод ороогүй, нэмэлт мэдээллийг илэрхийлэхэд ашиглагдаж болно. Өргөтгөлийн хэрэглээг аюулгүй, зохион байгуулахад дөхөм байлгах үүднээс шинэ өргөтгөл тодорхойлох болон хэрэглэх явдлыг хатуу чанд тодорхойлсон байдаг. Бүх хэрэгжүүлэгч шинэ өргөтгөл тодорхойлж болох боловч өргөтгөлийн тодорхойлолтын хэсэг болон мөрдөгдөх ЁСТОЙ багц шаардлага байдаг.","Өргөтгөлийг ашиглаж эсвэл тодорхойлж буй байгууллага эсвэл хууль эрх зүйн хүрээний байдлаас үл хамааран, ямар ч програм, төсөл, стандартад өргөтгөлийг ашиглахад буруутгах зүйл байх ёсгүй. Өргөтгөлийн хэрэглээ нь FHIR-ийн тодорхойлолтыг хүн бүрийн хэрэгцээнд нийцэхүйц, энгийн түвшинд байх боломжийг олгож буй хүчин зүйл юм.","","","","","","","","",,,,,"","value:url}
","Өргөтгөл нь үргэлж (дор хаяж) url-аар хэрчигдсэн байна",,"closed","Element.extension",0,*,"","ele-1:FHIR-ийн бүх элементүүд @утга эсвэл дэд элементийг агуулах ёстой {hasValue() or (children().count() > id.count())}
ext-1:Өргөтгөл эсвэл утга[x]-ийн аль нэгийг агуулах ёстой, хоёуланг нь агуулж болохгүй {extension.exists() != value.exists()}","n/a"
"ServiceRequest.category.extension.extension","reason-detail","extensions
user content","",1,1,"Y","","","Extension {[]} {[]}
","Is ""by"" same as ""during the implementation""?","Элементийн үндсэн тодорхойлолтод ороогүй, нэмэлт мэдээллийг илэрхийлэхэд ашиглагдаж болно. Өргөтгөлийн хэрэглээг аюулгүй, зохион байгуулахад дөхөм байлгах үүднээс шинэ өргөтгөл тодорхойлох болон хэрэглэх явдлыг хатуу чанд тодорхойлсон байдаг. Бүх хэрэгжүүлэгч шинэ өргөтгөл тодорхойлж болох боловч өргөтгөлийн тодорхойлолтын хэсэг болон мөрдөгдөх ЁСТОЙ багц шаардлага байдаг.","Өргөтгөлийг ашиглаж эсвэл тодорхойлж буй байгууллага эсвэл хууль эрх зүйн хүрээний байдлаас үл хамааран, ямар ч програм, төсөл, стандартад өргөтгөлийг ашиглахад буруутгах зүйл байх ёсгүй. Өргөтгөлийн хэрэглээ нь FHIR-ийн тодорхойлолтыг хүн бүрийн хэрэгцээнд нийцэхүйц, энгийн түвшинд байх боломжийг олгож буй хүчин зүйл юм.","","","","","","","","",,,,,"",,,,"Element.extension",0,*,"","ele-1:FHIR-ийн бүх элементүүд @утга эсвэл дэд элементийг агуулах ёстой {hasValue() or (children().count() > id.count())}
ext-1:Өргөтгөл эсвэл утга[x]-ийн аль нэгийг агуулах ёстой, хоёуланг нь агуулж болохгүй {extension.exists() != value.exists()}","n/a","3.2 Шалтгааны дэд төрөл"
"ServiceRequest.category.extension.extension.id","","","",0,0,"Y","","","string {[]} {[]}
","Unique id for inter-element referencing","Unique id for the element within a resource (for internal references). This may be any string value that does not contain spaces.","","","","","","","","","",,,,,"",,,,"Element.id",0,1,"","","n/a"
"ServiceRequest.category.extension.extension.extension","","extensions
user content","",0,0,"","","","Extension {[]} {[]}
","Additional content defined by implementations","May be used to represent additional information that is not part of the basic definition of the element. To make the use of extensions safe and manageable, there is a strict set of governance  applied to the definition and use of extensions. Though any implementer can define an extension, there is a set of requirements that SHALL be met as part of the definition of the extension.","There can be no stigma associated with the use of extensions by any application, project, or standard - regardless of the institution or jurisdiction that uses or defines the extensions.  The use of extensions is what allows the FHIR specification to retain a core level of simplicity for everyone.","","","","","","","","",,,,,"","value:url}
","Extensions are always sliced by (at least) url",,"open","Element.extension",0,*,"","ele-1:All FHIR elements must have a @value or children {hasValue() or (children().count() > id.count())}
ext-1:Must have either extensions or value[x], not both {extension.exists() != value.exists()}","n/a"
"ServiceRequest.category.extension.extension.url","","","",1,1,"","","","uri {[]} {[]}
","Өргөтгөлийн утгыг тодорхойлно.","Өргөтгөлийн кодын тодорхойлолтын эх сурвалж - логик нэр эсвэл URL.","Энэ тодорхойлолт нь тооцоолох боломжтой эсвэл хүнд уншигдахуйц хэлбэрээр бичигдсэн тодорхойлолт руу шууд зааж болно, эсвэл өөр бусад тодорхойлолтод заагдсан логик URI байж болно. Тодорхойлолт нь өргөтгөлийг тодорхойлсон бүтцийн тодорхойлолтын URI байх ЁСТОЙ.","","","","<valueUri xmlns=""http://hl7.org/fhir"" value=""reason-detail""/>","","","","",,,,,"",,,,"Extension.url",1,1,"","","N/A"
"ServiceRequest.category.extension.extension.value[x]","","","",1,1,"","","","Coding {[]} {[]}
","Өргөтгөлийн утга","Өргөтгөлийн утга - хязгаарласан багцалсан өгөгдлийн төрлүүдийн аль нэг нь байх ёстой. ( [Extensibility](StructureDefinition-mng-referral.html/extensibility.html) хэсгээс жагсаалтыг харна уу).","","","","","","","","","",,,,,"","type:$this}
","",,"open","Extension.value[x]",0,1,"","ele-1:FHIR-ийн бүх элементүүд @утга эсвэл дэд элементийг агуулах ёстой {hasValue() or (children().count() > id.count())}
","N/A"
"ServiceRequest.category.extension.extension.value[x]","valueCoding","","",1,1,"Y","","","Coding {[]} {[]}
","Өргөтгөлийн утга","Өргөтгөлийн утга - хязгаарласан багцалсан өгөгдлийн төрлүүдийн аль нэг нь байх ёстой. ( [Extensibility](StructureDefinition-mng-referral.html/extensibility.html) хэсгээс жагсаалтыг харна уу).","","","","","","","","","",,,,,"",,,,"Extension.value[x]",0,1,"","ele-1:FHIR-ийн бүх элементүүд @утга эсвэл дэд элементийг агуулах ёстой {hasValue() or (children().count() > id.count())}
","N/A"
"ServiceRequest.category.extension.extension","comment","extensions
user content","",0,1,"Y","","","Extension {[]} {[]}
","Is ""by"" same as ""during the implementation""?","Элементийн үндсэн тодорхойлолтод ороогүй, нэмэлт мэдээллийг илэрхийлэхэд ашиглагдаж болно. Өргөтгөлийн хэрэглээг аюулгүй, зохион байгуулахад дөхөм байлгах үүднээс шинэ өргөтгөл тодорхойлох болон хэрэглэх явдлыг хатуу чанд тодорхойлсон байдаг. Бүх хэрэгжүүлэгч шинэ өргөтгөл тодорхойлж болох боловч өргөтгөлийн тодорхойлолтын хэсэг болон мөрдөгдөх ЁСТОЙ багц шаардлага байдаг.","Өргөтгөлийг ашиглаж эсвэл тодорхойлж буй байгууллага эсвэл хууль эрх зүйн хүрээний байдлаас үл хамааран, ямар ч програм, төсөл, стандартад өргөтгөлийг ашиглахад буруутгах зүйл байх ёсгүй. Өргөтгөлийн хэрэглээ нь FHIR-ийн тодорхойлолтыг хүн бүрийн хэрэгцээнд нийцэхүйц, энгийн түвшинд байх боломжийг олгож буй хүчин зүйл юм.","","","","","","","","",,,,,"",,,,"Element.extension",0,*,"","ele-1:FHIR-ийн бүх элементүүд @утга эсвэл дэд элементийг агуулах ёстой {hasValue() or (children().count() > id.count())}
ext-1:Өргөтгөл эсвэл утга[x]-ийн аль нэгийг агуулах ёстой, хоёуланг нь агуулж болохгүй {extension.exists() != value.exists()}","n/a","3.3 Тайлбар"
"ServiceRequest.category.extension.extension.id","","","",0,0,"Y","","","string {[]} {[]}
","Unique id for inter-element referencing","Unique id for the element within a resource (for internal references). This may be any string value that does not contain spaces.","","","","","","","","","",,,,,"",,,,"Element.id",0,1,"","","n/a"
"ServiceRequest.category.extension.extension.extension","","extensions
user content","",0,0,"","","","Extension {[]} {[]}
","Additional content defined by implementations","May be used to represent additional information that is not part of the basic definition of the element. To make the use of extensions safe and manageable, there is a strict set of governance  applied to the definition and use of extensions. Though any implementer can define an extension, there is a set of requirements that SHALL be met as part of the definition of the extension.","There can be no stigma associated with the use of extensions by any application, project, or standard - regardless of the institution or jurisdiction that uses or defines the extensions.  The use of extensions is what allows the FHIR specification to retain a core level of simplicity for everyone.","","","","","","","","",,,,,"","value:url}
","Extensions are always sliced by (at least) url",,"open","Element.extension",0,*,"","ele-1:All FHIR elements must have a @value or children {hasValue() or (children().count() > id.count())}
ext-1:Must have either extensions or value[x], not both {extension.exists() != value.exists()}","n/a"
"ServiceRequest.category.extension.extension.url","","","",1,1,"","","","uri {[]} {[]}
","Өргөтгөлийн утгыг тодорхойлно.","Өргөтгөлийн кодын тодорхойлолтын эх сурвалж - логик нэр эсвэл URL.","Энэ тодорхойлолт нь тооцоолох боломжтой эсвэл хүнд уншигдахуйц хэлбэрээр бичигдсэн тодорхойлолт руу шууд зааж болно, эсвэл өөр бусад тодорхойлолтод заагдсан логик URI байж болно. Тодорхойлолт нь өргөтгөлийг тодорхойлсон бүтцийн тодорхойлолтын URI байх ЁСТОЙ.","","","","<valueUri xmlns=""http://hl7.org/fhir"" value=""comment""/>","","","","",,,,,"",,,,"Extension.url",1,1,"","","N/A"
"ServiceRequest.category.extension.extension.value[x]","","","",0,1,"","","","string {[]} {[]}
","Өргөтгөлийн утга","Өргөтгөлийн утга - хязгаарласан багцалсан өгөгдлийн төрлүүдийн аль нэг нь байх ёстой. ( [Extensibility](StructureDefinition-mng-referral.html/extensibility.html) хэсгээс жагсаалтыг харна уу).","","","","","","","","","",,,,,"","type:$this}
","",,"open","Extension.value[x]",0,1,"","ele-1:FHIR-ийн бүх элементүүд @утга эсвэл дэд элементийг агуулах ёстой {hasValue() or (children().count() > id.count())}
","N/A"
"ServiceRequest.category.extension.extension.value[x]","valueString","","",0,1,"Y","","","string {[]} {[]}
","Өргөтгөлийн утга","Өргөтгөлийн утга - хязгаарласан багцалсан өгөгдлийн төрлүүдийн аль нэг нь байх ёстой. ( [Extensibility](StructureDefinition-mng-referral.html/extensibility.html) хэсгээс жагсаалтыг харна уу).","","","","","","","","","",,,,,"",,,,"Extension.value[x]",0,1,"","ele-1:FHIR-ийн бүх элементүүд @утга эсвэл дэд элементийг агуулах ёстой {hasValue() or (children().count() > id.count())}
","N/A"
"ServiceRequest.category.extension.extension","patientAge","extensions
user content","",1,1,"Y","","","Extension {[CanonicalType[http://fhir.mn/StructureDefinition/patientAge]]} {[]}
","Is ""by"" same as ""during the implementation""?","Элементийн үндсэн тодорхойлолтод ороогүй, нэмэлт мэдээллийг илэрхийлэхэд ашиглагдаж болно. Өргөтгөлийн хэрэглээг аюулгүй, зохион байгуулахад дөхөм байлгах үүднээс шинэ өргөтгөл тодорхойлох болон хэрэглэх явдлыг хатуу чанд тодорхойлсон байдаг. Бүх хэрэгжүүлэгч шинэ өргөтгөл тодорхойлж болох боловч өргөтгөлийн тодорхойлолтын хэсэг болон мөрдөгдөх ЁСТОЙ багц шаардлага байдаг.","Өргөтгөлийг ашиглаж эсвэл тодорхойлж буй байгууллага эсвэл хууль эрх зүйн хүрээний байдлаас үл хамааран, ямар ч програм, төсөл, стандартад өргөтгөлийг ашиглахад буруутгах зүйл байх ёсгүй. Өргөтгөлийн хэрэглээ нь FHIR-ийн тодорхойлолтыг хүн бүрийн хэрэгцээнд нийцэхүйц, энгийн түвшинд байх боломжийг олгож буй хүчин зүйл юм.","","","","","","","","",,,,,"",,,,"Element.extension",0,*,"","ele-1:FHIR-ийн бүх элементүүд @утга эсвэл дэд элементийг агуулах ёстой {hasValue() or (children().count() > id.count())}
ext-1:Өргөтгөл эсвэл утга[x]-ийн аль нэгийг агуулах ёстой, хоёуланг нь агуулж болохгүй {extension.exists() != value.exists()}","n/a"
"ServiceRequest.category.extension.url","","","",1,1,"","","","uri {[]} {[]}
","Өргөтгөлийн утгыг тодорхойлно.","Өргөтгөлийн кодын тодорхойлолтын эх сурвалж - логик нэр эсвэл URL.","Энэ тодорхойлолт нь тооцоолох боломжтой эсвэл хүнд уншигдахуйц хэлбэрээр бичигдсэн тодорхойлолт руу шууд зааж болно, эсвэл өөр бусад тодорхойлолтод заагдсан логик URI байж болно. Тодорхойлолт нь өргөтгөлийг тодорхойлсон бүтцийн тодорхойлолтын URI байх ЁСТОЙ.","","","","<valueUri xmlns=""http://hl7.org/fhir"" value=""http://fhir.mn/StructureDefinition/category-details""/>","","","","",,,,,"",,,,"Extension.url",1,1,"","","N/A"
"ServiceRequest.category.extension.value[x]","","","",0,0,"","","","base64Binary {[]} {[]}
boolean {[]} {[]}canonical {[]} {[]}code {[]} {[]}date {[]} {[]}dateTime {[]} {[]}decimal {[]} {[]}id {[]} {[]}instant {[]} {[]}integer {[]} {[]}markdown {[]} {[]}oid {[]} {[]}positiveInt {[]} {[]}string {[]} {[]}time {[]} {[]}unsignedInt {[]} {[]}uri {[]} {[]}url {[]} {[]}uuid {[]} {[]}Address {[]} {[]}Age {[]} {[]}Annotation {[]} {[]}Attachment {[]} {[]}CodeableConcept {[]} {[]}Coding {[]} {[]}ContactPoint {[]} {[]}Count {[]} {[]}Distance {[]} {[]}Duration {[]} {[]}HumanName {[]} {[]}Identifier {[]} {[]}Money {[]} {[]}Period {[]} {[]}Quantity {[]} {[]}Range {[]} {[]}Ratio {[]} {[]}Reference {[]} {[]}SampledData {[]} {[]}Signature {[]} {[]}Timing {[]} {[]}ContactDetail {[]} {[]}Contributor {[]} {[]}DataRequirement {[]} {[]}Expression {[]} {[]}ParameterDefinition {[]} {[]}RelatedArtifact {[]} {[]}TriggerDefinition {[]} {[]}UsageContext {[]} {[]}Dosage {[]} {[]}Meta {[]} {[]}","Value of extension","Value of extension - must be one of a constrained set of the data types (see [Extensibility](StructureDefinition-mng-referral.html/extensibility.html) for a list).","","","","","","","","","",,,,,"",,,,"Extension.value[x]",0,1,"","ele-1:All FHIR elements must have a @value or children {hasValue() or (children().count() > id.count())}
","N/A"
"ServiceRequest.category.coding","","","",0,*,"","","Y","Coding {[]} {[]}
","Нэр томъёоны системээр тодорхойлогдсон код","Нэр томъёоны системээр тодорхойлогдсон кодын заалт","Кодууд нь маш санамсаргүйгээр жагсаалт эсвэл кодын жагсаалтнаас эхлээд SNOMED CT гэх мэт маш албан ёсны тодорхойлолтуудад тодорхойлогдох боломжтой - илүү мэдээллийг HL7 v3 Core -н зарчмуудаас харна уу. Коджуулалтын эрэмбэ тодорхойлогдоогүй ба утгыг дүгнэхэд хэрэглэгдэх ЁСГҮЙ. Ерөнхийдөө, хамгийн ихдээ коджуулах утгын зөвхөн нэг нь ХэрэглэгчСонгосон = үнэн гэж тэмдэглэгдэнэ.","Бусад кодын системээр шифрлэх, мөн бусад кодын системрүү орчуулгуудыг боломжтой болгох","","","","","","","",,,,,"",,,,"CodeableConcept.coding",0,*,"","ele-1:FHIR-ийн бүх элементүүд @утга эсвэл дэд элементийг агуулах ёстой {hasValue() or (children().count() > id.count())}
","C*E.1-8, C*E.10-22","union(., ./translation)"
"ServiceRequest.category.text","","","",0,1,"","","Y","string {[]} {[]}
","Агуулгын энгийн текстэн илэрхийлэл","Өгөгдлийг оруулсан хэрэглэгчийн харсан / сонгосон / үгээр илэрхийлснээр болон/эсвэл хэрэглэгчийн гаргах гэсэн санааг илэрхийлсэн, тухайн ойлголтын талаарх хүний хэлээр бичигдсэн илэрхийлэл","Ихэнх текстүүд нь коджуулалтын нэг DisplayName-тэй адил байна.","Нэр томъёоноос авсан кодууд нь хүмүүсийн тэдгээрийг хэрэглэж буй бүх өнгө аястай нийцсэн зөв утгыг үргэлж авдаггүй, эсвэл заримдаа огт тохиромжгүй код байдаг. Энэ тохиолдолдуудад, текст нь эх үүсвэрийн бүрэн утгыг авдаг.","","","","","","","",,,,,"",,,,"CodeableConcept.text",0,1,"","ele-1:FHIR-ийн бүх элементүүд @утга эсвэл дэд элементийг агуулах ёстой {hasValue() or (children().count() > id.count())}
","C*E.9. But note many systems use C*E.2 for this","./originalText[mediaType/code=""text/plain""]/data"
"ServiceRequest.priority","","","",0,1,"Y","","Y","code {[]} {[]}
","ердийн | яаралтай | аль болох түргэн | хойшлуулшгүй","Үйлчилгээний хүсэлтийг бусад хүсэлтийн дагуу хэр хурдан шийдвэрлэхийг зааж өгдөг.","","","","If missing, this task should be performed with normal priority","","","","","",,"required","Хүсэлтийг биелүүлэхэд холбогдох ач холбогдлын түвшнийг тодорхойлно.","http://hl7.org/fhir/ValueSet/request-priority|4.0.1","",,,,"ServiceRequest.priority",0,1,"","ele-1:FHIR-ийн бүх элементүүд @утга эсвэл дэд элементийг агуулах ёстой {hasValue() or (children().count() > id.count())}
","Request.priority","TQ1.9, RF1-2",".priorityCode","FiveWs.grade","1.4 PIU-TS: ердийн | яаралтай | нэн яаралтай","4 Эрэмбэ"
"ServiceRequest.doNotPerform","","","",0,0,"Y","Y","Y","boolean {[]} {[]}
","True if service/procedure should not be performed","Set this to true if the record is saying that the service/procedure should NOT be performed.","In general, only the code and timeframe will be present, though occasional additional qualifiers such as body site or even performer could be included to narrow the scope of the prohibition.  If the ServiceRequest.code and ServiceRequest.doNotPerform both contain negation, that will reinforce prohibition and should not have a double negative interpretation.","Used for do not ambulate, do not elevate head of bed, do not flush NG tube, do not take blood pressure on a certain arm, etc.","","If missing, the request is a positive request e.g. ""do perform""","","","","","",,,,,"",,,,"ServiceRequest.doNotPerform",0,1,"","ele-1:All FHIR elements must have a @value or children {hasValue() or (children().count() > id.count())}
","Request.doNotPerform",".actionNegationInd"
"ServiceRequest.code","","service requested
","",0,0,"Y","","Y","CodeableConcept {[]} {[]}
","What is being requested/ordered","A code that identifies a particular service (i.e., procedure, diagnostic investigation, or panel of investigations) that have been requested.","Many laboratory and radiology procedure codes embed the specimen/organ system in the test order name, for example,  serum or serum/plasma glucose, or a chest x-ray. The specimen might not be recorded separately from the test code.","","","","","","","","",,"example","Codes for tests or services that can be carried out by a designated individual, organization or healthcare service.  For laboratory, LOINC is  (preferred)[http://build.fhir.org/terminologies.html#preferred] and a valueset using LOINC Order codes is available [here](valueset-diagnostic-requests.html).","http://hl7.org/fhir/ValueSet/procedure-code","",,,,"ServiceRequest.code",0,1,"","ele-1:All FHIR elements must have a @value or children {hasValue() or (children().count() > id.count())}
","Request.code","PR1-3 / OBR-4  (varies by domain)",".code","FiveWs.what[x]","Procedure.procedureCode","1.5.1 TODO"
"ServiceRequest.orderDetail","","detailed instructions
","",0,0,"Y","","Y","CodeableConcept {[]} {[]}
","Additional order information","Additional details and instructions about the how the services are to be delivered.   For example, and order for a urinary catheter may have an order detail for an external or indwelling catheter, or an order for a bandage may require additional instructions specifying how the bandage should be applied.","For information from the medical record intended to support the delivery of the requested services, use the `supportingInformation` element.","","","","","","","","",,"example","Codified order entry details which are based on order context.","http://hl7.org/fhir/ValueSet/servicerequest-orderdetail","",,,,"ServiceRequest.orderDetail",0,*,"prr-1
","ele-1:All FHIR elements must have a @value or children {hasValue() or (children().count() > id.count())}
","NTE",".code","Procedure.procedureCode","1.5.2 BP3zzz- баруун мөрний MRI"
"ServiceRequest.quantity[x]","","","",0,0,"Y","","Y","Quantity {[]} {[]}
Ratio {[]} {[]}Range {[]} {[]}","Service amount","An amount of service being requested which can be a quantity ( for example $1,500 home modification), a ratio ( for example, 20 half day visits per month), or a range (2.0 to 1.8 Gy per fraction).","","When ordering a service the number of service items may need to be specified separately from the the service item.","","","","","","","",,,,,"",,,,"ServiceRequest.quantity[x]",0,1,"","ele-1:All FHIR elements must have a @value or children {hasValue() or (children().count() > id.count())}
","NTE",".quantity"
"ServiceRequest.subject","","","",1,1,"Y","","Y","Reference {[]} {[CanonicalType[http://fhir.mn/StructureDefinition/mng-core-patient]]}
","Үйлчилгээг захиалсан хувь хүн эсвэл байгууллага","Хэнд эсвэл юунд үйлчилгээ үзүүлэх. Энэ нь ихэвчлэн өвчтөн зэрэг хүн, диализын машин гэх мэт төхөөрөмж эсвэл тодорхой байршил(орчны үнэлгээний үед).","","","","","","","","","",,,,,"",,,,"ServiceRequest.subject",1,1,"","ele-1:FHIR-ийн бүх элементүүд @утга эсвэл дэд элементийг агуулах ёстой {hasValue() or (children().count() > id.count())}
","Request.subject","PID",".participation[typeCode=SBJ].role","FiveWs.subject[x]","FiveWs.subject","ClinicalStatement.subject","3 Үйлчлүүлэгчийн мэдээлэл","5 Үйлчлүүлэгч"
"ServiceRequest.encounter","","context
","",1,1,"Y","","Y","Reference {[]} {[CanonicalType[http://fhir.mn/StructureDefinition/mng-encounter]]}
","Хүсэлтийг гаргасан энкантур","Энэхүү хүсэлтийг гаргасан эрүүл мэндийн тусламж үйлчилгээний агуулгын талаархи нэмэлт мэдээллийг агуулсан энкантур.","","","","","","","","","",,,,,"",,,,"ServiceRequest.encounter",0,1,"","ele-1:FHIR-ийн бүх элементүүд @утга эсвэл дэд элементийг агуулах ёстой {hasValue() or (children().count() > id.count())}
","Request.encounter","PV1",".inboundRelationship(typeCode=COMP].source[classCode<=PCPR, moodCode=EVN]","FiveWs.context","ClinicalStatement.encounter"
"ServiceRequest.occurrence[x]","","schedule
","",0,0,"Y","","Y","dateTime {[]} {[]}
Period {[]} {[]}Timing {[]} {[]}","When service should occur","The date/time at which the requested service should occur.","","","","","","","","","",,,,,"",,,,"ServiceRequest.occurrence[x]",0,1,"","ele-1:All FHIR elements must have a @value or children {hasValue() or (children().count() > id.count())}
","Request.occurrence[x]","TQ1/TQ2, OBR-7/OBR-8",".effectiveTime","FiveWs.planned","Procedure.procedureSchedule"
"ServiceRequest.asNeeded[x]","","","",0,0,"Y","","Y","boolean {[]} {[]}
CodeableConcept {[]} {[]}","Preconditions for service","If a CodeableConcept is present, it indicates the pre-condition for performing the service.  For example ""pain"", ""on flare-up"", etc.","","","","","","","","","",,"example","A coded concept identifying the pre-condition that should hold prior to performing a procedure.  For example ""pain"", ""on flare-up"", etc.","http://hl7.org/fhir/ValueSet/medication-as-needed-reason","",,,,"ServiceRequest.asNeeded[x]",0,1,"","ele-1:All FHIR elements must have a @value or children {hasValue() or (children().count() > id.count())}
","boolean: precondition.negationInd (inversed - so negationInd = true means asNeeded=false CodeableConcept: precondition.observationEventCriterion[code=""Assertion""].value","Proposal.prnReason.reason"
"ServiceRequest.authoredOn","","orderedOn
","",0,1,"","","Y","dateTime {[]} {[]}
","Хүсэлт гаргасан огноо","Хүсэлтийн төлөв нь түүний үр дүнд тодорхой үйлдэл хийх шаардлагатай төлөв рүү шилжсэн хугацаа.","","","","","","","","","",,,,,"",,,,"ServiceRequest.authoredOn",0,1,"","ele-1:FHIR-ийн бүх элементүүд @утга эсвэл дэд элементийг агуулах ёстой {hasValue() or (children().count() > id.count())}
","Request.authoredOn","ORC.9,  RF1-7 / RF1-9",".participation[typeCode=AUT].time","FiveWs.recorded","Proposal.proposedAtTime","1.9 Илгээсэн он сар өдөр, цаг минут / Request date and time"
"ServiceRequest.requester","","author
orderer","",1,1,"Y","","Y","Reference {[]} {[CanonicalType[http://fhir.mn/StructureDefinition/mng-core-practitioner-role]]}
","Хэн/юу үйлчилгээ авахыг хүссэн болох","Хүсэлтийг санаачилсан, түүний идэвхжилтэнд хариуцлага хүлээх хүн. ","Энэ нь илгээгч бус илгээх зөвшөөрөл өгсөн хүн. Энэ элемент нь ГаралҮүсэл хэрэглүүрээр шийдэгдэж болох төлөөлөгч гишүүдийг зохицуулахад зориулагдаагүй болно.  ","","","","","","","","",,,,,"",,,,"ServiceRequest.requester",0,1,"","ele-1:FHIR-ийн бүх элементүүд @утга эсвэл дэд элементийг агуулах ёстой {hasValue() or (children().count() > id.count())}
","Request.requester","ORC.12, PRT",".participation[typeCode=AUT].role","FiveWs.author","ClinicalStatement.statementAuthor","4 Шинжилгээ, оношилгоо захиалагч","7 Илгээгч"
"ServiceRequest.performerType","","specialty
","",0,0,"Y","","Y","CodeableConcept {[]} {[]}
","Performer role","Desired type of performer for doing the requested service.","This is a  role, not  a participation type.  In other words, does not describe the task but describes the capacity.  For example, “compounding pharmacy”, “psychiatrist” or “internal referral”.","","","","","","","","",,"example","Indicates specific responsibility of an individual within the care team, such as ""Primary physician"", ""Team coordinator"", ""Caregiver"", etc.","http://hl7.org/fhir/ValueSet/participant-role","",,,,"ServiceRequest.performerType",0,1,"","ele-1:All FHIR elements must have a @value or children {hasValue() or (children().count() > id.count())}
","Request.performerType","PRT, RF!-3",".participation[typeCode=PRF].role[scoper.determinerCode=KIND].code","FiveWs.actor"
"ServiceRequest.performer","","request recipient
","",1,*,"Y","","Y","Reference {[]} {[CanonicalType[http://fhir.mn/StructureDefinition/mng-core-organization], CanonicalType[http://fhir.mn/StructureDefinition/mng-core-organization-department]]}
","Хүсэлт гаргасан гүйцэтгэгч","Тухайн хүсэлт гаргасан үйлчилгээг авахыг хүссэн гүйцэтгэгч. Жишээлбэл: мэс засалч, арьсны эмч, дурангийн эмч гэх мэт.","Хэрэв олон гүйцэтгэгч байгаа тохиолдолд ямар нэг давуу эрх олгохуйц дараалалгүйгээр *альтернатив* жагсаалт болж харагдана. Хэрэв давуу эрх олгох дараалал хэрэглэх шаардлагатай болвол [request-performerOrder extension](StructureDefinition-mng-referral.html/extension-request-performerorder.html) -г ашиглана уу. Бүлэг гүйцэтгэгчийг илэрхийлэхдээ ТусламжҮйлчилгээнийБаг-г ашиглана уу. (Жишээ нь: Эмнэлгийн мэргэжилтэн A ба Эмнэлгийн мэргэжилтэн В)","","","","","","","","",,,,,"",,,,"ServiceRequest.performer",0,*,"","ele-1:FHIR-ийн бүх элементүүд @утга эсвэл дэд элементийг агуулах ёстой {hasValue() or (children().count() > id.count())}
","Request.performer","PRT, Practitioner: PRD-2/PRD-7 where PRD-3 = RT; Organization: PRD-10 where PRD-3 = RT",".participation[typeCode=PRF].role[scoper.determinerCode=INSTANCE]","FiveWs.actor","5 Захиалгыг хүлээн авагч","8 Хүлээн авагч"
"ServiceRequest.locationCode","","","",0,0,"Y","","Y","CodeableConcept {[]} {[]}
","Requested location","The preferred location(s) where the procedure should actually happen in coded or free text form. E.g. at home or nursing day care center.","","","","","","","","","",,"example","A location type where services are delivered.","http://terminology.hl7.org/ValueSet/v3-ServiceDeliveryLocationRoleType","",,,,"ServiceRequest.locationCode",0,*,"","ele-1:All FHIR elements must have a @value or children {hasValue() or (children().count() > id.count())}
",".participation[typeCode=LOC].role[scoper.determinerCode=KIND].code","FiveWs.actor"
"ServiceRequest.locationReference","","","",0,0,"Y","","Y","Reference {[]} {[CanonicalType[http://hl7.org/fhir/StructureDefinition/Location]]}
","Requested location","A reference to the the preferred location(s) where the procedure should actually happen. E.g. at home or nursing day care center.","","","","","","","","","",,,,,"",,,,"ServiceRequest.locationReference",0,*,"","ele-1:All FHIR elements must have a @value or children {hasValue() or (children().count() > id.count())}
",".participation[typeCode=LOC].role[scoper.determinerCode=INSTANCE]","FiveWs.actor"
"ServiceRequest.reasonCode","","","",1,*,"Y","","Y","CodeableConcept {[]} {[]}
","Үйлчилгээний талаархи тайлбар/үндэслэл.","Энэхүү үйлчилгээнд яагаад хүсэлт илгээсэн тухай кодолж эсвэл бичвэр хэлбэрт оруулсан тайлбар эсвэл үндэслэл. Ихэвчлэн төлбөр тооцооны зорилготой байдаг ба ""ДэмжихМэдээлэл""-д дурдсан хэрэглүүрүүдтэй хамааралтай байж болно.","Энэ элемент нь яагаад шилжүүлэг хийгдсэнийг илэрхийлэхэд болон үйлчилгээг хэрхэн үзүүлэхийг эсвэл үйлчилгээ бүрэн хийгдэх эсэхийг шийдэхэд ашиглагддаг. . Хэрэв [CT Scan example](StructureDefinition-mng-referral.html/servicerequest-example-di.html) -д бичвэрээр үзүүлсэнчлэн өгөгдөл нь чөлөөт (кодчилогдоогүй) бол `ОношилгооныТайлан.дүгнэлтКод` дахь Кодчилж болох агуулгын текстэн элементийг ашиглана уу. ","","","","","","","","",,"example","Онош эсвэл шинжилгээ үйлчилгээ хийх хүсэлт гаргах шалтгаан болсон асуудлыг илэрхиийлэх кодууд.","http://hl7.org/fhir/ValueSet/procedure-reason","",,,,"ServiceRequest.reasonCode",0,*,"","ele-1:FHIR-ийн бүх элементүүд @утга эсвэл дэд элементийг агуулах ёстой {hasValue() or (children().count() > id.count())}
","Request.reasonCode","ORC.16, RF1-10",".reasonCode","FiveWs.why[x]","1.3 Иргэнийг илгээж буй шалтгаан","9 онош"
"ServiceRequest.reasonReference","","","",0,0,"Y","","Y","Reference {[]} {[CanonicalType[http://hl7.org/fhir/StructureDefinition/Condition], CanonicalType[http://hl7.org/fhir/StructureDefinition/Observation], CanonicalType[http://hl7.org/fhir/StructureDefinition/DiagnosticReport], CanonicalType[http://hl7.org/fhir/StructureDefinition/DocumentReference]]}
","Explanation/Justification for service or service","Indicates another resource that provides a justification for why this service is being requested.   May relate to the resources referred to in `supportingInfo`.","This element represents why the referral is being made and may be used to decide how the service will be performed, or even if it will be performed at all.    To be as specific as possible,  a reference to  *Observation* or *Condition* should be used if available.  Otherwise when referencing  *DiagnosticReport*  it should contain a finding  in `DiagnosticReport.conclusion` and/or `DiagnosticReport.conclusionCode`.   When using a reference to *DocumentReference*, the target document should contain clear findings language providing the relevant reason for this service request.  Use  the CodeableConcept text element in `ServiceRequest.reasonCode` if the data is free (uncoded) text as shown in the [CT Scan example](StructureDefinition-mng-referral.html/servicerequest-example-di.html).","","","","","","","","",,,,,"",,,,"ServiceRequest.reasonReference",0,*,"","ele-1:All FHIR elements must have a @value or children {hasValue() or (children().count() > id.count())}
","Request.reasonReference","ORC.16",".outboundRelationship[typeCode=RSON].target","FiveWs.why[x]","1.7 ӨОУА-10 кодод харгалзах онош"
"ServiceRequest.insurance","","","",0,0,"Y","","","Reference {[]} {[CanonicalType[http://hl7.org/fhir/StructureDefinition/Coverage], CanonicalType[http://hl7.org/fhir/StructureDefinition/ClaimResponse]]}
","Associated insurance coverage","Insurance plans, coverage extensions, pre-authorizations and/or pre-determinations that may be needed for delivering the requested service.","","","","","","","","","",,,,,"",,,,"ServiceRequest.insurance",0,*,"","ele-1:All FHIR elements must have a @value or children {hasValue() or (children().count() > id.count())}
","Request.insurance","IN1/IN2",".outboundRelationship[typeCode=COVBY].target"
"ServiceRequest.supportingInfo","","Ask at order entry question
AOE","",0,0,"Y","","","Reference {[]} {[CanonicalType[http://hl7.org/fhir/StructureDefinition/Resource]]}
","Additional clinical information","Additional clinical information about the patient or specimen that may influence the services or their interpretations.     This information includes diagnosis, clinical findings and other observations.  In laboratory ordering these are typically referred to as ""ask at order entry questions (AOEs)"".  This includes observations explicitly requested by the producer (filler) to provide context or supporting information needed to complete the order. For example,  reporting the amount of inspired oxygen for blood gas measurements.","To represent information about how the services are to be delivered use the `instructions` element.","","","","","","","","",,,,,"",,,,"ServiceRequest.supportingInfo",0,*,"","ele-1:All FHIR elements must have a @value or children {hasValue() or (children().count() > id.count())}
","Request.supportingInfo","Accompanying segments",".outboundRelationship[typeCode=PERT].target"
"ServiceRequest.specimen","","","",0,0,"Y","","Y","Reference {[]} {[CanonicalType[http://hl7.org/fhir/StructureDefinition/Specimen]]}
","Procedure Samples","One or more specimens that the laboratory procedure will use.","Many diagnostic procedures need a specimen, but the request itself is not actually about the specimen. This element is for when the diagnostic is requested on already existing specimens and the request points to the specimen it applies to.    Conversely, if the request is entered first with an unknown specimen, then the [Specimen](StructureDefinition-mng-referral.html/specimen.html) resource points to the ServiceRequest.","","","","","","","","",,,,,"",,,,"ServiceRequest.specimen",0,*,"","ele-1:All FHIR elements must have a @value or children {hasValue() or (children().count() > id.count())}
","SPM",".participation[typeCode=SPC].role"
"ServiceRequest.bodySite","","location
","",0,0,"Y","","Y","CodeableConcept {[]} {[]}
","Location on Body","Anatomic location where the procedure should be performed. This is the target site.","Only used if not implicit in the code found in ServiceRequest.code.  If the use case requires BodySite to be handled as a separate resource instead of an inline coded element (e.g. to identify and track separately)  then use the standard extension [procedure-targetBodyStructure](StructureDefinition-mng-referral.html/extension-procedure-targetbodystructure.html).","Knowing where the procedure is performed is important for tracking if multiple sites are possible.","","","","","","","",,"example","Codes describing anatomical locations. May include laterality.","http://hl7.org/fhir/ValueSet/body-site","",,,,"ServiceRequest.bodySite",0,*,"","ele-1:All FHIR elements must have a @value or children {hasValue() or (children().count() > id.count())}
","SPM","targetSiteCode","Procedure.targetBodySite"
"ServiceRequest.note","","","",0,0,"Y","","","Annotation {[]} {[]}
","Comments","Any other notes and comments made about the service request. For example, internal billing notes.","","","","","","","","","",,,,,"",,,,"ServiceRequest.note",0,*,"","ele-1:All FHIR elements must have a @value or children {hasValue() or (children().count() > id.count())}
","Request.note","NTE",".inboundRelationship(typeCode=SUBJ].source[classCode=ANNGEN, moodCode=EVN].value[xsi:type=ST]","ClinicalStatement.additionalText","1.5.3 зөвлөмж"
"ServiceRequest.patientInstruction","","","",0,0,"Y","","Y","string {[]} {[]}
","Patient or consumer-oriented instructions","Instructions in terms that are understood by the patient or consumer.","","","","","","","","","",,,,,"",,,,"ServiceRequest.patientInstruction",0,1,"","ele-1:All FHIR elements must have a @value or children {hasValue() or (children().count() > id.count())}
","NTE",".text"
"ServiceRequest.relevantHistory","","","",0,0,"Y","","","Reference {[]} {[CanonicalType[http://hl7.org/fhir/StructureDefinition/Provenance]]}
","Request provenance","Key events in the history of the request.","This might not include provenances for all versions of the request – only those deemed “relevant” or important.This SHALL NOT include the Provenance associated with this current version of the resource.  (If that provenance is deemed to be a “relevant” change, it will need to be added as part of a later update.  Until then, it can be queried directly as the Provenance that points to this version using _revincludeAll Provenances should have some historical version of this Request as their subject.","","","","","","","","",,,,,"",,,,"ServiceRequest.relevantHistory",0,*,"","ele-1:All FHIR elements must have a @value or children {hasValue() or (children().count() > id.count())}
","Request.relevantHistory","N/A",".inboundRelationship(typeCode=SUBJ].source[classCode=CACT, moodCode=EVN]"
