<?xml version="1.0" encoding="UTF-8"?>
<sch:schema xmlns:sch="http://purl.oclc.org/dsdl/schematron" queryBinding="xslt2">
  <sch:ns prefix="f" uri="http://hl7.org/fhir"/>
  <sch:ns prefix="h" uri="http://www.w3.org/1999/xhtml"/>
  <!-- 
    This file contains just the constraints for the profile ServiceRequest
    It includes the base constraints for the resource as well.
    Because of the way that schematrons and containment work, 
    you may need to use this schematron fragment to build a, 
    single schematron that validates contained resources (if you have any) 
  -->
  <sch:pattern>
    <sch:title>f:ServiceRequest</sch:title>
    <sch:rule context="f:ServiceRequest">
      <sch:assert test="count(f:extension[@url = 'hc-id']) &lt;= 1">extension with URL = 'hc-id': maximum cardinality of 'extension' is 1</sch:assert>
      <sch:assert test="count(f:instantiatesCanonical) &lt;= 0">instantiatesCanonical: maximum cardinality of 'instantiatesCanonical' is 0</sch:assert>
      <sch:assert test="count(f:instantiatesUri) &lt;= 0">instantiatesUri: maximum cardinality of 'instantiatesUri' is 0</sch:assert>
      <sch:assert test="count(f:basedOn) &lt;= 0">basedOn: maximum cardinality of 'basedOn' is 0</sch:assert>
      <sch:assert test="count(f:replaces) &lt;= 0">replaces: maximum cardinality of 'replaces' is 0</sch:assert>
      <sch:assert test="count(f:requisition) &lt;= 0">requisition: maximum cardinality of 'requisition' is 0</sch:assert>
      <sch:assert test="count(f:category) &gt;= 1">category: minimum cardinality of 'category' is 1</sch:assert>
      <sch:assert test="count(f:doNotPerform) &lt;= 0">doNotPerform: maximum cardinality of 'doNotPerform' is 0</sch:assert>
      <sch:assert test="count(f:code) &lt;= 0">code: maximum cardinality of 'code' is 0</sch:assert>
      <sch:assert test="count(f:orderDetail) &lt;= 0">orderDetail: maximum cardinality of 'orderDetail' is 0</sch:assert>
      <sch:assert test="count(f:quantity[x]) &lt;= 0">quantity[x]: maximum cardinality of 'quantity[x]' is 0</sch:assert>
      <sch:assert test="count(f:encounter) &gt;= 1">encounter: minimum cardinality of 'encounter' is 1</sch:assert>
      <sch:assert test="count(f:occurrence[x]) &lt;= 0">occurrence[x]: maximum cardinality of 'occurrence[x]' is 0</sch:assert>
      <sch:assert test="count(f:asNeeded[x]) &lt;= 0">asNeeded[x]: maximum cardinality of 'asNeeded[x]' is 0</sch:assert>
      <sch:assert test="count(f:requester) &gt;= 1">requester: minimum cardinality of 'requester' is 1</sch:assert>
      <sch:assert test="count(f:performerType) &lt;= 0">performerType: maximum cardinality of 'performerType' is 0</sch:assert>
      <sch:assert test="count(f:performer) &gt;= 1">performer: minimum cardinality of 'performer' is 1</sch:assert>
      <sch:assert test="count(f:locationCode) &lt;= 0">locationCode: maximum cardinality of 'locationCode' is 0</sch:assert>
      <sch:assert test="count(f:locationReference) &lt;= 0">locationReference: maximum cardinality of 'locationReference' is 0</sch:assert>
      <sch:assert test="count(f:reasonCode) &gt;= 1">reasonCode: minimum cardinality of 'reasonCode' is 1</sch:assert>
      <sch:assert test="count(f:reasonReference) &lt;= 0">reasonReference: maximum cardinality of 'reasonReference' is 0</sch:assert>
      <sch:assert test="count(f:insurance) &lt;= 0">insurance: maximum cardinality of 'insurance' is 0</sch:assert>
      <sch:assert test="count(f:supportingInfo) &lt;= 0">supportingInfo: maximum cardinality of 'supportingInfo' is 0</sch:assert>
      <sch:assert test="count(f:specimen) &lt;= 0">specimen: maximum cardinality of 'specimen' is 0</sch:assert>
      <sch:assert test="count(f:bodySite) &lt;= 0">bodySite: maximum cardinality of 'bodySite' is 0</sch:assert>
      <sch:assert test="count(f:note) &lt;= 0">note: maximum cardinality of 'note' is 0</sch:assert>
      <sch:assert test="count(f:patientInstruction) &lt;= 0">patientInstruction: maximum cardinality of 'patientInstruction' is 0</sch:assert>
      <sch:assert test="count(f:relevantHistory) &lt;= 0">relevantHistory: maximum cardinality of 'relevantHistory' is 0</sch:assert>
    </sch:rule>
  </sch:pattern>
  <sch:pattern>
    <sch:title>ServiceRequest</sch:title>
    <sch:rule context="f:ServiceRequest">
      <sch:assert test="not(parent::f:contained and f:contained)">Хэрвээ хэрэглүүр өөр хэрэглүүрийн дотор агуулагдаж байгаа бол, тэрээр дотроо багтсан хэрэглүүр агуулах ЁСГҮЙ.</sch:assert>
      <sch:assert test="not(exists(for $id in f:contained/*/f:id/@value return $contained[not(parent::*/descendant::f:reference/@value=concat('#', $contained/*/id/@value) or descendant::f:reference[@value='#'])]))">Хэрвээ хэрэглүүр өөр хэрэглүүрийн дотор агуулагдаж байгаа бол, тэрээр хэрэглүүрийн хаа нэгтэйгээс заагдсан байх ЁСТОЙ эсвэл агуулж буй хэрэглүүр рүү заах ЁСТОЙ.</sch:assert>
      <sch:assert test="not(exists(f:contained/*/f:meta/f:versionId)) and not(exists(f:contained/*/f:meta/f:lastUpdated))">Хэрвээ хэрэглүүр өөр хэрэглүүрийн дотор агуулагдаж байгаа бол тэрээр meta.versionId эсвэл meta.lastUpdated элементтэй байх ЁСГҮЙ.</sch:assert>
      <sch:assert test="not(exists(f:contained/*/f:meta/f:security))">Хэрвээ хэрэглүүр өөр хэрэглүүрийн дотор агуулагдаж байгаа бол, аюулгүй байдлын шошготой байх ЁСГҮЙ.</sch:assert>
      <sch:assert test="exists(f:text/h:div)">Зохион байгуулалтыг сайн байлгах үүднээс хэрэглүүрүүдэд хүүрнэл хэсэг байх хэрэгтэй.</sch:assert>
      <sch:assert test="exists(f:code) or not(exists(f:orderDetail))">зөвхөн код байгаа үед л захиалгынХэсгүүд байна</sch:assert>
    </sch:rule>
  </sch:pattern>
  <sch:pattern>
    <sch:title>ServiceRequest.meta</sch:title>
    <sch:rule context="f:ServiceRequest/f:meta">
      <sch:assert test="@value|f:*|h:div">FHIR-ийн бүх элементүүд @утга эсвэл дэд элементийг агуулах ёстой</sch:assert>
    </sch:rule>
  </sch:pattern>
  <sch:pattern>
    <sch:title>ServiceRequest.implicitRules</sch:title>
    <sch:rule context="f:ServiceRequest/f:implicitRules">
      <sch:assert test="@value|f:*|h:div">FHIR-ийн бүх элементүүд @утга эсвэл дэд элементийг агуулах ёстой</sch:assert>
    </sch:rule>
  </sch:pattern>
  <sch:pattern>
    <sch:title>ServiceRequest.language</sch:title>
    <sch:rule context="f:ServiceRequest/f:language">
      <sch:assert test="@value|f:*|h:div">FHIR-ийн бүх элементүүд @утга эсвэл дэд элементийг агуулах ёстой</sch:assert>
    </sch:rule>
  </sch:pattern>
  <sch:pattern>
    <sch:title>ServiceRequest.text</sch:title>
    <sch:rule context="f:ServiceRequest/f:text">
      <sch:assert test="@value|f:*|h:div">FHIR-ийн бүх элементүүд @утга эсвэл дэд элементийг агуулах ёстой</sch:assert>
    </sch:rule>
  </sch:pattern>
  <sch:pattern>
    <sch:title>ServiceRequest.extension</sch:title>
    <sch:rule context="f:ServiceRequest/f:extension">
      <sch:assert test="@value|f:*|h:div">FHIR-ийн бүх элементүүд @утга эсвэл дэд элементийг агуулах ёстой</sch:assert>
      <sch:assert test="exists(f:extension)!=exists(f:*[starts-with(local-name(.), &quot;value&quot;)])">Өргөтгөл эсвэл утга[x]-ийн аль нэгийг агуулах ёстой, хоёуланг нь агуулж болохгүй</sch:assert>
      <sch:assert test="@value|f:*|h:div">FHIR-ийн бүх элементүүд @утга эсвэл дэд элементийг агуулах ёстой</sch:assert>
      <sch:assert test="exists(f:extension)!=exists(f:*[starts-with(local-name(.), &quot;value&quot;)])">Өргөтгөл эсвэл утга[x]-ийн аль нэгийг агуулах ёстой, хоёуланг нь агуулж болохгүй</sch:assert>
    </sch:rule>
  </sch:pattern>
  <sch:pattern>
    <sch:title>f:ServiceRequest/f:extension</sch:title>
    <sch:rule context="f:ServiceRequest/f:extension">
      <sch:assert test="count(f:id) &lt;= 1">id: maximum cardinality of 'id' is 1</sch:assert>
      <sch:assert test="count(f:url) &gt;= 1">url: minimum cardinality of 'url' is 1</sch:assert>
      <sch:assert test="count(f:url) &lt;= 1">url: maximum cardinality of 'url' is 1</sch:assert>
    </sch:rule>
  </sch:pattern>
  <sch:pattern>
    <sch:title>ServiceRequest.extension.extension</sch:title>
    <sch:rule context="f:ServiceRequest/f:extension/f:extension">
      <sch:assert test="@value|f:*|h:div">All FHIR elements must have a @value or children</sch:assert>
      <sch:assert test="exists(f:extension)!=exists(f:*[starts-with(local-name(.), &quot;value&quot;)])">Must have either extensions or value[x], not both</sch:assert>
    </sch:rule>
  </sch:pattern>
  <sch:pattern>
    <sch:title>ServiceRequest.extension.value[x] 1</sch:title>
    <sch:rule context="f:ServiceRequest/f:extension/f:value[x]">
      <sch:assert test="@value|f:*|h:div">FHIR-ийн бүх элементүүд @утга эсвэл дэд элементийг агуулах ёстой</sch:assert>
      <sch:assert test="@value|f:*|h:div">FHIR-ийн бүх элементүүд @утга эсвэл дэд элементийг агуулах ёстой</sch:assert>
    </sch:rule>
  </sch:pattern>
  <sch:pattern>
    <sch:title>ServiceRequest.modifierExtension</sch:title>
    <sch:rule context="f:ServiceRequest/f:modifierExtension">
      <sch:assert test="@value|f:*|h:div">FHIR-ийн бүх элементүүд @утга эсвэл дэд элементийг агуулах ёстой</sch:assert>
      <sch:assert test="exists(f:extension)!=exists(f:*[starts-with(local-name(.), &quot;value&quot;)])">Өргөтгөл эсвэл утга[x]-ийн аль нэгийг агуулах ёстой, хоёуланг нь агуулж болохгүй</sch:assert>
    </sch:rule>
  </sch:pattern>
  <sch:pattern>
    <sch:title>f:ServiceRequest/f:identifier</sch:title>
    <sch:rule context="f:ServiceRequest/f:identifier">
      <sch:assert test="count(f:id) &lt;= 1">id: maximum cardinality of 'id' is 1</sch:assert>
      <sch:assert test="count(f:use) &lt;= 1">use: maximum cardinality of 'use' is 1</sch:assert>
      <sch:assert test="count(f:type) &gt;= 1">type: minimum cardinality of 'type' is 1</sch:assert>
      <sch:assert test="count(f:type) &lt;= 1">type: maximum cardinality of 'type' is 1</sch:assert>
      <sch:assert test="count(f:system) &lt;= 1">system: maximum cardinality of 'system' is 1</sch:assert>
      <sch:assert test="count(f:value) &gt;= 1">value: minimum cardinality of 'value' is 1</sch:assert>
      <sch:assert test="count(f:value) &lt;= 1">value: maximum cardinality of 'value' is 1</sch:assert>
      <sch:assert test="count(f:period) &lt;= 1">period: maximum cardinality of 'period' is 1</sch:assert>
      <sch:assert test="count(f:assigner) &lt;= 1">assigner: maximum cardinality of 'assigner' is 1</sch:assert>
      <sch:assert test="count(f:id) &lt;= 1">id: maximum cardinality of 'id' is 1</sch:assert>
      <sch:assert test="count(f:use) &lt;= 1">use: maximum cardinality of 'use' is 1</sch:assert>
      <sch:assert test="count(f:type) &gt;= 1">type: minimum cardinality of 'type' is 1</sch:assert>
      <sch:assert test="count(f:type) &lt;= 1">type: maximum cardinality of 'type' is 1</sch:assert>
      <sch:assert test="count(f:system) &lt;= 1">system: maximum cardinality of 'system' is 1</sch:assert>
      <sch:assert test="count(f:value) &gt;= 1">value: minimum cardinality of 'value' is 1</sch:assert>
      <sch:assert test="count(f:value) &lt;= 1">value: maximum cardinality of 'value' is 1</sch:assert>
      <sch:assert test="count(f:period) &lt;= 1">period: maximum cardinality of 'period' is 1</sch:assert>
      <sch:assert test="count(f:assigner) &lt;= 1">assigner: maximum cardinality of 'assigner' is 1</sch:assert>
    </sch:rule>
  </sch:pattern>
  <sch:pattern>
    <sch:title>ServiceRequest.identifier</sch:title>
    <sch:rule context="f:ServiceRequest/f:identifier">
      <sch:assert test="@value|f:*|h:div">FHIR-ийн бүх элементүүд @утга эсвэл дэд элементийг агуулах ёстой</sch:assert>
      <sch:assert test="@value|f:*|h:div">FHIR-ийн бүх элементүүд @утга эсвэл дэд элементийг агуулах ёстой</sch:assert>
    </sch:rule>
  </sch:pattern>
  <sch:pattern>
    <sch:title>ServiceRequest.identifier.extension</sch:title>
    <sch:rule context="f:ServiceRequest/f:identifier/f:extension">
      <sch:assert test="@value|f:*|h:div">FHIR-ийн бүх элементүүд @утга эсвэл дэд элементийг агуулах ёстой</sch:assert>
      <sch:assert test="exists(f:extension)!=exists(f:*[starts-with(local-name(.), &quot;value&quot;)])">Өргөтгөл эсвэл утга[x]-ийн аль нэгийг агуулах ёстой, хоёуланг нь агуулж болохгүй</sch:assert>
      <sch:assert test="@value|f:*|h:div">FHIR-ийн бүх элементүүд @утга эсвэл дэд элементийг агуулах ёстой</sch:assert>
      <sch:assert test="exists(f:extension)!=exists(f:*[starts-with(local-name(.), &quot;value&quot;)])">Өргөтгөл эсвэл утга[x]-ийн аль нэгийг агуулах ёстой, хоёуланг нь агуулж болохгүй</sch:assert>
    </sch:rule>
  </sch:pattern>
  <sch:pattern>
    <sch:title>ServiceRequest.identifier.use</sch:title>
    <sch:rule context="f:ServiceRequest/f:identifier/f:use">
      <sch:assert test="@value|f:*|h:div">FHIR-ийн бүх элементүүд @утга эсвэл дэд элементийг агуулах ёстой</sch:assert>
      <sch:assert test="@value|f:*|h:div">FHIR-ийн бүх элементүүд @утга эсвэл дэд элементийг агуулах ёстой</sch:assert>
    </sch:rule>
  </sch:pattern>
  <sch:pattern>
    <sch:title>ServiceRequest.identifier.type</sch:title>
    <sch:rule context="f:ServiceRequest/f:identifier/f:type">
      <sch:assert test="@value|f:*|h:div">FHIR-ийн бүх элементүүд @утга эсвэл дэд элементийг агуулах ёстой</sch:assert>
      <sch:assert test="@value|f:*|h:div">FHIR-ийн бүх элементүүд @утга эсвэл дэд элементийг агуулах ёстой</sch:assert>
    </sch:rule>
  </sch:pattern>
  <sch:pattern>
    <sch:title>ServiceRequest.identifier.system</sch:title>
    <sch:rule context="f:ServiceRequest/f:identifier/f:system">
      <sch:assert test="@value|f:*|h:div">FHIR-ийн бүх элементүүд @утга эсвэл дэд элементийг агуулах ёстой</sch:assert>
      <sch:assert test="@value|f:*|h:div">FHIR-ийн бүх элементүүд @утга эсвэл дэд элементийг агуулах ёстой</sch:assert>
    </sch:rule>
  </sch:pattern>
  <sch:pattern>
    <sch:title>ServiceRequest.identifier.value</sch:title>
    <sch:rule context="f:ServiceRequest/f:identifier/f:value">
      <sch:assert test="@value|f:*|h:div">FHIR-ийн бүх элементүүд @утга эсвэл дэд элементийг агуулах ёстой</sch:assert>
      <sch:assert test="@value|f:*|h:div">FHIR-ийн бүх элементүүд @утга эсвэл дэд элементийг агуулах ёстой</sch:assert>
    </sch:rule>
  </sch:pattern>
  <sch:pattern>
    <sch:title>ServiceRequest.identifier.period</sch:title>
    <sch:rule context="f:ServiceRequest/f:identifier/f:period">
      <sch:assert test="@value|f:*|h:div">FHIR-ийн бүх элементүүд @утга эсвэл дэд элементийг агуулах ёстой</sch:assert>
      <sch:assert test="@value|f:*|h:div">FHIR-ийн бүх элементүүд @утга эсвэл дэд элементийг агуулах ёстой</sch:assert>
    </sch:rule>
  </sch:pattern>
  <sch:pattern>
    <sch:title>ServiceRequest.identifier.assigner</sch:title>
    <sch:rule context="f:ServiceRequest/f:identifier/f:assigner">
      <sch:assert test="@value|f:*|h:div">FHIR-ийн бүх элементүүд @утга эсвэл дэд элементийг агуулах ёстой</sch:assert>
      <sch:assert test="@value|f:*|h:div">FHIR-ийн бүх элементүүд @утга эсвэл дэд элементийг агуулах ёстой</sch:assert>
    </sch:rule>
  </sch:pattern>
  <sch:pattern>
    <sch:title>f:ServiceRequest/f:identifier/f:type</sch:title>
    <sch:rule context="f:ServiceRequest/f:identifier/f:type">
      <sch:assert test="count(f:id) &lt;= 1">id: maximum cardinality of 'id' is 1</sch:assert>
      <sch:assert test="count(f:text) &lt;= 1">text: maximum cardinality of 'text' is 1</sch:assert>
    </sch:rule>
  </sch:pattern>
  <sch:pattern>
    <sch:title>ServiceRequest.identifier.type.extension</sch:title>
    <sch:rule context="f:ServiceRequest/f:identifier/f:type/f:extension">
      <sch:assert test="@value|f:*|h:div">FHIR-ийн бүх элементүүд @утга эсвэл дэд элементийг агуулах ёстой</sch:assert>
      <sch:assert test="exists(f:extension)!=exists(f:*[starts-with(local-name(.), &quot;value&quot;)])">Өргөтгөл эсвэл утга[x]-ийн аль нэгийг агуулах ёстой, хоёуланг нь агуулж болохгүй</sch:assert>
    </sch:rule>
  </sch:pattern>
  <sch:pattern>
    <sch:title>f:ServiceRequest/f:identifier/f:type/f:coding</sch:title>
    <sch:rule context="f:ServiceRequest/f:identifier/f:type/f:coding">
      <sch:assert test="count(f:id) &lt;= 1">id: maximum cardinality of 'id' is 1</sch:assert>
      <sch:assert test="count(f:system) &lt;= 1">system: maximum cardinality of 'system' is 1</sch:assert>
      <sch:assert test="count(f:version) &lt;= 1">version: maximum cardinality of 'version' is 1</sch:assert>
      <sch:assert test="count(f:code) &lt;= 1">code: maximum cardinality of 'code' is 1</sch:assert>
      <sch:assert test="count(f:display) &lt;= 1">display: maximum cardinality of 'display' is 1</sch:assert>
      <sch:assert test="count(f:userSelected) &lt;= 1">userSelected: maximum cardinality of 'userSelected' is 1</sch:assert>
    </sch:rule>
  </sch:pattern>
  <sch:pattern>
    <sch:title>ServiceRequest.identifier.type.coding</sch:title>
    <sch:rule context="f:ServiceRequest/f:identifier/f:type/f:coding">
      <sch:assert test="@value|f:*|h:div">FHIR-ийн бүх элементүүд @утга эсвэл дэд элементийг агуулах ёстой</sch:assert>
    </sch:rule>
  </sch:pattern>
  <sch:pattern>
    <sch:title>ServiceRequest.identifier.type.coding.extension</sch:title>
    <sch:rule context="f:ServiceRequest/f:identifier/f:type/f:coding/f:extension">
      <sch:assert test="@value|f:*|h:div">FHIR-ийн бүх элементүүд @утга эсвэл дэд элементийг агуулах ёстой</sch:assert>
      <sch:assert test="exists(f:extension)!=exists(f:*[starts-with(local-name(.), &quot;value&quot;)])">Өргөтгөл эсвэл утга[x]-ийн аль нэгийг агуулах ёстой, хоёуланг нь агуулж болохгүй</sch:assert>
    </sch:rule>
  </sch:pattern>
  <sch:pattern>
    <sch:title>ServiceRequest.identifier.type.coding.system</sch:title>
    <sch:rule context="f:ServiceRequest/f:identifier/f:type/f:coding/f:system">
      <sch:assert test="@value|f:*|h:div">FHIR-ийн бүх элементүүд @утга эсвэл дэд элементийг агуулах ёстой</sch:assert>
    </sch:rule>
  </sch:pattern>
  <sch:pattern>
    <sch:title>ServiceRequest.identifier.type.coding.version</sch:title>
    <sch:rule context="f:ServiceRequest/f:identifier/f:type/f:coding/f:version">
      <sch:assert test="@value|f:*|h:div">FHIR-ийн бүх элементүүд @утга эсвэл дэд элементийг агуулах ёстой</sch:assert>
    </sch:rule>
  </sch:pattern>
  <sch:pattern>
    <sch:title>ServiceRequest.identifier.type.coding.code</sch:title>
    <sch:rule context="f:ServiceRequest/f:identifier/f:type/f:coding/f:code">
      <sch:assert test="@value|f:*|h:div">FHIR-ийн бүх элементүүд @утга эсвэл дэд элементийг агуулах ёстой</sch:assert>
    </sch:rule>
  </sch:pattern>
  <sch:pattern>
    <sch:title>ServiceRequest.identifier.type.coding.display</sch:title>
    <sch:rule context="f:ServiceRequest/f:identifier/f:type/f:coding/f:display">
      <sch:assert test="@value|f:*|h:div">FHIR-ийн бүх элементүүд @утга эсвэл дэд элементийг агуулах ёстой</sch:assert>
    </sch:rule>
  </sch:pattern>
  <sch:pattern>
    <sch:title>ServiceRequest.identifier.type.coding.userSelected</sch:title>
    <sch:rule context="f:ServiceRequest/f:identifier/f:type/f:coding/f:userSelected">
      <sch:assert test="@value|f:*|h:div">FHIR-ийн бүх элементүүд @утга эсвэл дэд элементийг агуулах ёстой</sch:assert>
    </sch:rule>
  </sch:pattern>
  <sch:pattern>
    <sch:title>ServiceRequest.identifier.type.text</sch:title>
    <sch:rule context="f:ServiceRequest/f:identifier/f:type/f:text">
      <sch:assert test="@value|f:*|h:div">FHIR-ийн бүх элементүүд @утга эсвэл дэд элементийг агуулах ёстой</sch:assert>
    </sch:rule>
  </sch:pattern>
  <sch:pattern>
    <sch:title>ServiceRequest.instantiatesCanonical</sch:title>
    <sch:rule context="f:ServiceRequest/f:instantiatesCanonical">
      <sch:assert test="@value|f:*|h:div">All FHIR elements must have a @value or children</sch:assert>
    </sch:rule>
  </sch:pattern>
  <sch:pattern>
    <sch:title>ServiceRequest.instantiatesUri</sch:title>
    <sch:rule context="f:ServiceRequest/f:instantiatesUri">
      <sch:assert test="@value|f:*|h:div">All FHIR elements must have a @value or children</sch:assert>
    </sch:rule>
  </sch:pattern>
  <sch:pattern>
    <sch:title>ServiceRequest.basedOn</sch:title>
    <sch:rule context="f:ServiceRequest/f:basedOn">
      <sch:assert test="@value|f:*|h:div">All FHIR elements must have a @value or children</sch:assert>
    </sch:rule>
  </sch:pattern>
  <sch:pattern>
    <sch:title>ServiceRequest.replaces</sch:title>
    <sch:rule context="f:ServiceRequest/f:replaces">
      <sch:assert test="@value|f:*|h:div">All FHIR elements must have a @value or children</sch:assert>
    </sch:rule>
  </sch:pattern>
  <sch:pattern>
    <sch:title>ServiceRequest.requisition</sch:title>
    <sch:rule context="f:ServiceRequest/f:requisition">
      <sch:assert test="@value|f:*|h:div">All FHIR elements must have a @value or children</sch:assert>
    </sch:rule>
  </sch:pattern>
  <sch:pattern>
    <sch:title>ServiceRequest.status</sch:title>
    <sch:rule context="f:ServiceRequest/f:status">
      <sch:assert test="@value|f:*|h:div">FHIR-ийн бүх элементүүд @утга эсвэл дэд элементийг агуулах ёстой</sch:assert>
    </sch:rule>
  </sch:pattern>
  <sch:pattern>
    <sch:title>ServiceRequest.intent</sch:title>
    <sch:rule context="f:ServiceRequest/f:intent">
      <sch:assert test="@value|f:*|h:div">FHIR-ийн бүх элементүүд @утга эсвэл дэд элементийг агуулах ёстой</sch:assert>
    </sch:rule>
  </sch:pattern>
  <sch:pattern>
    <sch:title>f:ServiceRequest/f:category</sch:title>
    <sch:rule context="f:ServiceRequest/f:category">
      <sch:assert test="count(f:id) &lt;= 1">id: maximum cardinality of 'id' is 1</sch:assert>
      <sch:assert test="count(f:extension[@url = 'http://fhir.mn/StructureDefinition/category-details']) &gt;= 1">extension with URL = 'http://fhir.mn/StructureDefinition/category-details': minimum cardinality of 'extension' is 1</sch:assert>
      <sch:assert test="count(f:extension[@url = 'http://fhir.mn/StructureDefinition/category-details']) &lt;= 1">extension with URL = 'http://fhir.mn/StructureDefinition/category-details': maximum cardinality of 'extension' is 1</sch:assert>
      <sch:assert test="count(f:text) &lt;= 1">text: maximum cardinality of 'text' is 1</sch:assert>
    </sch:rule>
  </sch:pattern>
  <sch:pattern>
    <sch:title>ServiceRequest.category</sch:title>
    <sch:rule context="f:ServiceRequest/f:category">
      <sch:assert test="@value|f:*|h:div">FHIR-ийн бүх элементүүд @утга эсвэл дэд элементийг агуулах ёстой</sch:assert>
    </sch:rule>
  </sch:pattern>
  <sch:pattern>
    <sch:title>ServiceRequest.category.extension</sch:title>
    <sch:rule context="f:ServiceRequest/f:category/f:extension">
      <sch:assert test="@value|f:*|h:div">FHIR-ийн бүх элементүүд @утга эсвэл дэд элементийг агуулах ёстой</sch:assert>
      <sch:assert test="exists(f:extension)!=exists(f:*[starts-with(local-name(.), &quot;value&quot;)])">Өргөтгөл эсвэл утга[x]-ийн аль нэгийг агуулах ёстой, хоёуланг нь агуулж болохгүй</sch:assert>
      <sch:assert test="@value|f:*|h:div">FHIR-ийн бүх элементүүд @утга эсвэл дэд элементийг агуулах ёстой</sch:assert>
      <sch:assert test="exists(f:extension)!=exists(f:*[starts-with(local-name(.), &quot;value&quot;)])">Өргөтгөл эсвэл утга[x]-ийн аль нэгийг агуулах ёстой, хоёуланг нь агуулж болохгүй</sch:assert>
    </sch:rule>
  </sch:pattern>
  <sch:pattern>
    <sch:title>f:ServiceRequest/f:category/f:extension</sch:title>
    <sch:rule context="f:ServiceRequest/f:category/f:extension">
      <sch:assert test="count(f:id) &lt;= 0">id: maximum cardinality of 'id' is 0</sch:assert>
      <sch:assert test="count(f:extension[@url = 'reason-detail']) &gt;= 1">extension with URL = 'reason-detail': minimum cardinality of 'extension' is 1</sch:assert>
      <sch:assert test="count(f:extension[@url = 'reason-detail']) &lt;= 1">extension with URL = 'reason-detail': maximum cardinality of 'extension' is 1</sch:assert>
      <sch:assert test="count(f:extension[@url = 'comment']) &lt;= 1">extension with URL = 'comment': maximum cardinality of 'extension' is 1</sch:assert>
      <sch:assert test="count(f:extension[@url = 'http://fhir.mn/StructureDefinition/patientAge']) &gt;= 1">extension with URL = 'http://fhir.mn/StructureDefinition/patientAge': minimum cardinality of 'extension' is 1</sch:assert>
      <sch:assert test="count(f:extension[@url = 'http://fhir.mn/StructureDefinition/patientAge']) &lt;= 1">extension with URL = 'http://fhir.mn/StructureDefinition/patientAge': maximum cardinality of 'extension' is 1</sch:assert>
      <sch:assert test="count(f:url) &gt;= 1">url: minimum cardinality of 'url' is 1</sch:assert>
      <sch:assert test="count(f:url) &lt;= 1">url: maximum cardinality of 'url' is 1</sch:assert>
      <sch:assert test="count(f:value[x]) &lt;= 0">value[x]: maximum cardinality of 'value[x]' is 0</sch:assert>
    </sch:rule>
  </sch:pattern>
  <sch:pattern>
    <sch:title>ServiceRequest.category.extension.extension</sch:title>
    <sch:rule context="f:ServiceRequest/f:category/f:extension/f:extension">
      <sch:assert test="@value|f:*|h:div">FHIR-ийн бүх элементүүд @утга эсвэл дэд элементийг агуулах ёстой</sch:assert>
      <sch:assert test="exists(f:extension)!=exists(f:*[starts-with(local-name(.), &quot;value&quot;)])">Өргөтгөл эсвэл утга[x]-ийн аль нэгийг агуулах ёстой, хоёуланг нь агуулж болохгүй</sch:assert>
      <sch:assert test="@value|f:*|h:div">FHIR-ийн бүх элементүүд @утга эсвэл дэд элементийг агуулах ёстой</sch:assert>
      <sch:assert test="exists(f:extension)!=exists(f:*[starts-with(local-name(.), &quot;value&quot;)])">Өргөтгөл эсвэл утга[x]-ийн аль нэгийг агуулах ёстой, хоёуланг нь агуулж болохгүй</sch:assert>
      <sch:assert test="@value|f:*|h:div">FHIR-ийн бүх элементүүд @утга эсвэл дэд элементийг агуулах ёстой</sch:assert>
      <sch:assert test="exists(f:extension)!=exists(f:*[starts-with(local-name(.), &quot;value&quot;)])">Өргөтгөл эсвэл утга[x]-ийн аль нэгийг агуулах ёстой, хоёуланг нь агуулж болохгүй</sch:assert>
      <sch:assert test="@value|f:*|h:div">FHIR-ийн бүх элементүүд @утга эсвэл дэд элементийг агуулах ёстой</sch:assert>
      <sch:assert test="exists(f:extension)!=exists(f:*[starts-with(local-name(.), &quot;value&quot;)])">Өргөтгөл эсвэл утга[x]-ийн аль нэгийг агуулах ёстой, хоёуланг нь агуулж болохгүй</sch:assert>
    </sch:rule>
  </sch:pattern>
  <sch:pattern>
    <sch:title>f:ServiceRequest/f:category/f:extension/f:extension</sch:title>
    <sch:rule context="f:ServiceRequest/f:category/f:extension/f:extension">
      <sch:assert test="count(f:id) &lt;= 0">id: maximum cardinality of 'id' is 0</sch:assert>
      <sch:assert test="count(f:url) &gt;= 1">url: minimum cardinality of 'url' is 1</sch:assert>
      <sch:assert test="count(f:url) &lt;= 1">url: maximum cardinality of 'url' is 1</sch:assert>
      <sch:assert test="count(f:id) &lt;= 0">id: maximum cardinality of 'id' is 0</sch:assert>
      <sch:assert test="count(f:url) &gt;= 1">url: minimum cardinality of 'url' is 1</sch:assert>
      <sch:assert test="count(f:url) &lt;= 1">url: maximum cardinality of 'url' is 1</sch:assert>
    </sch:rule>
  </sch:pattern>
  <sch:pattern>
    <sch:title>ServiceRequest.category.extension.extension.extension</sch:title>
    <sch:rule context="f:ServiceRequest/f:category/f:extension/f:extension/f:extension">
      <sch:assert test="@value|f:*|h:div">All FHIR elements must have a @value or children</sch:assert>
      <sch:assert test="exists(f:extension)!=exists(f:*[starts-with(local-name(.), &quot;value&quot;)])">Must have either extensions or value[x], not both</sch:assert>
      <sch:assert test="@value|f:*|h:div">All FHIR elements must have a @value or children</sch:assert>
      <sch:assert test="exists(f:extension)!=exists(f:*[starts-with(local-name(.), &quot;value&quot;)])">Must have either extensions or value[x], not both</sch:assert>
    </sch:rule>
  </sch:pattern>
  <sch:pattern>
    <sch:title>ServiceRequest.category.extension.extension.value[x] 1</sch:title>
    <sch:rule context="f:ServiceRequest/f:category/f:extension/f:extension/f:value[x]">
      <sch:assert test="@value|f:*|h:div">FHIR-ийн бүх элементүүд @утга эсвэл дэд элементийг агуулах ёстой</sch:assert>
      <sch:assert test="@value|f:*|h:div">FHIR-ийн бүх элементүүд @утга эсвэл дэд элементийг агуулах ёстой</sch:assert>
      <sch:assert test="@value|f:*|h:div">FHIR-ийн бүх элементүүд @утга эсвэл дэд элементийг агуулах ёстой</sch:assert>
      <sch:assert test="@value|f:*|h:div">FHIR-ийн бүх элементүүд @утга эсвэл дэд элементийг агуулах ёстой</sch:assert>
    </sch:rule>
  </sch:pattern>
  <sch:pattern>
    <sch:title>ServiceRequest.category.extension.value[x] 1</sch:title>
    <sch:rule context="f:ServiceRequest/f:category/f:extension/f:value[x]">
      <sch:assert test="@value|f:*|h:div">All FHIR elements must have a @value or children</sch:assert>
    </sch:rule>
  </sch:pattern>
  <sch:pattern>
    <sch:title>ServiceRequest.category.coding</sch:title>
    <sch:rule context="f:ServiceRequest/f:category/f:coding">
      <sch:assert test="@value|f:*|h:div">FHIR-ийн бүх элементүүд @утга эсвэл дэд элементийг агуулах ёстой</sch:assert>
    </sch:rule>
  </sch:pattern>
  <sch:pattern>
    <sch:title>ServiceRequest.category.text</sch:title>
    <sch:rule context="f:ServiceRequest/f:category/f:text">
      <sch:assert test="@value|f:*|h:div">FHIR-ийн бүх элементүүд @утга эсвэл дэд элементийг агуулах ёстой</sch:assert>
    </sch:rule>
  </sch:pattern>
  <sch:pattern>
    <sch:title>ServiceRequest.priority</sch:title>
    <sch:rule context="f:ServiceRequest/f:priority">
      <sch:assert test="@value|f:*|h:div">FHIR-ийн бүх элементүүд @утга эсвэл дэд элементийг агуулах ёстой</sch:assert>
    </sch:rule>
  </sch:pattern>
  <sch:pattern>
    <sch:title>ServiceRequest.doNotPerform</sch:title>
    <sch:rule context="f:ServiceRequest/f:doNotPerform">
      <sch:assert test="@value|f:*|h:div">All FHIR elements must have a @value or children</sch:assert>
    </sch:rule>
  </sch:pattern>
  <sch:pattern>
    <sch:title>ServiceRequest.code</sch:title>
    <sch:rule context="f:ServiceRequest/f:code">
      <sch:assert test="@value|f:*|h:div">All FHIR elements must have a @value or children</sch:assert>
    </sch:rule>
  </sch:pattern>
  <sch:pattern>
    <sch:title>ServiceRequest.orderDetail</sch:title>
    <sch:rule context="f:ServiceRequest/f:orderDetail">
      <sch:assert test="@value|f:*|h:div">All FHIR elements must have a @value or children</sch:assert>
    </sch:rule>
  </sch:pattern>
  <sch:pattern>
    <sch:title>ServiceRequest.quantity[x] 1</sch:title>
    <sch:rule context="f:ServiceRequest/f:quantity[x]">
      <sch:assert test="@value|f:*|h:div">All FHIR elements must have a @value or children</sch:assert>
    </sch:rule>
  </sch:pattern>
  <sch:pattern>
    <sch:title>ServiceRequest.subject</sch:title>
    <sch:rule context="f:ServiceRequest/f:subject">
      <sch:assert test="@value|f:*|h:div">FHIR-ийн бүх элементүүд @утга эсвэл дэд элементийг агуулах ёстой</sch:assert>
    </sch:rule>
  </sch:pattern>
  <sch:pattern>
    <sch:title>ServiceRequest.encounter</sch:title>
    <sch:rule context="f:ServiceRequest/f:encounter">
      <sch:assert test="@value|f:*|h:div">FHIR-ийн бүх элементүүд @утга эсвэл дэд элементийг агуулах ёстой</sch:assert>
    </sch:rule>
  </sch:pattern>
  <sch:pattern>
    <sch:title>ServiceRequest.occurrence[x] 1</sch:title>
    <sch:rule context="f:ServiceRequest/f:occurrence[x]">
      <sch:assert test="@value|f:*|h:div">All FHIR elements must have a @value or children</sch:assert>
    </sch:rule>
  </sch:pattern>
  <sch:pattern>
    <sch:title>ServiceRequest.asNeeded[x] 1</sch:title>
    <sch:rule context="f:ServiceRequest/f:asNeeded[x]">
      <sch:assert test="@value|f:*|h:div">All FHIR elements must have a @value or children</sch:assert>
    </sch:rule>
  </sch:pattern>
  <sch:pattern>
    <sch:title>ServiceRequest.authoredOn</sch:title>
    <sch:rule context="f:ServiceRequest/f:authoredOn">
      <sch:assert test="@value|f:*|h:div">FHIR-ийн бүх элементүүд @утга эсвэл дэд элементийг агуулах ёстой</sch:assert>
    </sch:rule>
  </sch:pattern>
  <sch:pattern>
    <sch:title>ServiceRequest.requester</sch:title>
    <sch:rule context="f:ServiceRequest/f:requester">
      <sch:assert test="@value|f:*|h:div">FHIR-ийн бүх элементүүд @утга эсвэл дэд элементийг агуулах ёстой</sch:assert>
    </sch:rule>
  </sch:pattern>
  <sch:pattern>
    <sch:title>ServiceRequest.performerType</sch:title>
    <sch:rule context="f:ServiceRequest/f:performerType">
      <sch:assert test="@value|f:*|h:div">All FHIR elements must have a @value or children</sch:assert>
    </sch:rule>
  </sch:pattern>
  <sch:pattern>
    <sch:title>ServiceRequest.performer</sch:title>
    <sch:rule context="f:ServiceRequest/f:performer">
      <sch:assert test="@value|f:*|h:div">FHIR-ийн бүх элементүүд @утга эсвэл дэд элементийг агуулах ёстой</sch:assert>
    </sch:rule>
  </sch:pattern>
  <sch:pattern>
    <sch:title>ServiceRequest.locationCode</sch:title>
    <sch:rule context="f:ServiceRequest/f:locationCode">
      <sch:assert test="@value|f:*|h:div">All FHIR elements must have a @value or children</sch:assert>
    </sch:rule>
  </sch:pattern>
  <sch:pattern>
    <sch:title>ServiceRequest.locationReference</sch:title>
    <sch:rule context="f:ServiceRequest/f:locationReference">
      <sch:assert test="@value|f:*|h:div">All FHIR elements must have a @value or children</sch:assert>
    </sch:rule>
  </sch:pattern>
  <sch:pattern>
    <sch:title>ServiceRequest.reasonCode</sch:title>
    <sch:rule context="f:ServiceRequest/f:reasonCode">
      <sch:assert test="@value|f:*|h:div">FHIR-ийн бүх элементүүд @утга эсвэл дэд элементийг агуулах ёстой</sch:assert>
    </sch:rule>
  </sch:pattern>
  <sch:pattern>
    <sch:title>ServiceRequest.reasonReference</sch:title>
    <sch:rule context="f:ServiceRequest/f:reasonReference">
      <sch:assert test="@value|f:*|h:div">All FHIR elements must have a @value or children</sch:assert>
    </sch:rule>
  </sch:pattern>
  <sch:pattern>
    <sch:title>ServiceRequest.insurance</sch:title>
    <sch:rule context="f:ServiceRequest/f:insurance">
      <sch:assert test="@value|f:*|h:div">All FHIR elements must have a @value or children</sch:assert>
    </sch:rule>
  </sch:pattern>
  <sch:pattern>
    <sch:title>ServiceRequest.supportingInfo</sch:title>
    <sch:rule context="f:ServiceRequest/f:supportingInfo">
      <sch:assert test="@value|f:*|h:div">All FHIR elements must have a @value or children</sch:assert>
    </sch:rule>
  </sch:pattern>
  <sch:pattern>
    <sch:title>ServiceRequest.specimen</sch:title>
    <sch:rule context="f:ServiceRequest/f:specimen">
      <sch:assert test="@value|f:*|h:div">All FHIR elements must have a @value or children</sch:assert>
    </sch:rule>
  </sch:pattern>
  <sch:pattern>
    <sch:title>ServiceRequest.bodySite</sch:title>
    <sch:rule context="f:ServiceRequest/f:bodySite">
      <sch:assert test="@value|f:*|h:div">All FHIR elements must have a @value or children</sch:assert>
    </sch:rule>
  </sch:pattern>
  <sch:pattern>
    <sch:title>ServiceRequest.note</sch:title>
    <sch:rule context="f:ServiceRequest/f:note">
      <sch:assert test="@value|f:*|h:div">All FHIR elements must have a @value or children</sch:assert>
    </sch:rule>
  </sch:pattern>
  <sch:pattern>
    <sch:title>ServiceRequest.patientInstruction</sch:title>
    <sch:rule context="f:ServiceRequest/f:patientInstruction">
      <sch:assert test="@value|f:*|h:div">All FHIR elements must have a @value or children</sch:assert>
    </sch:rule>
  </sch:pattern>
  <sch:pattern>
    <sch:title>ServiceRequest.relevantHistory</sch:title>
    <sch:rule context="f:ServiceRequest/f:relevantHistory">
      <sch:assert test="@value|f:*|h:div">All FHIR elements must have a @value or children</sch:assert>
    </sch:rule>
  </sch:pattern>
</sch:schema>
