<?xml version="1.0" encoding="UTF-8"?>
<sch:schema xmlns:sch="http://purl.oclc.org/dsdl/schematron" queryBinding="xslt2">
  <sch:ns prefix="f" uri="http://hl7.org/fhir"/>
  <sch:ns prefix="h" uri="http://www.w3.org/1999/xhtml"/>
  <!-- 
    This file contains just the constraints for the profile Procedure
    It includes the base constraints for the resource as well.
    Because of the way that schematrons and containment work, 
    you may need to use this schematron fragment to build a, 
    single schematron that validates contained resources (if you have any) 
  -->
  <sch:pattern>
    <sch:title>Procedure</sch:title>
    <sch:rule context="f:Procedure">
      <sch:assert test="not(parent::f:contained and f:contained)">Хэрвээ хэрэглүүр өөр хэрэглүүрийн дотор агуулагдаж байгаа бол, тэрээр дотроо багтсан хэрэглүүр агуулах ЁСГҮЙ.</sch:assert>
      <sch:assert test="not(exists(for $id in f:contained/*/f:id/@value return $contained[not(parent::*/descendant::f:reference/@value=concat('#', $contained/*/id/@value) or descendant::f:reference[@value='#'])]))">Хэрвээ хэрэглүүр өөр хэрэглүүрийн дотор агуулагдаж байгаа бол, тэрээр хэрэглүүрийн хаа нэгтэйгээс заагдсан байх ЁСТОЙ эсвэл агуулж буй хэрэглүүр рүү заах ЁСТОЙ.</sch:assert>
      <sch:assert test="not(exists(f:contained/*/f:meta/f:versionId)) and not(exists(f:contained/*/f:meta/f:lastUpdated))">Хэрвээ хэрэглүүр өөр хэрэглүүрийн дотор агуулагдаж байгаа бол тэрээр meta.versionId эсвэл meta.lastUpdated элементтэй байх ЁСГҮЙ.</sch:assert>
      <sch:assert test="not(exists(f:contained/*/f:meta/f:security))">Хэрвээ хэрэглүүр өөр хэрэглүүрийн дотор агуулагдаж байгаа бол, аюулгүй байдлын шошготой байх ЁСГҮЙ.</sch:assert>
      <sch:assert test="exists(f:text/h:div)">Зохион байгуулалтыг сайн байлгах үүднээс хэрэглүүрүүдэд хүүрнэл хэсэг байх хэрэгтэй.</sch:assert>
    </sch:rule>
  </sch:pattern>
  <sch:pattern>
    <sch:title>Procedure.meta</sch:title>
    <sch:rule context="f:Procedure/f:meta">
      <sch:assert test="@value|f:*|h:div">FHIR-ийн бүх элементүүд @утга эсвэл дэд элементийг агуулах ёстой</sch:assert>
    </sch:rule>
  </sch:pattern>
  <sch:pattern>
    <sch:title>Procedure.implicitRules</sch:title>
    <sch:rule context="f:Procedure/f:implicitRules">
      <sch:assert test="@value|f:*|h:div">FHIR-ийн бүх элементүүд @утга эсвэл дэд элементийг агуулах ёстой</sch:assert>
    </sch:rule>
  </sch:pattern>
  <sch:pattern>
    <sch:title>Procedure.language</sch:title>
    <sch:rule context="f:Procedure/f:language">
      <sch:assert test="@value|f:*|h:div">FHIR-ийн бүх элементүүд @утга эсвэл дэд элементийг агуулах ёстой</sch:assert>
    </sch:rule>
  </sch:pattern>
  <sch:pattern>
    <sch:title>Procedure.text</sch:title>
    <sch:rule context="f:Procedure/f:text">
      <sch:assert test="@value|f:*|h:div">FHIR-ийн бүх элементүүд @утга эсвэл дэд элементийг агуулах ёстой</sch:assert>
    </sch:rule>
  </sch:pattern>
  <sch:pattern>
    <sch:title>Procedure.extension</sch:title>
    <sch:rule context="f:Procedure/f:extension">
      <sch:assert test="@value|f:*|h:div">FHIR-ийн бүх элементүүд @утга эсвэл дэд элементийг агуулах ёстой</sch:assert>
      <sch:assert test="exists(f:extension)!=exists(f:*[starts-with(local-name(.), &quot;value&quot;)])">Өргөтгөл эсвэл утга[x]-ийн аль нэгийг агуулах ёстой, хоёуланг нь агуулж болохгүй</sch:assert>
    </sch:rule>
  </sch:pattern>
  <sch:pattern>
    <sch:title>Procedure.modifierExtension</sch:title>
    <sch:rule context="f:Procedure/f:modifierExtension">
      <sch:assert test="@value|f:*|h:div">FHIR-ийн бүх элементүүд @утга эсвэл дэд элементийг агуулах ёстой</sch:assert>
      <sch:assert test="exists(f:extension)!=exists(f:*[starts-with(local-name(.), &quot;value&quot;)])">Өргөтгөл эсвэл утга[x]-ийн аль нэгийг агуулах ёстой, хоёуланг нь агуулж болохгүй</sch:assert>
    </sch:rule>
  </sch:pattern>
  <sch:pattern>
    <sch:title>Procedure.identifier</sch:title>
    <sch:rule context="f:Procedure/f:identifier">
      <sch:assert test="@value|f:*|h:div">FHIR-ийн бүх элементүүд @утга эсвэл дэд элементийг агуулах ёстой</sch:assert>
    </sch:rule>
  </sch:pattern>
  <sch:pattern>
    <sch:title>Procedure.instantiatesCanonical</sch:title>
    <sch:rule context="f:Procedure/f:instantiatesCanonical">
      <sch:assert test="@value|f:*|h:div">FHIR-ийн бүх элементүүд @утга эсвэл дэд элементийг агуулах ёстой</sch:assert>
    </sch:rule>
  </sch:pattern>
  <sch:pattern>
    <sch:title>Procedure.instantiatesUri</sch:title>
    <sch:rule context="f:Procedure/f:instantiatesUri">
      <sch:assert test="@value|f:*|h:div">FHIR-ийн бүх элементүүд @утга эсвэл дэд элементийг агуулах ёстой</sch:assert>
    </sch:rule>
  </sch:pattern>
  <sch:pattern>
    <sch:title>Procedure.basedOn</sch:title>
    <sch:rule context="f:Procedure/f:basedOn">
      <sch:assert test="@value|f:*|h:div">FHIR-ийн бүх элементүүд @утга эсвэл дэд элементийг агуулах ёстой</sch:assert>
    </sch:rule>
  </sch:pattern>
  <sch:pattern>
    <sch:title>Procedure.partOf</sch:title>
    <sch:rule context="f:Procedure/f:partOf">
      <sch:assert test="@value|f:*|h:div">FHIR-ийн бүх элементүүд @утга эсвэл дэд элементийг агуулах ёстой</sch:assert>
    </sch:rule>
  </sch:pattern>
  <sch:pattern>
    <sch:title>Procedure.status</sch:title>
    <sch:rule context="f:Procedure/f:status">
      <sch:assert test="@value|f:*|h:div">FHIR-ийн бүх элементүүд @утга эсвэл дэд элементийг агуулах ёстой</sch:assert>
    </sch:rule>
  </sch:pattern>
  <sch:pattern>
    <sch:title>Procedure.statusReason</sch:title>
    <sch:rule context="f:Procedure/f:statusReason">
      <sch:assert test="@value|f:*|h:div">FHIR-ийн бүх элементүүд @утга эсвэл дэд элементийг агуулах ёстой</sch:assert>
    </sch:rule>
  </sch:pattern>
  <sch:pattern>
    <sch:title>Procedure.category</sch:title>
    <sch:rule context="f:Procedure/f:category">
      <sch:assert test="@value|f:*|h:div">FHIR-ийн бүх элементүүд @утга эсвэл дэд элементийг агуулах ёстой</sch:assert>
    </sch:rule>
  </sch:pattern>
  <sch:pattern>
    <sch:title>Procedure.code</sch:title>
    <sch:rule context="f:Procedure/f:code">
      <sch:assert test="@value|f:*|h:div">FHIR-ийн бүх элементүүд @утга эсвэл дэд элементийг агуулах ёстой</sch:assert>
    </sch:rule>
  </sch:pattern>
  <sch:pattern>
    <sch:title>Procedure.subject</sch:title>
    <sch:rule context="f:Procedure/f:subject">
      <sch:assert test="@value|f:*|h:div">FHIR-ийн бүх элементүүд @утга эсвэл дэд элементийг агуулах ёстой</sch:assert>
    </sch:rule>
  </sch:pattern>
  <sch:pattern>
    <sch:title>Procedure.encounter</sch:title>
    <sch:rule context="f:Procedure/f:encounter">
      <sch:assert test="@value|f:*|h:div">FHIR-ийн бүх элементүүд @утга эсвэл дэд элементийг агуулах ёстой</sch:assert>
    </sch:rule>
  </sch:pattern>
  <sch:pattern>
    <sch:title>Procedure.performed[x] 1</sch:title>
    <sch:rule context="f:Procedure/f:performed[x]">
      <sch:assert test="@value|f:*|h:div">FHIR-ийн бүх элементүүд @утга эсвэл дэд элементийг агуулах ёстой</sch:assert>
    </sch:rule>
  </sch:pattern>
  <sch:pattern>
    <sch:title>Procedure.recorder</sch:title>
    <sch:rule context="f:Procedure/f:recorder">
      <sch:assert test="@value|f:*|h:div">FHIR-ийн бүх элементүүд @утга эсвэл дэд элементийг агуулах ёстой</sch:assert>
    </sch:rule>
  </sch:pattern>
  <sch:pattern>
    <sch:title>Procedure.asserter</sch:title>
    <sch:rule context="f:Procedure/f:asserter">
      <sch:assert test="@value|f:*|h:div">FHIR-ийн бүх элементүүд @утга эсвэл дэд элементийг агуулах ёстой</sch:assert>
    </sch:rule>
  </sch:pattern>
  <sch:pattern>
    <sch:title>Procedure.performer</sch:title>
    <sch:rule context="f:Procedure/f:performer">
      <sch:assert test="@value|f:*|h:div">FHIR-ийн бүх элементүүд @утга эсвэл дэд элементийг агуулах ёстой</sch:assert>
    </sch:rule>
  </sch:pattern>
  <sch:pattern>
    <sch:title>Procedure.performer.extension</sch:title>
    <sch:rule context="f:Procedure/f:performer/f:extension">
      <sch:assert test="@value|f:*|h:div">FHIR-ийн бүх элементүүд @утга эсвэл дэд элементийг агуулах ёстой</sch:assert>
      <sch:assert test="exists(f:extension)!=exists(f:*[starts-with(local-name(.), &quot;value&quot;)])">Өргөтгөл эсвэл утга[x]-ийн аль нэгийг агуулах ёстой, хоёуланг нь агуулж болохгүй</sch:assert>
    </sch:rule>
  </sch:pattern>
  <sch:pattern>
    <sch:title>Procedure.performer.modifierExtension</sch:title>
    <sch:rule context="f:Procedure/f:performer/f:modifierExtension">
      <sch:assert test="@value|f:*|h:div">FHIR-ийн бүх элементүүд @утга эсвэл дэд элементийг агуулах ёстой</sch:assert>
      <sch:assert test="exists(f:extension)!=exists(f:*[starts-with(local-name(.), &quot;value&quot;)])">Өргөтгөл эсвэл утга[x]-ийн аль нэгийг агуулах ёстой, хоёуланг нь агуулж болохгүй</sch:assert>
    </sch:rule>
  </sch:pattern>
  <sch:pattern>
    <sch:title>Procedure.performer.function</sch:title>
    <sch:rule context="f:Procedure/f:performer/f:function">
      <sch:assert test="@value|f:*|h:div">FHIR-ийн бүх элементүүд @утга эсвэл дэд элементийг агуулах ёстой</sch:assert>
    </sch:rule>
  </sch:pattern>
  <sch:pattern>
    <sch:title>Procedure.performer.actor</sch:title>
    <sch:rule context="f:Procedure/f:performer/f:actor">
      <sch:assert test="@value|f:*|h:div">FHIR-ийн бүх элементүүд @утга эсвэл дэд элементийг агуулах ёстой</sch:assert>
    </sch:rule>
  </sch:pattern>
  <sch:pattern>
    <sch:title>Procedure.performer.onBehalfOf</sch:title>
    <sch:rule context="f:Procedure/f:performer/f:onBehalfOf">
      <sch:assert test="@value|f:*|h:div">FHIR-ийн бүх элементүүд @утга эсвэл дэд элементийг агуулах ёстой</sch:assert>
    </sch:rule>
  </sch:pattern>
  <sch:pattern>
    <sch:title>Procedure.location</sch:title>
    <sch:rule context="f:Procedure/f:location">
      <sch:assert test="@value|f:*|h:div">FHIR-ийн бүх элементүүд @утга эсвэл дэд элементийг агуулах ёстой</sch:assert>
    </sch:rule>
  </sch:pattern>
  <sch:pattern>
    <sch:title>Procedure.reasonCode</sch:title>
    <sch:rule context="f:Procedure/f:reasonCode">
      <sch:assert test="@value|f:*|h:div">FHIR-ийн бүх элементүүд @утга эсвэл дэд элементийг агуулах ёстой</sch:assert>
    </sch:rule>
  </sch:pattern>
  <sch:pattern>
    <sch:title>Procedure.reasonReference</sch:title>
    <sch:rule context="f:Procedure/f:reasonReference">
      <sch:assert test="@value|f:*|h:div">FHIR-ийн бүх элементүүд @утга эсвэл дэд элементийг агуулах ёстой</sch:assert>
    </sch:rule>
  </sch:pattern>
  <sch:pattern>
    <sch:title>Procedure.bodySite</sch:title>
    <sch:rule context="f:Procedure/f:bodySite">
      <sch:assert test="@value|f:*|h:div">FHIR-ийн бүх элементүүд @утга эсвэл дэд элементийг агуулах ёстой</sch:assert>
    </sch:rule>
  </sch:pattern>
  <sch:pattern>
    <sch:title>Procedure.outcome</sch:title>
    <sch:rule context="f:Procedure/f:outcome">
      <sch:assert test="@value|f:*|h:div">FHIR-ийн бүх элементүүд @утга эсвэл дэд элементийг агуулах ёстой</sch:assert>
    </sch:rule>
  </sch:pattern>
  <sch:pattern>
    <sch:title>Procedure.report</sch:title>
    <sch:rule context="f:Procedure/f:report">
      <sch:assert test="@value|f:*|h:div">FHIR-ийн бүх элементүүд @утга эсвэл дэд элементийг агуулах ёстой</sch:assert>
    </sch:rule>
  </sch:pattern>
  <sch:pattern>
    <sch:title>Procedure.complication</sch:title>
    <sch:rule context="f:Procedure/f:complication">
      <sch:assert test="@value|f:*|h:div">FHIR-ийн бүх элементүүд @утга эсвэл дэд элементийг агуулах ёстой</sch:assert>
    </sch:rule>
  </sch:pattern>
  <sch:pattern>
    <sch:title>Procedure.complicationDetail</sch:title>
    <sch:rule context="f:Procedure/f:complicationDetail">
      <sch:assert test="@value|f:*|h:div">FHIR-ийн бүх элементүүд @утга эсвэл дэд элементийг агуулах ёстой</sch:assert>
    </sch:rule>
  </sch:pattern>
  <sch:pattern>
    <sch:title>Procedure.followUp</sch:title>
    <sch:rule context="f:Procedure/f:followUp">
      <sch:assert test="@value|f:*|h:div">FHIR-ийн бүх элементүүд @утга эсвэл дэд элементийг агуулах ёстой</sch:assert>
    </sch:rule>
  </sch:pattern>
  <sch:pattern>
    <sch:title>Procedure.note</sch:title>
    <sch:rule context="f:Procedure/f:note">
      <sch:assert test="@value|f:*|h:div">FHIR-ийн бүх элементүүд @утга эсвэл дэд элементийг агуулах ёстой</sch:assert>
    </sch:rule>
  </sch:pattern>
  <sch:pattern>
    <sch:title>Procedure.focalDevice</sch:title>
    <sch:rule context="f:Procedure/f:focalDevice">
      <sch:assert test="@value|f:*|h:div">FHIR-ийн бүх элементүүд @утга эсвэл дэд элементийг агуулах ёстой</sch:assert>
    </sch:rule>
  </sch:pattern>
  <sch:pattern>
    <sch:title>Procedure.focalDevice.extension</sch:title>
    <sch:rule context="f:Procedure/f:focalDevice/f:extension">
      <sch:assert test="@value|f:*|h:div">FHIR-ийн бүх элементүүд @утга эсвэл дэд элементийг агуулах ёстой</sch:assert>
      <sch:assert test="exists(f:extension)!=exists(f:*[starts-with(local-name(.), &quot;value&quot;)])">Өргөтгөл эсвэл утга[x]-ийн аль нэгийг агуулах ёстой, хоёуланг нь агуулж болохгүй</sch:assert>
    </sch:rule>
  </sch:pattern>
  <sch:pattern>
    <sch:title>Procedure.focalDevice.modifierExtension</sch:title>
    <sch:rule context="f:Procedure/f:focalDevice/f:modifierExtension">
      <sch:assert test="@value|f:*|h:div">FHIR-ийн бүх элементүүд @утга эсвэл дэд элементийг агуулах ёстой</sch:assert>
      <sch:assert test="exists(f:extension)!=exists(f:*[starts-with(local-name(.), &quot;value&quot;)])">Өргөтгөл эсвэл утга[x]-ийн аль нэгийг агуулах ёстой, хоёуланг нь агуулж болохгүй</sch:assert>
    </sch:rule>
  </sch:pattern>
  <sch:pattern>
    <sch:title>Procedure.focalDevice.action</sch:title>
    <sch:rule context="f:Procedure/f:focalDevice/f:action">
      <sch:assert test="@value|f:*|h:div">FHIR-ийн бүх элементүүд @утга эсвэл дэд элементийг агуулах ёстой</sch:assert>
    </sch:rule>
  </sch:pattern>
  <sch:pattern>
    <sch:title>Procedure.focalDevice.manipulated</sch:title>
    <sch:rule context="f:Procedure/f:focalDevice/f:manipulated">
      <sch:assert test="@value|f:*|h:div">FHIR-ийн бүх элементүүд @утга эсвэл дэд элементийг агуулах ёстой</sch:assert>
    </sch:rule>
  </sch:pattern>
  <sch:pattern>
    <sch:title>Procedure.usedReference</sch:title>
    <sch:rule context="f:Procedure/f:usedReference">
      <sch:assert test="@value|f:*|h:div">FHIR-ийн бүх элементүүд @утга эсвэл дэд элементийг агуулах ёстой</sch:assert>
    </sch:rule>
  </sch:pattern>
  <sch:pattern>
    <sch:title>Procedure.usedCode</sch:title>
    <sch:rule context="f:Procedure/f:usedCode">
      <sch:assert test="@value|f:*|h:div">FHIR-ийн бүх элементүүд @утга эсвэл дэд элементийг агуулах ёстой</sch:assert>
    </sch:rule>
  </sch:pattern>
</sch:schema>
