{
  "package": "mng-implementation-guide",
  "version": "1.0.0",
  "fhirVersion": "4.0.1",
  "extensions": [
    {
      "url": "http://fhir.mn/StructureDefinition/accreditation",
      "title": "Тусгай зөвшөөрөл",
      "types": [
        "base64Binary",
        "boolean",
        "canonical",
        "code",
        "date",
        "dateTime",
        "decimal",
        "id",
        "instant",
        "integer",
        "markdown",
        "oid",
        "positiveInt",
        "string",
        "time",
        "unsignedInt",
        "uri",
        "url",
        "uuid",
        "Address",
        "Age",
        "Annotation",
        "Attachment",
        "CodeableConcept",
        "Coding",
        "ContactPoint",
        "Count",
        "Distance",
        "Duration",
        "HumanName",
        "Identifier",
        "Money",
        "Period",
        "Quantity",
        "Range",
        "Ratio",
        "Reference",
        "SampledData",
        "Signature",
        "Timing",
        "ContactDetail",
        "Contributor",
        "DataRequirement",
        "Expression",
        "ParameterDefinition",
        "RelatedArtifact",
        "TriggerDefinition",
        "UsageContext",
        "Dosage",
        "Meta"
      ]
    },
    {
      "url": "http://fhir.mn/StructureDefinition/accreditation-identifier",
      "title": "ТусгайЗөвшөөрөлЯлганТанигч",
      "types": [
        "Identifier",
        "Identifier"
      ]
    },
    {
      "url": "http://fhir.mn/StructureDefinition/accreditation-issuer",
      "title": "ТусгайЗөвшөөрөлОлгосонБайгууллага",
      "types": [
        "Reference"
      ]
    },
    {
      "url": "http://fhir.mn/StructureDefinition/accreditation-period",
      "title": "ТусгайЗөвшөөрөлХугацаа",
      "types": [
        "Period",
        "Period",
        "string",
        "Extension",
        "dateTime",
        "dateTime"
      ]
    },
    {
      "url": "http://fhir.mn/StructureDefinition/accreditation-type",
      "title": "ТусгайЗөвшөөрөлТөрөл",
      "types": [
        "CodeableConcept",
        "CodeableConcept"
      ]
    },
    {
      "url": "http://fhir.mn/StructureDefinition/activity-outcome",
      "title": "Activity outcome",
      "types": [
        "CodeableConcept",
        "CodeableConcept"
      ]
    },
    {
      "url": "http://fhir.mn/StructureDefinition/adverse-event",
      "title": "Adverse event",
      "types": [
        "base64Binary",
        "boolean",
        "canonical",
        "code",
        "date",
        "dateTime",
        "decimal",
        "id",
        "instant",
        "integer",
        "markdown",
        "oid",
        "positiveInt",
        "string",
        "time",
        "unsignedInt",
        "uri",
        "url",
        "uuid",
        "Address",
        "Age",
        "Annotation",
        "Attachment",
        "CodeableConcept",
        "Coding",
        "ContactPoint",
        "Count",
        "Distance",
        "Duration",
        "HumanName",
        "Identifier",
        "Money",
        "Period",
        "Quantity",
        "Range",
        "Ratio",
        "Reference",
        "SampledData",
        "Signature",
        "Timing",
        "ContactDetail",
        "Contributor",
        "DataRequirement",
        "Expression",
        "ParameterDefinition",
        "RelatedArtifact",
        "TriggerDefinition",
        "UsageContext",
        "Dosage",
        "Meta"
      ]
    },
    {
      "url": "http://fhir.mn/StructureDefinition/adverse-event-occurred",
      "title": "Adverse event occurred",
      "types": [
        "boolean",
        "boolean"
      ]
    },
    {
      "url": "http://fhir.mn/StructureDefinition/anaesthesia-used",
      "title": "Anaesthesia used",
      "types": [
        "boolean",
        "boolean"
      ]
    },
    {
      "url": "http://fhir.mn/StructureDefinition/anesthesia-type",
      "title": "Anesthesia Type",
      "types": [
        "CodeableConcept",
        "CodeableConcept",
        "string",
        "Extension",
        "Coding",
        "string"
      ]
    },
    {
      "url": "http://fhir.mn/StructureDefinition/category-details",
      "title": "Category details",
      "types": [
        "Coding",
        "Coding",
        "string",
        "string",
        "base64Binary",
        "boolean",
        "canonical",
        "code",
        "date",
        "dateTime",
        "decimal",
        "id",
        "instant",
        "integer",
        "markdown",
        "oid",
        "positiveInt",
        "string",
        "time",
        "unsignedInt",
        "uri",
        "url",
        "uuid",
        "Address",
        "Age",
        "Annotation",
        "Attachment",
        "CodeableConcept",
        "Coding",
        "ContactPoint",
        "Count",
        "Distance",
        "Duration",
        "HumanName",
        "Identifier",
        "Money",
        "Period",
        "Quantity",
        "Range",
        "Ratio",
        "Reference",
        "SampledData",
        "Signature",
        "Timing",
        "ContactDetail",
        "Contributor",
        "DataRequirement",
        "Expression",
        "ParameterDefinition",
        "RelatedArtifact",
        "TriggerDefinition",
        "UsageContext",
        "Dosage",
        "Meta"
      ]
    },
    {
      "url": "http://fhir.mn/StructureDefinition/clan-name",
      "title": "Clan name",
      "types": [
        "string",
        "string"
      ]
    },
    {
      "url": "http://fhir.mn/StructureDefinition/completion-date",
      "title": "Completion date",
      "types": [
        "dateTime",
        "dateTime"
      ]
    },
    {
      "url": "http://fhir.mn/StructureDefinition/creation-date",
      "title": "Creation date",
      "types": [
        "dateTime",
        "dateTime"
      ]
    },
    {
      "url": "http://fhir.mn/StructureDefinition/disease-causative-agent",
      "title": "Causative agent of disease being vaccinated against",
      "types": [
        "string",
        "string"
      ]
    },
    {
      "url": "http://fhir.mn/StructureDefinition/ethnicity",
      "title": "Patient ethnicity",
      "types": [
        "CodeableConcept",
        "CodeableConcept"
      ]
    },
    {
      "url": "http://fhir.mn/StructureDefinition/event",
      "title": "Adverse event",
      "types": [
        "CodeableConcept",
        "CodeableConcept"
      ]
    },
    {
      "url": "http://fhir.mn/StructureDefinition/experienced-trauma",
      "title": "ExperiencedTrauma",
      "types": [
        "boolean",
        "boolean"
      ]
    },
    {
      "url": "http://fhir.mn/StructureDefinition/handover-performed",
      "title": "time when handover was performed",
      "types": [
        "dateTime",
        "dateTime"
      ]
    },
    {
      "url": "http://fhir.mn/StructureDefinition/handover-person",
      "title": "person performing handover",
      "types": [
        "Reference",
        "Reference"
      ]
    },
    {
      "url": "http://fhir.mn/StructureDefinition/handover-requested",
      "title": "time when handover was requested",
      "types": [
        "dateTime",
        "dateTime"
      ]
    },
    {
      "url": "http://fhir.mn/StructureDefinition/healthcare-service",
      "title": "Related healthcare service",
      "types": [
        "Reference",
        "Reference"
      ]
    },
    {
      "url": "http://fhir.mn/StructureDefinition/information-to-patient",
      "title": "Recommendation to patient",
      "types": [
        "string",
        "string"
      ]
    },
    {
      "url": "http://fhir.mn/StructureDefinition/medication-used",
      "title": "Medication used",
      "types": [
        "boolean",
        "boolean"
      ]
    },
    {
      "url": "http://fhir.mn/StructureDefinition/medications",
      "title": "Medications",
      "types": [
        "CodeableConcept",
        "CodeableConcept"
      ]
    },
    {
      "url": "http://fhir.mn/StructureDefinition/mng-disease-category-extension",
      "title": "Disease category",
      "types": [
        "CodeableConcept",
        "CodeableConcept"
      ]
    },
    {
      "url": "http://fhir.mn/StructureDefinition/mng-medication-brand-name-extension",
      "title": "Brand name of drug",
      "types": [
        "CodeableConcept",
        "CodeableConcept",
        "string",
        "Extension",
        "Coding",
        "string",
        "Extension",
        "uri",
        "string",
        "code",
        "string",
        "boolean",
        "string"
      ]
    },
    {
      "url": "http://fhir.mn/StructureDefinition/nationality",
      "title": "Person nationality",
      "types": [
        "CodeableConcept",
        "CodeableConcept"
      ]
    },
    {
      "url": "http://fhir.mn/StructureDefinition/next-routine-vaccination-datetime",
      "title": "Date of the next routine vaccination",
      "types": [
        "dateTime",
        "dateTime"
      ]
    },
    {
      "url": "http://fhir.mn/StructureDefinition/outpatient-encounter-outcome",
      "title": "Outpatient Encounter outcomes",
      "types": [
        "CodeableConcept",
        "CodeableConcept"
      ]
    },
    {
      "url": "http://fhir.mn/StructureDefinition/outpatient-encounter-visit-type",
      "title": "Outpatient Encounter visit type",
      "types": [
        "CodeableConcept",
        "CodeableConcept"
      ]
    },
    {
      "url": "http://fhir.mn/StructureDefinition/outpatientServiceType",
      "title": "Organization outpatient service type",
      "types": [
        "CodeableConcept",
        "CodeableConcept"
      ]
    },
    {
      "url": "http://fhir.mn/StructureDefinition/ownership",
      "title": "Organization ownership",
      "types": [
        "CodeableConcept",
        "CodeableConcept"
      ]
    },
    {
      "url": "http://fhir.mn/StructureDefinition/patient-occupation",
      "title": "Occupation if the vaccination type is EPID - epidemiological vaccination",
      "types": [
        "CodeableConcept",
        "CodeableConcept"
      ]
    },
    {
      "url": "http://fhir.mn/StructureDefinition/patientAge",
      "title": "Patient age",
      "types": [
        "string",
        "string"
      ]
    },
    {
      "url": "http://fhir.mn/StructureDefinition/payment-information",
      "title": "PaymentInformation",
      "types": [
        "Money",
        "Money",
        "Money",
        "Money",
        "Money",
        "Money",
        "base64Binary",
        "boolean",
        "canonical",
        "code",
        "date",
        "dateTime",
        "decimal",
        "id",
        "instant",
        "integer",
        "markdown",
        "oid",
        "positiveInt",
        "string",
        "time",
        "unsignedInt",
        "uri",
        "url",
        "uuid",
        "Address",
        "Age",
        "Annotation",
        "Attachment",
        "CodeableConcept",
        "Coding",
        "ContactPoint",
        "Count",
        "Distance",
        "Duration",
        "HumanName",
        "Identifier",
        "Money",
        "Period",
        "Quantity",
        "Range",
        "Ratio",
        "Reference",
        "SampledData",
        "Signature",
        "Timing",
        "ContactDetail",
        "Contributor",
        "DataRequirement",
        "Expression",
        "ParameterDefinition",
        "RelatedArtifact",
        "TriggerDefinition",
        "UsageContext",
        "Dosage",
        "Meta"
      ]
    },
    {
      "url": "http://fhir.mn/StructureDefinition/period",
      "title": "Organization period",
      "types": [
        "Period",
        "Period",
        "string",
        "Extension",
        "dateTime",
        "dateTime"
      ]
    },
    {
      "url": "http://fhir.mn/StructureDefinition/prescription-type",
      "title": "Medication request type",
      "types": [
        "Coding",
        "Coding"
      ]
    },
    {
      "url": "http://fhir.mn/StructureDefinition/procedure-type",
      "title": "Procedure type",
      "types": [
        "CodeableConcept",
        "CodeableConcept"
      ]
    },
    {
      "url": "http://fhir.mn/StructureDefinition/receiving-person",
      "title": "person responsible for patient after handover",
      "types": [
        "Reference",
        "Reference"
      ]
    },
    {
      "url": "http://fhir.mn/StructureDefinition/reported-to-police",
      "title": "ReportedToPolice",
      "types": [
        "boolean",
        "boolean"
      ]
    },
    {
      "url": "http://fhir.mn/StructureDefinition/severity",
      "title": "Adverse event severity",
      "types": [
        "CodeableConcept",
        "CodeableConcept"
      ]
    },
    {
      "url": "http://fhir.mn/StructureDefinition/subdistrict",
      "title": "ДэдДүүрэг",
      "types": [
        "CodeableConcept",
        "CodeableConcept"
      ]
    },
    {
      "url": "http://fhir.mn/StructureDefinition/unit-price",
      "title": "Price of a single unit",
      "types": [
        "Money",
        "Money"
      ]
    },
    {
      "url": "http://fhir.mn/StructureDefinition/vaccination-complete-datetime",
      "title": "Date and time complete",
      "types": [
        "dateTime",
        "dateTime"
      ]
    },
    {
      "url": "http://fhir.mn/StructureDefinition/vaccination-consent",
      "title": "Consent for vaccination",
      "types": [
        "boolean",
        "boolean"
      ]
    },
    {
      "url": "http://fhir.mn/StructureDefinition/vaccination-consent-guardian",
      "title": "Consent from legal guardian for vaccination",
      "types": [
        "boolean",
        "boolean"
      ]
    },
    {
      "url": "http://fhir.mn/StructureDefinition/vaccination-type",
      "title": "Type of vaccination performed",
      "types": [
        "CodeableConcept",
        "CodeableConcept"
      ]
    },
    {
      "url": "http://fhir.mn/StructureDefinition/vaccine-concentration",
      "title": "Concentration of vaccine given",
      "types": [
        "Quantity",
        "Quantity"
      ]
    },
    {
      "url": "http://fhir.mn/StructureDefinition/vaccine-serial-number",
      "title": "Vaccine serial number",
      "types": [
        "string",
        "string"
      ]
    },
    {
      "url": "http://fhir.mn/StructureDefinition/wardType",
      "title": "Organization ward type",
      "types": [
        "CodeableConcept",
        "CodeableConcept"
      ]
    }
  ],
  "profiles": {
    "AllergyIntolerance": [
      {
        "url": "http://fhir.mn/StructureDefinition/mng-allergy-intolerance",
        "title": "AllergyIntoleranceMn"
      }
    ],
    "Composition": [
      {
        "url": "http://fhir.mn/StructureDefinition/mng-patient-summary",
        "title": "Patient summary"
      }
    ],
    "Encounter": [
      {
        "url": "http://fhir.mn/StructureDefinition/mng-inpatient-encounter",
        "title": "InpatientEncounterMn"
      }
    ],
    "DocumentReference": [
      {
        "url": "http://fhir.mn/StructureDefinition/mng-asr",
        "title": "AttachedSpecialRecord"
      }
    ],
    "Procedure": [
      {
        "url": "http://fhir.mn/StructureDefinition/mng-rehabilitation-treatment",
        "title": "Rehabilitation treatment"
      }
    ],
    "Observation": [
      {
        "url": "http://fhir.mn/StructureDefinition/mng-triage",
        "title": "TriageMn"
      }
    ],
    "Condition": [
      {
        "url": "http://fhir.mn/StructureDefinition/mng-past-condition",
        "title": "ConditionMn"
      }
    ],
    "Organization": [
      {
        "url": "http://fhir.mn/StructureDefinition/mng-manufacturer-organization",
        "title": "ManufacturerMn"
      }
    ],
    "Patient": [
      {
        "url": "http://fhir.mn/StructureDefinition/mng-core-patient",
        "title": "PatientMn"
      }
    ],
    "Practitioner": [
      {
        "url": "http://fhir.mn/StructureDefinition/mng-core-practitioner",
        "title": "PractitionerMn"
      }
    ],
    "PractitionerRole": [
      {
        "url": "http://fhir.mn/StructureDefinition/mng-core-practitioner-role",
        "title": "PractitionerRoleMn"
      }
    ],
    "Device": [
      {
        "url": "http://fhir.mn/StructureDefinition/mng-device",
        "title": "DeviceMn"
      }
    ],
    "DeviceUseStatement": [
      {
        "url": "http://fhir.mn/StructureDefinition/mng-device-use-statement",
        "title": "DeviceUseStatementMn"
      }
    ],
    "Appointment": [
      {
        "url": "http://fhir.mn/StructureDefinition/mng-electronic-referral-appointment",
        "title": "ElectronicReferralAppointmentMn"
      }
    ],
    "FamilyMemberHistory": [
      {
        "url": "http://fhir.mn/StructureDefinition/mng-family-member-history",
        "title": "FamilyMemberHistoryMn"
      }
    ],
    "HealthcareService": [
      {
        "url": "http://fhir.mn/StructureDefinition/mng-healthcare-service",
        "title": "HealthcareServiceMn"
      }
    ],
    "ServiceRequest": [
      {
        "url": "http://fhir.mn/StructureDefinition/mng-treatment-advice",
        "title": "Treatment advice"
      }
    ],
    "DiagnosticReport": [
      {
        "url": "http://fhir.mn/StructureDefinition/mng-lab-report",
        "title": "LabReportMn"
      }
    ],
    "Immunization": [
      {
        "url": "http://fhir.mn/StructureDefinition/mng-immunization",
        "title": "ImmunizationMn"
      }
    ],
    "Location": [
      {
        "url": "http://fhir.mn/StructureDefinition/mng-location",
        "title": "Location mn"
      }
    ],
    "Medication": [
      {
        "url": "http://fhir.mn/StructureDefinition/mng-medication",
        "title": "MedicationMn"
      }
    ],
    "MedicationDispense": [
      {
        "url": "http://fhir.mn/StructureDefinition/mng-medication-administration",
        "title": "MedicationAdministrationMn"
      },
      {
        "url": "http://fhir.mn/StructureDefinition/mng-medication-dispense",
        "title": "MedicationDispenseMn"
      }
    ],
    "MedicationRequest": [
      {
        "url": "http://fhir.mn/StructureDefinition/mng-medication-request",
        "title": "MedicationRequestMn"
      }
    ],
    "MedicationStatement": [
      {
        "url": "http://fhir.mn/StructureDefinition/mng-medication-statement",
        "title": "MedicationStatementMn"
      }
    ],
    "RelatedPerson": [
      {
        "url": "http://fhir.mn/StructureDefinition/mng-related-person",
        "title": "Related person"
      }
    ],
    "Schedule": [
      {
        "url": "http://fhir.mn/StructureDefinition/mng-schedule",
        "title": "Booking schedule"
      }
    ],
    "Slot": [
      {
        "url": "http://fhir.mn/StructureDefinition/mng-slot",
        "title": "SlotMn"
      }
    ],
    "Specimen": [
      {
        "url": "http://fhir.mn/StructureDefinition/mng-specimen",
        "title": "SpecimenMn"
      }
    ]
  },
  "usage": {
    "http://fhir.mn/StructureDefinition/accreditation": [
      "Organization"
    ],
    "http://fhir.mn/StructureDefinition/accreditation-identifier": [
      "Extension",
      "Organization.extension"
    ],
    "http://fhir.mn/StructureDefinition/accreditation-issuer": [
      "Extension",
      "Organization.extension"
    ],
    "http://fhir.mn/StructureDefinition/accreditation-period": [
      "Extension",
      "Organization.extension"
    ],
    "http://fhir.mn/StructureDefinition/accreditation-type": [
      "Extension",
      "Organization.extension"
    ],
    "http://fhir.mn/StructureDefinition/activity-outcome": [
      "DiagnosticReport",
      "Encounter"
    ],
    "http://fhir.mn/StructureDefinition/adverse-event": [
      "DiagnosticReport"
    ],
    "http://fhir.mn/StructureDefinition/adverse-event-occurred": [
      "DiagnosticReport"
    ],
    "http://fhir.mn/StructureDefinition/anaesthesia-used": [
      "DiagnosticReport"
    ],
    "http://fhir.mn/StructureDefinition/anesthesia-type": [
      "Procedure"
    ],
    "http://fhir.mn/StructureDefinition/category-details": [
      "ServiceRequest.category"
    ],
    "http://fhir.mn/StructureDefinition/clan-name": [
      "HumanName",
      "Organization.contact.name",
      "Patient.contact.name",
      "Patient.name",
      "Practitioner.name"
    ],
    "http://fhir.mn/StructureDefinition/completion-date": [
      "MedicationRequest"
    ],
    "http://fhir.mn/StructureDefinition/creation-date": [
      "MedicationDispense"
    ],
    "http://fhir.mn/StructureDefinition/disease-causative-agent": [
      "Immunization.protocolApplied"
    ],
    "http://fhir.mn/StructureDefinition/ethnicity": [
      "Patient"
    ],
    "http://fhir.mn/StructureDefinition/event": [
      "DiagnosticReport.extension",
      "Extension"
    ],
    "http://fhir.mn/StructureDefinition/experienced-trauma": [
      "Condition"
    ],
    "http://fhir.mn/StructureDefinition/handover-performed": [
      "Encounter.hospitalization"
    ],
    "http://fhir.mn/StructureDefinition/handover-person": [
      "Encounter.hospitalization"
    ],
    "http://fhir.mn/StructureDefinition/handover-requested": [
      "Encounter.hospitalization"
    ],
    "http://fhir.mn/StructureDefinition/healthcare-service": [
      "ServiceRequest"
    ],
    "http://fhir.mn/StructureDefinition/information-to-patient": [
      "Immunization"
    ],
    "http://fhir.mn/StructureDefinition/medication-used": [
      "DiagnosticReport"
    ],
    "http://fhir.mn/StructureDefinition/medications": [
      "DiagnosticReport"
    ],
    "http://fhir.mn/StructureDefinition/mng-disease-category-extension": [
      "Condition"
    ],
    "http://fhir.mn/StructureDefinition/mng-medication-brand-name-extension": [
      "Medication"
    ],
    "http://fhir.mn/StructureDefinition/nationality": [
      "Patient",
      "Practitioner"
    ],
    "http://fhir.mn/StructureDefinition/next-routine-vaccination-datetime": [
      "Immunization"
    ],
    "http://fhir.mn/StructureDefinition/outpatient-encounter-outcome": [
      "Encounter"
    ],
    "http://fhir.mn/StructureDefinition/outpatient-encounter-visit-type": [
      "Encounter"
    ],
    "http://fhir.mn/StructureDefinition/outpatientServiceType": [
      "Organization"
    ],
    "http://fhir.mn/StructureDefinition/ownership": [
      "Organization"
    ],
    "http://fhir.mn/StructureDefinition/patient-occupation": [
      "Immunization"
    ],
    "http://fhir.mn/StructureDefinition/patientAge": [
      "DiagnosticReport",
      "Extension",
      "ServiceRequest.category.extension"
    ],
    "http://fhir.mn/StructureDefinition/payment-information": [
      "DiagnosticReport",
      "MedicationDispense"
    ],
    "http://fhir.mn/StructureDefinition/period": [
      "Organization"
    ],
    "http://fhir.mn/StructureDefinition/prescription-type": [
      "MedicationRequest"
    ],
    "http://fhir.mn/StructureDefinition/procedure-type": [
      "DiagnosticReport"
    ],
    "http://fhir.mn/StructureDefinition/receiving-person": [
      "Encounter.hospitalization"
    ],
    "http://fhir.mn/StructureDefinition/reported-to-police": [
      "Condition"
    ],
    "http://fhir.mn/StructureDefinition/severity": [
      "DiagnosticReport.extension",
      "Extension"
    ],
    "http://fhir.mn/StructureDefinition/subdistrict": [
      "Address",
      "Organization.address",
      "Organization.contact.address",
      "Patient.address",
      "Patient.contact.address",
      "Practitioner.address"
    ],
    "http://fhir.mn/StructureDefinition/unit-price": [
      "MedicationDispense"
    ],
    "http://fhir.mn/StructureDefinition/vaccination-complete-datetime": [
      "Immunization"
    ],
    "http://fhir.mn/StructureDefinition/vaccination-consent": [
      "Immunization"
    ],
    "http://fhir.mn/StructureDefinition/vaccination-consent-guardian": [
      "Immunization"
    ],
    "http://fhir.mn/StructureDefinition/vaccination-type": [
      "Immunization"
    ],
    "http://fhir.mn/StructureDefinition/vaccine-concentration": [
      "Immunization"
    ],
    "http://fhir.mn/StructureDefinition/vaccine-serial-number": [
      "Immunization"
    ],
    "http://fhir.mn/StructureDefinition/wardType": [
      "Organization"
    ],
    "http://hl7.org/fhir/StructureDefinition/condition-dueTo": [
      "Condition"
    ],
    "http://hl7.org/fhir/StructureDefinition/elementdefinition-bestpractice": [
      "StructureDefinition.differential.element.constraint",
      "StructureDefinition.snapshot.element.constraint"
    ],
    "http://hl7.org/fhir/StructureDefinition/elementdefinition-bestpractice-explanation": [
      "StructureDefinition.differential.element.constraint",
      "StructureDefinition.snapshot.element.constraint"
    ],
    "http://hl7.org/fhir/StructureDefinition/elementdefinition-bindingName": [
      "StructureDefinition.snapshot.element.binding"
    ],
    "http://hl7.org/fhir/StructureDefinition/elementdefinition-isCommonBinding": [
      "StructureDefinition.snapshot.element.binding"
    ],
    "http://hl7.org/fhir/StructureDefinition/elementdefinition-maxValueSet": [
      "StructureDefinition.snapshot.element.binding"
    ],
    "http://hl7.org/fhir/StructureDefinition/elementdefinition-translatable": [
      "StructureDefinition.snapshot.element"
    ],
    "http://hl7.org/fhir/StructureDefinition/encounter-modeOfArrival": [
      "Encounter"
    ],
    "http://hl7.org/fhir/StructureDefinition/event-performerFunction": [
      "DiagnosticReport.performer"
    ],
    "http://hl7.org/fhir/StructureDefinition/regex": [
      "StructureDefinition.snapshot.element.type"
    ],
    "http://hl7.org/fhir/StructureDefinition/structuredefinition-display-hint": [
      "StructureDefinition.snapshot.element"
    ],
    "http://hl7.org/fhir/StructureDefinition/structuredefinition-explicit-type-name": [
      "StructureDefinition.snapshot.element"
    ],
    "http://hl7.org/fhir/StructureDefinition/structuredefinition-fhir-type": [
      "StructureDefinition.snapshot.element.type"
    ],
    "http://hl7.org/fhir/StructureDefinition/structuredefinition-hierarchy": [
      "StructureDefinition.differential.element.type",
      "StructureDefinition.snapshot.element.type"
    ],
    "http://hl7.org/fhir/StructureDefinition/structuredefinition-standards-status": [
      "StructureDefinition.snapshot.element"
    ],
    "http://hl7.org/fhir/tools/StructureDefinition/ig-parameter": [
      "ImplementationGuide.definition"
    ],
    "http://hl7.org/fhir/tools/StructureDefinition/resource-information": [
      "ImplementationGuide.definition.resource"
    ]
  }
}