{
  "resourceType": "ValueSet",
  "id": "VaccinationReasonsVS",
  "text": {
    "status": "generated",
    "div": "<div xmlns=\"http://www.w3.org/1999/xhtml\"><h2>Vaccination reasons</h2><ul><li>Include all codes defined in <a href=\"CodeSystem-VaccinationReasons.html\"><code>http://fhir.mn/CodeSystem/VaccinationReasons</code></a></li></ul></div>"
  },
  "url": "http://fhir.mn/ValueSet/VaccinationReasonsVS",
  "version": "1.0.0",
  "name": "ДархлаажуулалтынШалтгаанУтгынОлонлог",
  "title": "Vaccination reasons",
  "status": "active",
  "date": "2021-10-12T23:28:18+02:00",
  "publisher": "http://fhir.mn",
  "contact": [
    {
      "name": "Петур Бор Валдимарссон",
      "telecom": [
        {
          "system": "url",
          "value": "http://fhir.mn"
        },
        {
          "system": "email",
          "value": "petur.valdimarsson@chorus.se"
        }
      ]
    }
  ],
  "compose": {
    "include": [
      {
        "system": "http://fhir.mn/CodeSystem/VaccinationReasons"
      }
    ]
  }
}